{
  "_id": "r4JTr4PeaaMmNOoM",
  "name": "Fleshwarped Creature (Quick)",
  "permission": {
    "default": 0
  },
  "type": "feat",
  "data": {
    "description": {
      "value": "<p><strong>Acquired/Inherited Template</strong>&nbsp;Acquired<br><strong>Simple Template</strong>&nbsp;Yes<br><strong>Usable with Summons</strong>&nbsp;No<br><br>These creatures are twisted by fleshwarping, grants horrific abilities by perverting creatures’ original forms. This template can be applied only to corporeal living creatures.<br><br><strong>Quick Rules:</strong> +2 to AC and CMD; +2 to attack rolls and damage rolls; +2 hp/HD; +2 on rolls based on Str and Dex; –2 on rolls based on Int and Cha; the creature gains a new movement mode (climb, burrow, fly [clumsy], or swim) with a speed of 30 ft.<br><br><strong>Rebuild Rules:</strong>&nbsp;AC&nbsp;increase natural armor bonus by 2;&nbsp;Movement&nbsp;The creature gains a movement new movement mode (climb, burrow, fly [clumsy], or swim) with a speed of 30 ft.;&nbsp;Ability Scores&nbsp;+4 Str, +4 Con, –4 Int, –4 Cha.</p>",
      "chat": "",
      "unidentified": ""
    },
    "tags": [],
    "activation": {
      "cost": 1,
      "type": ""
    },
    "unchainedAction": {
      "activation": {
        "cost": 1,
        "type": ""
      }
    },
    "duration": {
      "value": null,
      "units": ""
    },
    "target": {
      "value": ""
    },
    "range": {
      "value": null,
      "units": "",
      "maxIncrements": 1,
      "minValue": null,
      "minUnits": "",
      "long": null
    },
    "uses": {
      "value": 0,
      "max": 0,
      "per": null,
      "autoDeductCharges": true,
      "autoDeductChargesCost": "1"
    },
    "measureTemplate": {
      "type": "",
      "size": "0",
      "overrideColor": false,
      "customColor": "",
      "overrideTexture": false,
      "customTexture": ""
    },
    "attackName": "",
    "actionType": "",
    "attackBonus": "",
    "critConfirmBonus": "",
    "damage": {
      "parts": [],
      "critParts": [],
      "nonCritParts": []
    },
    "attackParts": [],
    "formula": "",
    "ability": {
      "attack": null,
      "damage": null,
      "damageMult": 1,
      "critRange": 20,
      "critMult": 2
    },
    "save": {
      "dc": 0,
      "type": "",
      "description": ""
    },
    "effectNotes": "",
    "attackNotes": "",
    "soundEffect": "",
    "changes": [
      {
        "_id": "7bal0mpp",
        "formula": "2",
        "operator": "+",
        "target": "ac",
        "subTarget": "ac",
        "modifier": "untyped",
        "priority": 0,
        "value": 0
      },
      {
        "_id": "iducwqlo",
        "formula": "2",
        "operator": "+",
        "target": "misc",
        "subTarget": "cmd",
        "modifier": "untyped",
        "priority": 0,
        "value": 0
      },
      {
        "_id": "qhc0x9hh",
        "formula": "2",
        "operator": "+",
        "target": "attack",
        "subTarget": "attack",
        "modifier": "untyped",
        "priority": 0,
        "value": 0
      },
      {
        "_id": "h6xtdht7",
        "formula": "2",
        "operator": "+",
        "target": "damage",
        "subTarget": "damage",
        "modifier": "untyped",
        "priority": 0,
        "value": 0
      },
      {
        "_id": "lnz8zmhe",
        "formula": "2",
        "operator": "+",
        "target": "skills",
        "subTarget": "strSkills",
        "modifier": "untyped",
        "priority": 0,
        "value": 0
      },
      {
        "_id": "l1g4ob9i",
        "formula": "2",
        "operator": "+",
        "target": "abilityChecks",
        "subTarget": "strChecks",
        "modifier": "untyped",
        "priority": 0,
        "value": 0
      },
      {
        "_id": "vzyo8p5i",
        "formula": "2",
        "operator": "+",
        "target": "savingThrows",
        "subTarget": "ref",
        "modifier": "untyped",
        "priority": 0,
        "value": 0
      },
      {
        "_id": "u3c2o4jw",
        "formula": "2",
        "operator": "+",
        "target": "abilityChecks",
        "subTarget": "dexChecks",
        "modifier": "untyped",
        "priority": 0,
        "value": 0
      },
      {
        "_id": "tl1rzogd",
        "formula": "2",
        "operator": "+",
        "target": "skills",
        "subTarget": "dexSkills",
        "modifier": "untyped",
        "priority": 0,
        "value": 0
      },
      {
        "_id": "eu5m9z69",
        "formula": "-2",
        "operator": "+",
        "target": "skills",
        "subTarget": "intSkills",
        "modifier": "untyped",
        "priority": 0,
        "value": 0
      },
      {
        "_id": "qj8i3nnf",
        "formula": "-2",
        "operator": "+",
        "target": "abilityChecks",
        "subTarget": "intChecks",
        "modifier": "untyped",
        "priority": 0,
        "value": 0
      },
      {
        "_id": "fd0uii5q",
        "formula": "-2",
        "operator": "+",
        "target": "skills",
        "subTarget": "chaSkills",
        "modifier": "untyped",
        "priority": 0,
        "value": 0
      },
      {
        "_id": "aijp1yha",
        "formula": "-2",
        "operator": "+",
        "target": "abilityChecks",
        "subTarget": "chaChecks",
        "modifier": "untyped",
        "priority": 0,
        "value": 0
      }
    ],
    "changeFlags": {
      "loseDexToAC": false,
      "noStr": false,
      "noDex": false,
      "oneInt": false,
      "oneWis": false,
      "oneCha": false,
      "noEncumbrance": false,
      "mediumArmorFullSpeed": false,
      "heavyArmorFullSpeed": false
    },
    "contextNotes": [],
    "links": {
      "children": [],
      "charges": []
    },
    "tag": "",
    "useCustomTag": false,
    "armorProf": {
      "value": [],
      "custom": ""
    },
    "weaponProf": {
      "value": [],
      "custom": ""
    },
    "featType": "template",
    "associations": {
      "classes": []
    },
    "showInQuickbar": false,
    "nonlethal": false,
    "abilityType": "none",
    "crOffset": "1",
    "attack": {
      "parts": []
    }
  },
  "flags": {},
  "img": "systems/pf1/icons/skills/violet_07.jpg",
  "effects": []
}