{
  "_id": "apWl6JIJ8U8p0azq",
  "name": "Skinwalker",
  "permission": {
    "default": 0
  },
  "type": "race",
  "data": {
    "description": {
      "value": "<h2>Standard Racial Traits</h2>\n<ul>\n<li><strong>Ability Score Modifiers:</strong> Skinwalkers are well attuned to the natural order of things and value passion above reason. They gain +2&nbsp;<a href=\"https://www.d20pfsrd.com/basics-ability-scores/ability-scores#TOC-Wisdom-Wis-\">Wisdom</a>, –2&nbsp;<a href=\"https://www.d20pfsrd.com/basics-ability-scores/ability-scores#TOC-Intelligence-Int-\">Intelligence</a>, and +2 to one physical ability score while shapechanged (1 RP). While in their bestial form, they gain a +2&nbsp;<a href=\"https://www.d20pfsrd.com/basics-ability-scores/glossary#TOC-Racial-Bonus\">racial bonus</a>&nbsp;to either&nbsp;<a href=\"https://www.d20pfsrd.com/basics-ability-scores/ability-scores#TOC-Strength-Str-\">Strength</a>,&nbsp;<a href=\"https://www.d20pfsrd.com/basics-ability-scores/ability-scores#TOC-Dexterity-Dex-\">Dexterity</a>, or&nbsp;<a href=\"https://www.d20pfsrd.com/basics-ability-scores/ability-scores#TOC-Constitution-Con-\">Constitution</a>&nbsp;(see&nbsp;<a href=\"https://www.d20pfsrd.com/races/other-races/more-races/standard-races-1-10-rp/skinwalkers-10-rp#TOC-Skinwalker-Change-Shape\">Change Shape</a>). Skinwalkers of specific heritages (see below) gain different ability score modifiers, as indicated.</li>\n<li><strong>Size:</strong> Skinwalkers are Medium creatures and have no bonuses or penalties due to their size.</li>\n<li><strong>Type:</strong> Skinwalkers are&nbsp;<a href=\"https://www.d20pfsrd.com/bestiary/rules-for-monsters/creature-types#TOC-Humanoid\">humanoids</a>&nbsp;with the skinwalker and&nbsp;<a href=\"https://www.d20pfsrd.com/bestiary/rules-for-monsters/creature-types#TOC-Shapechanger\">shapechanger</a>&nbsp;subtypes.</li>\n<li><strong>Base Speed:</strong> Skinwalkers have a base speed of 30 feet.</li>\n<li><strong>Languages:</strong> Skinwalkers speak Common. Skinwalkers with high&nbsp;<a href=\"https://www.d20pfsrd.com/basics-ability-scores/ability-scores/#Intelligence_Int\">Intelligence</a>&nbsp;scores can choose any languages they want (except secret languages, such as Druidic).</li>\n</ul>\n<h3>Senses</h3>\n<ul>\n<li><strong>Low-Light Vision (Ex): </strong>Skinwalkers can see twice as far as&nbsp;<a href=\"https://www.d20pfsrd.com/races/core-races/human\">humans</a>&nbsp;in conditions of dim light.</li>\n</ul>\n<h3>Skill Racial Abilities</h3>\n<ul>\n<li>\n<p><strong>Animal-Minded:</strong> Skinwalkers have a +2&nbsp;<a href=\"https://www.d20pfsrd.com/basics-ability-scores/glossary#TOC-Racial-Bonus\">racial bonus</a>&nbsp;on&nbsp;<a href=\"https://www.d20pfsrd.com/skills/handle-animal\">Handle Animal</a>&nbsp;and&nbsp;<a href=\"https://www.d20pfsrd.com/classes/core-classes/druid#TOC-Wild-Empathy-Ex-\">wild empathy</a>&nbsp;checks. Skinwalkers of&nbsp;<a href=\"https://www.d20pfsrd.com/races/other-races/more-races/standard-races-1-10-rp/skinwalkers-10-rp#Skinwalker-Heritages\">specific heritages</a>&nbsp;gain a +2 bonus to different checks as indicated.</p>\n</li>\n</ul>\n<h3>Other Racial Traits</h3>\n<ul>\n<li><strong>Change Shape:</strong> A skinwalker can change shape to and from a bestial form as a&nbsp;<a href=\"https://www.d20pfsrd.com/gamemastering/combat#TOC-Standard-Actions\">standard action</a>. In bestial form, a skinwalker gains a +2&nbsp;<a href=\"https://www.d20pfsrd.com/basics-ability-scores/glossary#TOC-Racial-Bonus\">racial bonus</a>&nbsp;to either&nbsp;<a href=\"https://www.d20pfsrd.com/basics-ability-scores/ability-scores#TOC-Strength-Str-\">Strength</a>,&nbsp;<a href=\"https://www.d20pfsrd.com/basics-ability-scores/ability-scores#TOC-Dexterity-Dex-\">Dexterity</a>, or&nbsp;<a href=\"https://www.d20pfsrd.com/basics-ability-scores/ability-scores#TOC-Constitution-Con-\">Constitution</a>. While in this form, a skinwalker also takes on an animalistic feature that provides a special effect. Each time a skinwalker assumes bestial form, she can choose to gain one of the following features:\n<ul>\n<li>2 claw attacks that each deal 1d4 points of damage</li>\n<li><a href=\"https://www.d20pfsrd.com/gamemastering/special-abilities#TOC-Darkvision\">Darkvision</a>&nbsp;to a range of 60 feet.</li>\n<li>+1&nbsp;<a href=\"https://www.d20pfsrd.com/basics-ability-scores/glossary#TOC-Racial-Bonus\">racial bonus</a>&nbsp;to&nbsp;<a href=\"https://www.d20pfsrd.com/basics-ability-scores/glossary#TOC-Natural-Armor-Bonus\">natural armor</a>.</li>\n</ul>\n</li>\n</ul>\n<h3>Spell-Like Abilities</h3>\n<ul>\n<li><strong>Spell-Like Ability:</strong> Skinwalkers with a&nbsp;<a href=\"https://www.d20pfsrd.com/basics-ability-scores/ability-scores#TOC-Wisdom-Wis-\">Wisdom</a>&nbsp;score of 11 or higher can use&nbsp;<a href=\"https://www.d20pfsrd.com/magic/all-spells/s/speak-with-animals\">speak with animals</a>&nbsp;once per day as a&nbsp;<a href=\"https://www.d20pfsrd.com/magic#TOC-Spell-Like-Abilities-Sp-\">spell-like ability</a>. The&nbsp;<a href=\"https://www.d20pfsrd.com/magic#TOC-Caster-Level\">caster level</a>&nbsp;for this ability is equal to the skinwalker’s character level. Skinwalkers of&nbsp;<a href=\"https://www.d20pfsrd.com/races/other-races/more-races/standard-races-1-10-rp/skinwalkers-10-rp#Skinwalker-Heritages\">specific heritages</a>&nbsp;gain other spell-like abilities.</li>\n</ul>",
      "chat": "",
      "unidentified": ""
    },
    "tags": [],
    "changes": [
      {
        "_id": "sywwc1my",
        "formula": "2",
        "operator": "+",
        "target": "ability",
        "subTarget": "wis",
        "modifier": "racial",
        "priority": 0,
        "value": 0
      },
      {
        "_id": "ia4pbbhf",
        "formula": "-2",
        "operator": "+",
        "target": "ability",
        "subTarget": "int",
        "modifier": "racial",
        "priority": 0,
        "value": 0
      },
      {
        "_id": "21tm5s90",
        "formula": "2",
        "operator": "+",
        "target": "skill",
        "subTarget": "skill.han",
        "modifier": "untyped",
        "priority": 0,
        "value": 0
      }
    ],
    "changeFlags": {
      "loseDexToAC": false,
      "noStr": false,
      "noDex": false,
      "oneInt": false,
      "oneWis": false,
      "oneCha": false,
      "noEncumbrance": false,
      "mediumArmorFullSpeed": false,
      "heavyArmorFullSpeed": false
    },
    "contextNotes": [],
    "links": {
      "children": []
    },
    "armorProf": {
      "value": [],
      "custom": ""
    },
    "weaponProf": {
      "value": [],
      "custom": ""
    },
    "creatureType": "humanoid",
    "subTypes": [
      [
        "Shapechanger"
      ]
    ],
    "damage": {
      "parts": []
    }
  },
  "flags": {},
  "img": "systems/pf1/icons/skills/blue_35.jpg",
  "effects": []
}