{
  "_id": "O2LhGbHS4g2RRBw1",
  "name": "Boarding Gaff",
  "permission": {
    "default": 0
  },
  "type": "weapon",
  "data": {
    "description": {
      "value": "<p><em>A gaff hook is a long pole with a hook on one end for spearing fish. Pirates often add extra, heavier hooks to both ends of gaff hooks to assist with boarding actions. After the pirates use grappling hooks to draw ships close together, they hook the gunwales together with boarding gaffs to prevent the ships from drifting. Small crafts often use boarding gaffs in place of grappling hooks. Boarding gaffs bite deeply into the wood of the railing. It takes 1 minute to pry a boarding gaff loose. Most pirates use a&nbsp;<a href=\"https://www.d20pfsrd.com/equipment/weapons/weapon-descriptions/boarding-axe\">boarding axe</a>&nbsp;or&nbsp;<a href=\"https://www.d20pfsrd.com/equipment/weapons/weapon-descriptions/cutlass\">cutlass</a>&nbsp;to cut through boarding gaffs rather than trying to unhook them one by one. The gaff can also be used for fishing when not in combat.</em></p>",
      "chat": "",
      "unidentified": ""
    },
    "tags": [],
    "quantity": 1,
    "weight": 8,
    "price": 8,
    "identified": true,
    "hp": {
      "max": 10,
      "value": 10
    },
    "hardness": 5,
    "carried": true,
    "unidentified": {
      "price": 0,
      "name": ""
    },
    "identifiedName": "Boarding Gaff",
    "cl": 0,
    "aura": {
      "custom": false,
      "school": ""
    },
    "changes": [],
    "changeFlags": {
      "loseDexToAC": false,
      "noStr": false,
      "noDex": false,
      "oneInt": false,
      "oneWis": false,
      "oneCha": false,
      "noEncumbrance": false,
      "mediumArmorFullSpeed": false,
      "heavyArmorFullSpeed": false
    },
    "contextNotes": [],
    "links": {
      "children": []
    },
    "equipped": true,
    "masterwork": false,
    "weaponType": "exotic",
    "weaponSubtype": "2h",
    "properties": {
      "blc": false,
      "brc": false,
      "dbl": true,
      "dis": false,
      "fin": false,
      "frg": false,
      "imp": false,
      "mnk": false,
      "nnl": false,
      "prf": false,
      "rch": true,
      "thr": false,
      "trp": true,
      "grp": false,
      "snd": false
    },
    "enh": null,
    "weaponData": {
      "damageRoll": "1d6",
      "damageType": "S",
      "critRange": "20",
      "critMult": "2",
      "range": null,
      "attackFormula": "",
      "damageFormula": "",
      "size": "med",
      "maxRangeIncrements": 1
    },
    "broken": false,
    "bonus": {
      "value": 0,
      "_deprecated": true
    },
    "damageType": {
      "value": "",
      "_deprecated": true
    },
    "damage2": {
      "value": "",
      "_deprecated": true
    },
    "damage2Type": {
      "value": "",
      "_deprecated": true
    },
    "damage": {
      "parts": []
    }
  },
  "flags": {},
  "img": "systems/pf1/icons/items/weapons/boarding-gaff.png",
  "effects": []
}