{
  "_id": "P2YUScSoUD60dab5",
  "name": "Deer Horn Knife",
  "permission": {
    "default": 0
  },
  "type": "weapon",
  "data": {
    "description": {
      "value": "<p><em>This flat, metal weapon consists of two joined crescent-shaped blades overlapping to form a hollow center with four projecting points. The blades can differ in length. One side of the center is wrapped to serve as a grip while the other acts as a guard. Deer horn knives are traditionally used in pairs.</em></p>",
      "chat": "",
      "unidentified": ""
    },
    "tags": [],
    "quantity": 1,
    "weight": 3,
    "price": 10,
    "identified": true,
    "hp": {
      "max": 2,
      "value": 2
    },
    "hardness": 10,
    "carried": true,
    "unidentified": {
      "price": 0,
      "name": ""
    },
    "identifiedName": "",
    "cl": 0,
    "aura": {
      "custom": false,
      "school": ""
    },
    "changes": [],
    "changeFlags": {
      "loseDexToAC": false,
      "noStr": false,
      "noDex": false,
      "oneInt": false,
      "oneWis": false,
      "oneCha": false,
      "noEncumbrance": false,
      "mediumArmorFullSpeed": false,
      "heavyArmorFullSpeed": false
    },
    "contextNotes": [],
    "links": {
      "children": []
    },
    "equipped": true,
    "masterwork": false,
    "weaponType": "exotic",
    "weaponSubtype": "light",
    "properties": {
      "blc": true,
      "brc": false,
      "dbl": false,
      "dis": false,
      "fin": false,
      "frg": false,
      "imp": false,
      "mnk": true,
      "nnl": false,
      "prf": false,
      "rch": false,
      "thr": false,
      "trp": false
    },
    "enh": null,
    "weaponData": {
      "damageRoll": "1d4",
      "damageType": "P",
      "critRange": "20",
      "critMult": "3",
      "range": null,
      "attackFormula": "",
      "damageFormula": "",
      "size": "med",
      "maxRangeIncrements": 1
    },
    "broken": false,
    "bonus": {
      "value": 0,
      "_deprecated": true
    },
    "damageType": {
      "value": "",
      "_deprecated": true
    },
    "damage2": {
      "value": "",
      "_deprecated": true
    },
    "damage2Type": {
      "value": "",
      "_deprecated": true
    },
    "damage": {
      "parts": []
    }
  },
  "flags": {},
  "img": "systems/pf1/icons/items/weapons/knife-deer-horn.png",
  "effects": []
}