{
  "_id": "T5N66YUFkpdxXv3d",
  "name": "Stingchuck",
  "permission": {
    "default": 0
  },
  "type": "weapon",
  "data": {
    "description": {
      "value": "<p><em>A stingchuck is a foul bag made of a humanoid&rsquo;s head with the brain removed and the skull heavily scored so that it bursts open when thrown.</em></p>\n<p>Normally filled with biting vermin, a stingchuck acts as a splash weapon. When it hits, the vermin bite and sting the target, dealing 1d6 points of damage and forcing a DC 11&nbsp;<a href=\"https://www.d20pfsrd.com/gamemastering/combat/#TOC-Fortitude\">Fortitude</a>&nbsp;save to avoid being nauseated for 1d3 rounds. Each round a creature remains nauseated by a stingchuck, it takes 1 additional point of damage from the biting vermin. All creatures within the splash effect take 1 point of damage from the vermin but do not risk being nauseated.</p>",
      "chat": "",
      "unidentified": ""
    },
    "tags": [],
    "quantity": 1,
    "weight": 9,
    "price": 0,
    "identified": true,
    "hp": {
      "max": 5,
      "value": 5
    },
    "hardness": 5,
    "carried": true,
    "unidentified": {
      "price": 0,
      "name": ""
    },
    "identifiedName": "",
    "cl": 0,
    "aura": {
      "custom": false,
      "school": ""
    },
    "changes": [],
    "changeFlags": {
      "loseDexToAC": false,
      "noStr": false,
      "noDex": false,
      "oneInt": false,
      "oneWis": false,
      "oneCha": false,
      "noEncumbrance": false,
      "mediumArmorFullSpeed": false,
      "heavyArmorFullSpeed": false
    },
    "contextNotes": [],
    "links": {
      "children": []
    },
    "equipped": true,
    "masterwork": false,
    "weaponType": "simple",
    "weaponSubtype": "ranged",
    "properties": {
      "blc": false,
      "brc": false,
      "dbl": false,
      "dis": false,
      "fin": false,
      "frg": false,
      "imp": false,
      "mnk": false,
      "nnl": false,
      "prf": false,
      "rch": false,
      "thr": true,
      "trp": false
    },
    "enh": null,
    "weaponData": {
      "damageRoll": "1d4",
      "damageType": "B",
      "critRange": "20",
      "critMult": "2",
      "range": 10,
      "attackFormula": "",
      "damageFormula": "",
      "size": "med",
      "maxRangeIncrements": 5
    },
    "broken": false,
    "bonus": {
      "value": 0,
      "_deprecated": true
    },
    "damageType": {
      "value": "",
      "_deprecated": true
    },
    "damage2": {
      "value": "",
      "_deprecated": true
    },
    "damage2Type": {
      "value": "",
      "_deprecated": true
    },
    "damage": {
      "parts": []
    },
    "uses": {
      "value": 0,
      "max": 0
    }
  },
  "flags": {},
  "img": "systems/pf1/icons/items/weapons/stingchuck.PNG",
  "effects": []
}