{
  "_id": "bxbdOo9U1g2pVf6a",
  "name": "Throwing Arrow",
  "permission": {
    "default": 0
  },
  "type": "loot",
  "data": {
    "description": {
      "value": "<p>Too long to use in a bow, the throwing arrow has no nock at the tail. Instead, it has a notch ahead of the fletching where a throwing arrow cord can be attached.</p>\n<p><strong>Benefit:</strong>&nbsp;If thrown without the use of a cord, treat a throwing arrow as a&nbsp;<a href=\"https://www.d20pfsrd.com/equipment/weapons/weapon-descriptions/ammunition/ammunition-thrown-darts\">dart</a>.</p>",
      "chat": "",
      "unidentified": ""
    },
    "tags": [],
    "quantity": 1,
    "weight": 0.5,
    "price": 0.5,
    "identified": true,
    "hp": {
      "max": 1,
      "value": 1
    },
    "hardness": 5,
    "carried": true,
    "unidentified": {
      "price": 0.5,
      "name": ""
    },
    "identifiedName": "Throwing Arrow",
    "cl": 0,
    "aura": {
      "custom": false,
      "school": ""
    },
    "changes": [],
    "changeFlags": {
      "loseDexToAC": false,
      "noStr": false,
      "noDex": false,
      "oneInt": false,
      "oneWis": false,
      "oneCha": false,
      "noEncumbrance": false,
      "mediumArmorFullSpeed": false,
      "heavyArmorFullSpeed": false
    },
    "contextNotes": [],
    "links": {
      "children": []
    },
    "subType": "ammo",
    "equipped": false,
    "damage": {
      "parts": [],
      "critParts": []
    }
  },
  "flags": {},
  "img": "systems/pf1/icons/items/weapons/arrow-special.PNG",
  "effects": []
}