{
  "_id": "blknkubnymqolakx",
  "name": "Alkali Salt",
  "permission": {
    "default": 0
  },
  "type": "loot",
  "data": {
    "description": {
      "value": "\r\n<p class=\"source\"><b>Source</b> PZO9210</p>\r\n<p>These tiny granules can be dissolved in water, creating a slimy material used to coat metallic items such as weapons or armor. Such a coating neutralizes the metal-eating acid of <a href=\"https://www.d20pfsrd.com/bestiary/monster-listings/oozes/pudding-black\">black puddings</a> and gray <a href=\"https://www.d20pfsrd.com/bestiary/rules-for-monsters/creature-types#TOC-Ooze\">oozes</a>, protecting the item from 1d3 contacts with an ooze's acidic touch.</p>\r\n<p><b>Create</b>: <a href=\"https://www.d20pfsrd.com/skills/craft\">Craft</a> (alchemy) DC 20</p>\r\n",
      "chat": "",
      "unidentified": ""
    },
    "tags": [],
    "quantity": 1,
    "weight": 0,
    "price": 30,
    "identified": true,
    "hp": {
      "max": 10,
      "value": 10
    },
    "hardness": 0,
    "carried": true,
    "unidentified": {
      "price": 0,
      "name": ""
    },
    "identifiedName": "",
    "cl": 0,
    "aura": {
      "custom": false,
      "school": ""
    },
    "changes": [],
    "changeFlags": {
      "loseDexToAC": false,
      "noStr": false,
      "noDex": false,
      "oneInt": false,
      "oneWis": false,
      "oneCha": false,
      "noEncumbrance": false,
      "mediumArmorFullSpeed": false,
      "heavyArmorFullSpeed": false
    },
    "contextNotes": [],
    "links": {
      "children": []
    },
    "tag": "",
    "useCustomTag": false,
    "subType": "gear",
    "equipped": false,
    "damage": {
      "parts": []
    }
  },
  "flags": {},
  "img": "systems/pf1/icons/items/inventory/dice.jpg",
  "effects": []
}