{
  "_id": "rcfhitbmkesztzzd",
  "name": "Kit, Gambler's",
  "permission": {
    "default": 0
  },
  "type": "loot",
  "data": {
    "description": {
      "value": "\r\n<table border=\"1\" cellpadding=\"5\">\r\n<thead>\r\n<tr>\r\n<th class=\"text\">Type</th>\r\n<th class=\"text\">Price</th>\r\n<th class=\"text\">Weight</th>\r\n</tr>\r\n</thead>\r\n<tbody>\r\n<tr>\r\n<td class=\"text\">Common</td>\r\n<td class=\"money number\">75 gp</td>\r\n<td class=\"text\">5 lbs.</td>\r\n</tr>\r\n<tr>\r\n<td class=\"text\">Cheating</td>\r\n<td class=\"money number\">300 gp</td>\r\n<td class=\"text\">5 lbs.</td>\r\n</tr>\r\n</tbody>\r\n</table>\r\n<p>Particularly useful for travelers moving through areas too small or remote to support a full-time place for gambling, this small, tightly packed suitcase holds decks of cards, a betting wheel, numbered cloths, colored wooden chips, and a wide variety of other sorts of specialized equipment necessary for many different games of chance. A cheating gambler's kit is very similar, except its cards are marked and its games are rigged, giving a knowledgeable user a +4 <a href=\"https://www.d20pfsrd.com/basics-ability-scores/glossary#TOC-Circumstance-Bonus\">circumstance bonus</a> on <a href=\"https://www.d20pfsrd.com/skills/profession\">Profession</a> (gambler) checks when using these materials. A DC 25 <a href=\"https://www.d20pfsrd.com/skills/perception\">Perception</a> or DC 20 <a href=\"https://www.d20pfsrd.com/skills/profession\">Profession</a> (gambler) check exposes the ruse.</p>\r\n\r\n",
      "chat": "",
      "unidentified": ""
    },
    "tags": [],
    "quantity": 1,
    "weight": 0,
    "price": 0,
    "identified": true,
    "hp": {
      "max": 10,
      "value": 10
    },
    "hardness": 0,
    "carried": true,
    "unidentified": {
      "price": 0,
      "name": ""
    },
    "identifiedName": "",
    "cl": 0,
    "aura": {
      "custom": false,
      "school": ""
    },
    "changes": [],
    "changeFlags": {
      "loseDexToAC": false,
      "noStr": false,
      "noDex": false,
      "oneInt": false,
      "oneWis": false,
      "oneCha": false,
      "noEncumbrance": false,
      "mediumArmorFullSpeed": false,
      "heavyArmorFullSpeed": false
    },
    "contextNotes": [],
    "links": {
      "children": []
    },
    "tag": "",
    "useCustomTag": false,
    "subType": "gear",
    "equipped": false,
    "damage": {
      "parts": []
    }
  },
  "flags": {},
  "img": "systems/pf1/icons/items/inventory/dice.jpg",
  "effects": []
}