{
  "_id": "dycegcdbemfgwphs",
  "name": "Paste, Blackfingers",
  "permission": {
    "default": 0
  },
  "type": "loot",
  "data": {
    "description": {
      "value": "\r\n<p class=\"source\"><b>Source</b> PZO9232</p>\r\n<p>This inky paste aids unskilled <a href=\"https://www.d20pfsrd.com/gamemastering/afflictions/poison\">poison</a>-users. When smeared on the fingers, a dose of blackfingers paste prevents accidental poisoning while applying <a href=\"https://www.d20pfsrd.com/gamemastering/afflictions/poison\">poison</a> to a weapon, as if the user possessed the poison use ability. A single dose of blackfingers paste lasts for 1d6 hours, but the black stains the stuff creates on the user's fingers lasts for days. A single dose of this alchemical item costs 50 gp.</p>\r\n",
      "chat": "",
      "unidentified": ""
    },
    "tags": [],
    "quantity": 1,
    "weight": 0,
    "price": 50,
    "identified": true,
    "hp": {
      "max": 10,
      "value": 10
    },
    "hardness": 0,
    "carried": true,
    "unidentified": {
      "price": 0,
      "name": ""
    },
    "identifiedName": "",
    "cl": 0,
    "aura": {
      "custom": false,
      "school": ""
    },
    "changes": [],
    "changeFlags": {
      "loseDexToAC": false,
      "noStr": false,
      "noDex": false,
      "oneInt": false,
      "oneWis": false,
      "oneCha": false,
      "noEncumbrance": false,
      "mediumArmorFullSpeed": false,
      "heavyArmorFullSpeed": false
    },
    "contextNotes": [],
    "links": {
      "children": []
    },
    "tag": "",
    "useCustomTag": false,
    "subType": "gear",
    "equipped": false,
    "damage": {
      "parts": []
    }
  },
  "flags": {},
  "img": "systems/pf1/icons/items/inventory/dice.jpg",
  "effects": []
}