{
  "_id": "hswmzstmznghwypf",
  "name": "Printing Press",
  "permission": {
    "default": 0
  },
  "type": "loot",
  "data": {
    "description": {
      "value": "\r\n<p class=\"source\"><b>Source</b> <a title=\"PZO9410\" href=\"http://www.amazon.com/gp/product/1601252226/ref=as_li_qf_sp_asin_il_tl?ie=UTF8&amp;camp=1789&amp;creative=9325&amp;creativeASIN=1601252226&amp;linkCode=as2&amp;tag=httpwwwd20pfs-20\" target=\"_blank\" rel=\"noopener\">PZO9410</a></p>\r\n<p>A hand-cranked press uses a plate on which all of the text on a page is carved in reverse. Changing the plate is a simple process, but creating a new one is expensive and labor-intensive. The press prints one page at a time, at a rate of about five pages per minute. A stationer then needs to cut and trim the pages and bind the book.</p>\r\n<h4><span id=\"Quill_Poisoned\"><a name=\"TOC-Quill-Poisoned\"></a>Quill, Poisoned</span></h4>\r\n<p class=\"source\"><b>Source</b> PPC:P&amp;P</p>\r\n<p><b>Price</b> 30 gp; <b>Weight</b> -</p>\r\n<p class=\"divider\">DESCRIPTION</p>\r\n<p>This long pen is made from a delicate feather and has a thin and unusually long nib. The quill is typically white in color, though variations that are crimson, onyx, or some combination of these colors also exist. A hidden compartment inside the nib allows the quill to hold a single dose of <a href=\"https://www.d20pfsrd.com/gamemastering/afflictions/poison\">poison</a> that is dispensable with a small squeeze. Additionally, this provides a +2 <a href=\"https://www.d20pfsrd.com/basics-ability-scores/glossary#TOC-Circumstance-Bonus\">circumstance bonus</a> on <a href=\"https://www.d20pfsrd.com/skills/sleight-of-hand\">Sleight of Hand</a> checks to conceal poisons inside the quill. If this quill is used with vector ink, it increases the DC of a poison mixed with the ink by 1.</p>\r\n<p>This quill can be used as a small shiv to deal 1d3 points of damage and deliver its contained poison. However, because of the fragility of the nib, using the quill in this way destroys it.</p>\r\n<h4><span id=\"Wax_Sealing\"><a name=\"TOC-Wax-Sealing\"></a>Wax, Sealing</span></h4>\r\n<p class=\"source\"><b>Source</b> <a title=\"PZO1110\" href=\"http://www.amazon.com/gp/product/1601251505/ref=as_li_qf_sp_asin_il_tl?ie=UTF8&amp;camp=1789&amp;creative=9325&amp;creativeASIN=1601251505&amp;linkCode=as2&amp;tag=httpwwwd20pfs-20\" target=\"_blank\" rel=\"noopener\">PZO1110</a></p>\r\n<p>Solid wax used for sealing scroll tubes or <a class=\"spell\" href=\"https://www.d20pfsrd.com/magic-items/scrolls\">scrolls</a> together.</p>                                          <div id=\"comments\" class=\"comments\">\r\n    \r",
      "chat": "",
      "unidentified": ""
    },
    "tags": [],
    "quantity": 1,
    "weight": 0,
    "price": 30,
    "identified": true,
    "hp": {
      "max": 10,
      "value": 10
    },
    "hardness": 0,
    "carried": true,
    "unidentified": {
      "price": 0,
      "name": ""
    },
    "identifiedName": "",
    "cl": 0,
    "aura": {
      "custom": false,
      "school": ""
    },
    "changes": [],
    "changeFlags": {
      "loseDexToAC": false,
      "noStr": false,
      "noDex": false,
      "oneInt": false,
      "oneWis": false,
      "oneCha": false,
      "noEncumbrance": false,
      "mediumArmorFullSpeed": false,
      "heavyArmorFullSpeed": false
    },
    "contextNotes": [],
    "links": {
      "children": []
    },
    "tag": "",
    "useCustomTag": false,
    "subType": "gear",
    "equipped": false,
    "damage": {
      "parts": []
    }
  },
  "flags": {},
  "img": "systems/pf1/icons/items/inventory/dice.jpg",
  "effects": []
}