{
  "_id": "JTvk0RlD2iGK28cA",
  "name": "Shovel",
  "permission": {
    "default": 0
  },
  "type": "loot",
  "data": {
    "description": {
      "value": "<p>Source&nbsp;<a href=\"http://paizo.com/products/btpy8tmc?Pathfinder-Roleplaying-Game-Ultimate-Equipment\" target=\"_blank\" rel=\"noopener\">Ultimate Equipment pg. 57</a><br>Price&nbsp;2 gp (common), 10 gp (folding);&nbsp;Weight&nbsp;8 lbs. (common), 12 lbs. (folding)</p>\n<h3>Description</h3>\n<p>This tool lets you dig a pit at a rate of 2 cubic feet per minute. If a shovel is used in combat, treat it as a one-handed improvised weapon that deals bludgeoning damage equal to that of a club of its size.<br><br>Folding Shovel: A folding shovel is a full-sized shovel with a sturdy sectional handle that folds into pieces no longer than the shovel blade, allowing it to fit in a smaller space such as a backpack. Converting the shovel from its folded state to usable (or vice versa) is 2 full-round actions.</p>",
      "chat": "",
      "unidentified": ""
    },
    "tags": [],
    "quantity": 1,
    "weight": 8,
    "price": 2,
    "identified": true,
    "hp": {
      "max": 10,
      "value": 10
    },
    "hardness": 0,
    "carried": true,
    "unidentified": {
      "price": 0,
      "name": ""
    },
    "identifiedName": "Shovel",
    "cl": 0,
    "aura": {
      "custom": false,
      "school": ""
    },
    "changes": [],
    "changeFlags": {
      "loseDexToAC": false,
      "noStr": false,
      "noDex": false,
      "oneInt": false,
      "oneWis": false,
      "oneCha": false,
      "noEncumbrance": false,
      "mediumArmorFullSpeed": false,
      "heavyArmorFullSpeed": false
    },
    "contextNotes": [],
    "links": {
      "children": []
    },
    "tag": "",
    "useCustomTag": false,
    "subType": "gear",
    "equipped": false,
    "damage": {
      "parts": []
    }
  },
  "flags": {},
  "img": "systems/pf1/icons/items/inventory/dice.jpg",
  "effects": []
}