{
  "_id": "iozygnukcjnalblv",
  "name": "Vial Of Efficacious Medicine",
  "permission": {
    "default": 0
  },
  "type": "loot",
  "data": {
    "description": {
      "value": " \n<p class=\"source\"><b>Source</b> <a title=\"PPC:AM\" href=\"http://www.amazon.com/gp/product/1601256051/ref=as_li_qf_sp_asin_il_tl?ie=UTF8&amp;camp=1789&amp;creative=9325&amp;creativeASIN=1601256051&amp;linkCode=as2&amp;tag=httpwwwd20pfs-20\" target=\"_blank\" rel=\"noopener\">PPC:AM</a></p> \n<p><b>Price</b> 7,000 gp; <b>Slot</b> none; <b>CL</b> 5th; <b>Weight</b> -; <b>Aura</b> faint <a href=\"https://www.d20pfsrd.com/magic#TOC-Conjuration\">conjuration</a></p> \n<p>This bulbous bottle is crafted of smoked glass and causes any liquid contained within to take on a significantly darker cast and twinkle with motes of beautiful white light.</p> \n<p>A <i>vial of efficacious medicine</i> can hold a single dose of an alchemical remedy, such as <a href=\"https://www.d20pfsrd.com/equipment/goods-and-services/herbs-oils-other-substances#TOC-Antitoxin\">antitoxin</a> or <a href=\"https://www.d20pfsrd.com/equipment/goods-and-services/herbs-oils-other-substances#TOC-Antiplague\">antiplague</a>. Loading a remedy into the vial is a <a href=\"https://www.d20pfsrd.com/gamemastering/combat#TOC-Standard-Actions\">standard action</a> that provokes <a href=\"https://www.d20pfsrd.com/gamemastering/combat#TOC-Attacks-of-Opportunity\">attacks of opportunity</a>. When an alchemical remedy is imbibed or applied from the vial, any <a href=\"https://www.d20pfsrd.com/basics-ability-scores/glossary#TOC-Bonus-Alchemical-\">alchemical bonus</a> it grants on saving throws or checks or to AC or <a href=\"https://www.d20pfsrd.com/gamemastering/combat#TOC-Combat-Maneuver-Defense\">CMD</a> increases by 2. Treat this increase as an <a href=\"https://www.d20pfsrd.com/basics-ability-scores/glossary#TOC-Enhancement-Bonus\">enhancement bonus</a>. In addition, the user is healed of 1d8+5 points of damage. A <i>vial of efficacious medicine</i> can be used up to three times per day.</p> \n<p class=\"divider\">CONSTRUCTION REQUIREMENTS</p> \n<p><b>Feats</b> <a href=\"https://www.d20pfsrd.com/feats/item-creation-feats/craft-wondrous-item-item-creation\">Craft Wondrous Item</a>; <b>Spells</b> <a class=\"spell\" href=\"https://www.d20pfsrd.com/magic/all-spells/c/cure-light-wounds\">cure light wounds</a>, <a class=\"spell\" href=\"https://www.d20pfsrd.com/magic/all-spells/p/polypurpose-panacea\">polypurpose panacea</a>; <b>Cost</b> 4,500 gp</p> \n",
      "chat": "",
      "unidentified": ""
    },
    "tags": [],
    "quantity": 1,
    "weight": 0,
    "price": 7000,
    "identified": true,
    "hp": {
      "max": 10,
      "value": 10
    },
    "hardness": 0,
    "carried": true,
    "unidentified": {
      "price": 0,
      "name": ""
    },
    "identifiedName": "Vial Of Efficacious Medicine",
    "cl": 0,
    "aura": {
      "custom": false,
      "school": ""
    },
    "changes": [],
    "changeFlags": {
      "loseDexToAC": false,
      "noStr": false,
      "noDex": false,
      "oneInt": false,
      "oneWis": false,
      "oneCha": false,
      "noEncumbrance": false,
      "mediumArmorFullSpeed": false,
      "heavyArmorFullSpeed": false
    },
    "contextNotes": [],
    "links": {
      "children": []
    },
    "tag": "",
    "useCustomTag": false,
    "subType": "gear",
    "equipped": false,
    "damage": {
      "parts": []
    }
  },
  "flags": {},
  "img": "systems/pf1/icons/items/inventory/dice.jpg",
  "effects": []
}