{
  "_id": "TN0YlgImhdUKqzg6",
  "name": "Aberrant Bloodline",
  "permission": {
    "default": 0
  },
  "type": "feat",
  "data": {
    "description": {
      "value": "<p><em>There is a taint in your blood, one that is alien and bizarre. You tend to think in odd ways, approaching problems from an angle that most would not expect. Over time, this taint manifests itself in your physical form.</em></p>\n<p><strong>Class Skill:</strong>&nbsp;<a href=\"https://www.d20pfsrd.com/skills/knowledge\" rel=\"nofollow\">Knowledge</a>&nbsp;(dungeoneering).</p>\n<p><strong>Bonus Spells: </strong></p>\n<ul>\n<li>@Compendium[pf1.spells.jnlr9cuepka1l26e]{Enlarge Person}&nbsp;(3rd),</li>\n<li>@Compendium[pf1.spells.nokru6mxk9p3r513]{See Invisibility}&nbsp;(5th),</li>\n<li>@Compendium[pf1.spells.m1rmcpcaixcpz9ib]{Tongues}(7th),</li>\n<li>@Compendium[pf1.spells.wralcmyi4tdcai24]{Black Tentacles}&nbsp;(9th),</li>\n<li>@Compendium[pf1.spells.66vvhyiy5q8yzbq2]{Feeblemind}(11th),</li>\n<li>@Compendium[pf1.spells.fxwycv6d7xwzua4t]{Veil} (13th),</li>\n<li>@Compendium[pf1.spells.q3st18udsalnyz5v]{Plane Shift}&nbsp;(15th),</li>\n<li>@Compendium[pf1.spells.blvetbc929cfx4m8]{Mind Blank}&nbsp;(17th),</li>\n<li>@Compendium[pf1.spells.n3lp01euzcdmtbw5]{Shapechange}&nbsp;(19th).</li>\n</ul>\n<p><strong>Bonus Feats: </strong></p>\n<ul>\n<li>@Compendium[pf1.feats.u7rGDZUL296QIuA0]{Combat Casting},</li>\n<li>@Compendium[pf1.feats.711B9WNFgpdDKKf2]{Improved Disarm},</li>\n<li>@Compendium[pf1.feats.ZmQkRk93nbHxsQSt]{Improved Grapple},</li>\n<li>@Compendium[pf1.feats.Uuiu3p982omhMEPj]{Improved Initiative},</li>\n<li>@Compendium[pf1.feats.2aTFNMs3pW6nUBlr]{Improved Unarmed Strike},</li>\n<li>@Compendium[pf1.feats.iAbIGhm7T2OK9Brt]{Iron Will},</li>\n<li>@Compendium[pf1.feats.2YuxcUNFMPNBpekG]{Silent Spell},</li>\n<li>@Compendium[pf1.feats.7zJTztNW7hdaqjKc]{Skill Focus}&nbsp;(<a href=\"https://www.d20pfsrd.com/skills/knowledge\" rel=\"nofollow\">Knowledge</a>&nbsp;[dungeoneering]).</li>\n</ul>\n<p><a name=\"TOC-Bloodline-Arcana\"></a><strong>Bloodline Arcana:</strong> Whenever you cast a spell of the&nbsp;<a href=\"https://www.d20pfsrd.com/magic/all-spells/p/polymorph\" rel=\"nofollow\">polymorph</a> subschool, increase the duration of the spell by 50% (minimum 1 round). This bonus does not stack with the increase granted by the @Compendium[pf1.feats.btXWioB3SKJv8YEG]{Extend Spell}&nbsp;feat.</p>",
      "chat": "",
      "unidentified": ""
    },
    "tags": [],
    "activation": {
      "cost": 1,
      "type": ""
    },
    "unchainedAction": {
      "activation": {
        "cost": 1,
        "type": ""
      }
    },
    "duration": {
      "value": null,
      "units": ""
    },
    "target": {
      "value": ""
    },
    "range": {
      "value": null,
      "units": "",
      "maxIncrements": 1,
      "minValue": null,
      "minUnits": "",
      "long": null
    },
    "uses": {
      "value": 0,
      "max": 0,
      "per": null,
      "autoDeductCharges": true,
      "autoDeductChargesCost": "1"
    },
    "measureTemplate": {
      "type": "",
      "size": "0",
      "overrideColor": false,
      "customColor": "",
      "overrideTexture": false,
      "customTexture": ""
    },
    "attackName": "",
    "actionType": "",
    "attackBonus": "",
    "critConfirmBonus": "",
    "damage": {
      "parts": [],
      "critParts": [],
      "nonCritParts": []
    },
    "attackParts": [],
    "formula": "",
    "ability": {
      "attack": null,
      "damage": null,
      "damageMult": 1,
      "critRange": 20,
      "critMult": 2
    },
    "save": {
      "dc": 0,
      "type": "",
      "description": ""
    },
    "effectNotes": "",
    "attackNotes": "",
    "soundEffect": "",
    "changes": [],
    "changeFlags": {
      "loseDexToAC": false,
      "noStr": false,
      "noDex": false,
      "oneInt": false,
      "oneWis": false,
      "oneCha": false,
      "noEncumbrance": false,
      "mediumArmorFullSpeed": false,
      "heavyArmorFullSpeed": false
    },
    "contextNotes": [],
    "links": {
      "children": [],
      "charges": []
    },
    "tag": "",
    "useCustomTag": false,
    "armorProf": {
      "value": [],
      "custom": ""
    },
    "weaponProf": {
      "value": [],
      "custom": ""
    },
    "featType": "classFeat",
    "associations": {
      "classes": [
        [
          "Sorcerer"
        ]
      ]
    },
    "showInQuickbar": false,
    "nonlethal": false,
    "abilityType": "none",
    "crOffset": "",
    "attack": {
      "parts": []
    }
  },
  "flags": {},
  "img": "systems/pf1/icons/skills/blue_37.jpg",
  "effects": []
}