{
  "_id": "z8LYyPmi2t8Lt1Xj",
  "name": "Alchemist Discovery",
  "permission": {
    "default": 0
  },
  "type": "feat",
  "data": {
    "description": {
      "value": "<p>The investigator can select one of the following alchemist discoveries as an investigator talent:</p>\n<ul>\n<li>@Compendium[pf1.class-abilities.lyqEPQDhcr20TTLD]{Combine Extracts}</li>\n<li>@Compendium[pf1.class-abilities.rl7CfuBC0yFyIC7P]{Concentrate Poison}</li>\n<li>@Compendium[pf1.class-abilities.RG1cy6Mqv8yk7vgE]{Dilution}</li>\n<li>@Compendium[pf1.class-abilities.Oyxrd5pd7kkzsuJq]{Elixir of Life}</li>\n<li>@Compendium[pf1.class-abilities.r6Nfpcar9v7YjfgD]{Enhance Potion}</li>\n<li>@Compendium[pf1.class-abilities.sBkRwnCQsOWRFv4X]{Eternal Potion}</li>\n<li>@Compendium[pf1.class-abilities.wTgdqbe6yI4A0WVu]{Extend Potion}</li>\n<li>@Compendium[pf1.class-abilities.01lGus1TU5hTsrO3]{Infusion}</li>\n<li>@Compendium[pf1.class-abilities.ufzQpQBCyoJ8M9DD]{Mutagen (Discovery)}</li>\n<li>@Compendium[pf1.class-abilities.HaLB9xLAPdNCBQRP]{Poison Conversion}</li>\n</ul>\n<p>When selecting an alchemist discovery, he must be high enough level to qualify for that discovery, using his investigator level as his alchemist level to determine if he qualifies.</p>\n<p>This talent can be selected multiple times; each time grants a new alchemist discovery.</p>",
      "chat": "",
      "unidentified": ""
    },
    "tags": [],
    "activation": {
      "cost": 1,
      "type": ""
    },
    "unchainedAction": {
      "activation": {
        "cost": 1,
        "type": ""
      }
    },
    "duration": {
      "value": null,
      "units": ""
    },
    "target": {
      "value": ""
    },
    "range": {
      "value": null,
      "units": "",
      "maxIncrements": 1,
      "minValue": null,
      "minUnits": "",
      "long": null
    },
    "uses": {
      "value": 0,
      "max": 0,
      "per": null,
      "autoDeductCharges": true,
      "autoDeductChargesCost": "1"
    },
    "measureTemplate": {
      "type": "",
      "size": "",
      "overrideColor": false,
      "customColor": "",
      "overrideTexture": false,
      "customTexture": ""
    },
    "attackName": "",
    "actionType": "",
    "attackBonus": "",
    "critConfirmBonus": "",
    "damage": {
      "parts": [],
      "critParts": [],
      "nonCritParts": []
    },
    "attackParts": [],
    "formula": "",
    "ability": {
      "attack": null,
      "damage": null,
      "damageMult": 1,
      "critRange": 20,
      "critMult": 2
    },
    "save": {
      "dc": 0,
      "type": "",
      "description": ""
    },
    "effectNotes": "",
    "attackNotes": "",
    "soundEffect": "",
    "changes": [],
    "changeFlags": {
      "loseDexToAC": false,
      "noStr": false,
      "noDex": false,
      "oneInt": false,
      "oneWis": false,
      "oneCha": false,
      "noEncumbrance": false,
      "mediumArmorFullSpeed": false,
      "heavyArmorFullSpeed": false
    },
    "contextNotes": [],
    "links": {
      "children": [],
      "charges": []
    },
    "tag": "",
    "useCustomTag": false,
    "armorProf": {
      "value": [],
      "custom": ""
    },
    "weaponProf": {
      "value": [],
      "custom": ""
    },
    "featType": "classFeat",
    "associations": {
      "classes": [
        [
          "Investigator"
        ]
      ]
    },
    "showInQuickbar": false,
    "nonlethal": false,
    "abilityType": "ex",
    "crOffset": "",
    "attack": {
      "parts": []
    }
  },
  "flags": {},
  "img": "systems/pf1/icons/items/weapons/sword-cane.png",
  "effects": []
}