{
  "_id": "8LTtHB6wiIh5tB6J",
  "name": "Arcane Weapon",
  "permission": {
    "default": 0
  },
  "type": "feat",
  "data": {
    "description": {
      "value": "<p>As a standard action, the arcanist can expend 1 point from her arcane reservoir to enhance her weapon. The weapon is treated as magic for the purposes of overcoming damage reduction. At 5th level, the weapon gains a +1 enhancement bonus, which increases by 1 for every 4 levels beyond 5th (to a maximum of +4 at 17th level). These bonuses can be added to the weapon, stacking with existing weapon bonuses to a maximum of +5. An arcanist can also use this exploit to add one of the following weapon special abilities:&nbsp;<a href=\"https://www.aonprd.com/MagicWeaponsDisplay.aspx?ItemName=Dancing\">dancing</a>,&nbsp;<a href=\"https://www.aonprd.com/MagicWeaponsDisplay.aspx?ItemName=Defending\">defending</a>,&nbsp;<a href=\"https://www.aonprd.com/MagicWeaponsDisplay.aspx?ItemName=Distance\">distance</a>,&nbsp;<a href=\"https://www.aonprd.com/MagicWeaponsDisplay.aspx?ItemName=Flaming\">flaming</a>,&nbsp;<a href=\"https://www.aonprd.com/MagicWeaponsDisplay.aspx?ItemName=Flaming%20Burst\">flaming burst</a>,&nbsp;<a href=\"https://www.aonprd.com/MagicWeaponsDisplay.aspx?ItemName=Frost\">frost</a>,&nbsp;<a href=\"https://www.aonprd.com/MagicWeaponsDisplay.aspx?ItemName=Icy%20Burst\">icy burst</a>,&nbsp;<a href=\"https://www.aonprd.com/MagicWeaponsDisplay.aspx?ItemName=Keen\">keen</a>,&nbsp;<a href=\"https://www.aonprd.com/MagicWeaponsDisplay.aspx?ItemName=Shock\">shock</a>,&nbsp;<a href=\"https://www.aonprd.com/MagicWeaponsDisplay.aspx?ItemName=Shocking%20Burst\">shocking burst</a>,&nbsp;<a href=\"https://www.aonprd.com/MagicWeaponsDisplay.aspx?ItemName=Speed\">speed</a>,&nbsp;<a href=\"https://www.aonprd.com/MagicWeaponsDisplay.aspx?ItemName=Spell%20Storing\">spell storing</a>, and&nbsp;<a href=\"https://www.aonprd.com/MagicWeaponsDisplay.aspx?ItemName=Throwing\">throwing</a>. Adding these special abilities replaces an amount of enhancement bonus equal to the ability’s cost. Duplicate special abilities do not stack. If the weapon is not magical, at least a +1 enhancement bonus must be added to it before any other weapon special abilities can be added. The benefits are decided upon when the exploit is used, and they cannot be changed unless the exploit is used again. These benefits only apply to weapons wielded by the arcanist; if another creature attempts to wield the weapon, it loses these benefits, though they resume if the arcanist regains possession of the weapon. The arcanist cannot have more than one use of this ability active at a time.</p>\n<p>This effect lasts for a number of minutes equal to the arcanist’s Charisma modifier (minimum 1).</p>",
      "chat": "",
      "unidentified": ""
    },
    "tags": [],
    "activation": {
      "cost": 1,
      "type": "standard"
    },
    "unchainedAction": {
      "activation": {
        "cost": 2,
        "type": "action"
      }
    },
    "duration": {
      "value": "@classes.arcanist.level",
      "units": "minute"
    },
    "target": {
      "value": "held weapon"
    },
    "range": {
      "value": null,
      "units": "personal",
      "maxIncrements": 1,
      "minValue": null,
      "minUnits": "",
      "long": null
    },
    "uses": {
      "value": 0,
      "max": 0,
      "per": "",
      "autoDeductCharges": true,
      "autoDeductChargesCost": "1"
    },
    "measureTemplate": {
      "type": "",
      "size": "",
      "overrideColor": false,
      "customColor": "",
      "overrideTexture": false,
      "customTexture": ""
    },
    "attackName": "",
    "actionType": "",
    "attackBonus": "",
    "critConfirmBonus": "",
    "damage": {
      "parts": [],
      "critParts": [],
      "nonCritParts": []
    },
    "attackParts": [],
    "formula": "",
    "ability": {
      "attack": null,
      "damage": null,
      "damageMult": 1,
      "critRange": 20,
      "critMult": 2
    },
    "save": {
      "dc": 0,
      "type": "",
      "description": ""
    },
    "effectNotes": "",
    "attackNotes": "",
    "soundEffect": "",
    "changes": [],
    "changeFlags": {
      "loseDexToAC": false,
      "noStr": false,
      "noDex": false,
      "oneInt": false,
      "oneWis": false,
      "oneCha": false,
      "noEncumbrance": false,
      "mediumArmorFullSpeed": false,
      "heavyArmorFullSpeed": false
    },
    "contextNotes": [],
    "links": {
      "children": [],
      "charges": []
    },
    "tag": "",
    "useCustomTag": false,
    "armorProf": {
      "value": [],
      "custom": ""
    },
    "weaponProf": {
      "value": [],
      "custom": ""
    },
    "featType": "classFeat",
    "associations": {
      "classes": [
        [
          "Arcanist"
        ]
      ]
    },
    "showInQuickbar": false,
    "nonlethal": false,
    "abilityType": "su",
    "crOffset": "",
    "attack": {
      "parts": []
    }
  },
  "flags": {},
  "img": "systems/pf1/icons/spells/runes-blue-2.jpg",
  "effects": []
}