{
  "_id": "LbTp3TdtQ2S7wtvG",
  "name": "Darkness Domain",
  "permission": {
    "default": 0
  },
  "type": "feat",
  "data": {
    "description": {
      "value": "<p><strong>Granted Powers:</strong> You manipulate shadows and darkness. In addition, you receive Blind-Fight as a bonus feat.</p>\n<p><strong>Domain Spells:</strong></p>\n<ul>\n<li>1st—@Compendium[pf1.spells.tuh5vc2bojaws3ig]{Obscuring Mist}</li>\n<li>2nd—@Compendium[pf1.spells.k7cf5gshkp8xxqux]{Blindness/Deafness} (only to cause blindness)</li>\n<li>3rd—@Compendium[pf1.spells.jdsvncnna6oy189a]{Deeper Darkness}</li>\n<li>4th—@Compendium[pf1.spells.ed7fvzc2p4m6n7a2]{Shadow Conjuration}</li>\n<li>5th—@Compendium[pf1.spells.hd7ukybisvv7j5r6]{Summon Monster V} (summons 1d3 shadows)</li>\n<li>6th—@Compendium[pf1.spells.btoow6tyv39443gh]{Shadow Walk}</li>\n<li>7th—@Compendium[pf1.spells.gado7zyg5knc83ir]{Power Word Blind}</li>\n<li>8th—@Compendium[pf1.spells.967ur7a9xepd704y]{Shadow Evocation, Greater}</li>\n<li>9th—@Compendium[pf1.spells.xxaycxbdsmalf5ov]{Shades}</li>\n</ul>",
      "chat": "",
      "unidentified": ""
    },
    "tags": [],
    "activation": {
      "cost": 1,
      "type": ""
    },
    "unchainedAction": {
      "activation": {
        "cost": 1,
        "type": ""
      }
    },
    "duration": {
      "value": null,
      "units": ""
    },
    "target": {
      "value": ""
    },
    "range": {
      "value": null,
      "units": "",
      "maxIncrements": 1,
      "minValue": null,
      "minUnits": "",
      "long": null
    },
    "uses": {
      "value": 0,
      "max": 0,
      "per": null,
      "autoDeductCharges": true,
      "autoDeductChargesCost": "1"
    },
    "measureTemplate": {
      "type": "",
      "size": "0",
      "overrideColor": false,
      "customColor": "",
      "overrideTexture": false,
      "customTexture": ""
    },
    "attackName": "",
    "actionType": "",
    "attackBonus": "",
    "critConfirmBonus": "",
    "damage": {
      "parts": [],
      "critParts": [],
      "nonCritParts": []
    },
    "attackParts": [],
    "formula": "",
    "ability": {
      "attack": null,
      "damage": null,
      "damageMult": 1,
      "critRange": 20,
      "critMult": 2
    },
    "save": {
      "dc": 0,
      "type": "",
      "description": ""
    },
    "effectNotes": "",
    "attackNotes": "",
    "soundEffect": "",
    "changes": [],
    "changeFlags": {
      "loseDexToAC": false,
      "noStr": false,
      "noDex": false,
      "oneInt": false,
      "oneWis": false,
      "oneCha": false,
      "noEncumbrance": false,
      "mediumArmorFullSpeed": false,
      "heavyArmorFullSpeed": false
    },
    "contextNotes": [],
    "links": {
      "children": [],
      "charges": []
    },
    "tag": "",
    "useCustomTag": false,
    "armorProf": {
      "value": [],
      "custom": ""
    },
    "weaponProf": {
      "value": [],
      "custom": ""
    },
    "featType": "classFeat",
    "associations": {
      "classes": [
        [
          "Cleric"
        ]
      ]
    },
    "showInQuickbar": false,
    "nonlethal": false,
    "abilityType": "none",
    "crOffset": "",
    "attack": {
      "parts": []
    }
  },
  "flags": {},
  "img": "systems/pf1/icons/spells/horror-eerie-1.jpg",
  "effects": []
}