{
  "_id": "dMtxCqoMLtD9nEjU",
  "name": "Domain (INQ)",
  "permission": {
    "default": 0
  },
  "type": "feat",
  "data": {
    "description": {
      "value": "<p>Like a cleric’s deity, an inquisitor’s deity influences her alignment, what magic she can perform, and her values. Although not as tied to the tenets of the deity as a cleric, an inquisitor must still hold such guidelines in high regard, despite that fact she can go against them if it serves the greater good of the faith. An inquisitor can select one domain from among those belonging to her deity. She can select an alignment domain only if her alignment matches that domain. With the GM’s approval, an inquisitor can be devoted to an ideal instead of a deity, selecting one domain to represent her personal inclination and abilities. The restriction on alignment domains still applies.<br><br>Each domain grants a number of domain powers, depending on the level of the inquisitor. An inquisitor does not gain the bonus spells listed for each domain, nor does she gain bonus spell slots. The inquisitor uses her level as her effective cleric level when determining the power and effect of her domain powers. If the inquisitor has cleric levels, one of her two domain selections must be the same domain selected as an inquisitor. Levels of cleric and inquisitor stack for the purpose of determining domain powers and abilities, but not for bonus spells.</p>",
      "chat": "",
      "unidentified": ""
    },
    "tags": [],
    "activation": {
      "cost": 1,
      "type": ""
    },
    "unchainedAction": {
      "activation": {
        "cost": 1,
        "type": ""
      }
    },
    "duration": {
      "value": null,
      "units": ""
    },
    "target": {
      "value": ""
    },
    "range": {
      "value": null,
      "units": "",
      "maxIncrements": 1,
      "minValue": null,
      "minUnits": "",
      "long": null
    },
    "uses": {
      "value": 0,
      "max": 0,
      "per": null,
      "autoDeductCharges": true,
      "autoDeductChargesCost": "1"
    },
    "measureTemplate": {
      "type": "",
      "size": "0",
      "overrideColor": false,
      "customColor": "",
      "overrideTexture": false,
      "customTexture": ""
    },
    "attackName": "",
    "actionType": "",
    "attackBonus": "",
    "critConfirmBonus": "",
    "damage": {
      "parts": [],
      "critParts": [],
      "nonCritParts": []
    },
    "attackParts": [],
    "formula": "",
    "ability": {
      "attack": null,
      "damage": null,
      "damageMult": 1,
      "critRange": 20,
      "critMult": 2
    },
    "save": {
      "dc": 0,
      "type": "",
      "description": ""
    },
    "effectNotes": "",
    "attackNotes": "",
    "soundEffect": "",
    "changes": [],
    "changeFlags": {
      "loseDexToAC": false,
      "noStr": false,
      "noDex": false,
      "oneInt": false,
      "oneWis": false,
      "oneCha": false,
      "noEncumbrance": false,
      "mediumArmorFullSpeed": false,
      "heavyArmorFullSpeed": false
    },
    "contextNotes": [],
    "links": {
      "children": [],
      "charges": []
    },
    "tag": "",
    "useCustomTag": false,
    "armorProf": {
      "value": [],
      "custom": ""
    },
    "weaponProf": {
      "value": [],
      "custom": ""
    },
    "featType": "classFeat",
    "associations": {
      "classes": [
        [
          "Inquisitor"
        ]
      ]
    },
    "showInQuickbar": false,
    "nonlethal": false,
    "abilityType": "none",
    "crOffset": "",
    "attack": {
      "parts": []
    }
  },
  "flags": {},
  "img": "systems/pf1/icons/skills/light_06.jpg",
  "effects": []
}