{
  "_id": "5o6laZQ1K7c73rYo",
  "name": "Giant Wasp Aspect",
  "permission": {
    "default": 0
  },
  "type": "feat",
  "data": {
    "description": {
      "value": "<p><em>The aspect of the wasp grants flight and a venomous sting, as well as great mental resistance. A giant wasp’s alternate attack is sting (P).</em><br><br><strong>Minor Form:</strong> You gain a +4 bonus on Will saves against mind-affecting affects.</p>\n<p>This bonus increases to +6 at 8th level and +8 at 15th level.<br><br><strong>Major Form:</strong> Your shape changes to that of a&nbsp;<a href=\"https://www.aonprd.com/MonsterDisplay.aspx?ItemName=Giant%20Wasp\">giant wasp</a>. This ability uses the&nbsp;<a href=\"https://www.aonprd.com/SpellDisplay.aspx?ItemName=vermin%20shape%20I\">vermin shape</a>&nbsp;spell, rather than&nbsp;<a href=\"https://www.aonprd.com/SpellDisplay.aspx?ItemName=beast%20shape%20I\">beast shape</a>, for the purposes of wild shape. While in this form, you gain a fly speed of 40 feet (clumsy), and swarms and vermin do not attack you unless magically commanded to do so.</p>\n<p>At 8th level, this fly speed increases to 60 feet (average), and you gain a sting attack usable a number of times per day equal to 3 + your Wisdom modifier, which applies the following poison.<br><br><em>Wasp Venom (Ex)</em>&nbsp;Sting—injury;&nbsp;save&nbsp;Fort DC = 10 + half your shifter level + your Constitution modifier;&nbsp;frequency&nbsp;1/round for 4 rounds;&nbsp;effect&nbsp;1d3 Dex damage;&nbsp;cure&nbsp;2 consecutive saves.<br><br>At 15th level, your fly speed increases to 80 feet (good), and you can attempt to gain control of a mindless swarm as a full-round action. To gain control of the swarm, you must succeed at a Charisma check against a DC of 10 + the swarm’s CR. You can direct the swarm to disperse, remain in a designated location, or attack an opponent. This control lasts for a number of rounds equal to half your shifter level.<br><br><strong>Alternate Natural Attacks:</strong> Sting (P)</p>",
      "chat": "",
      "unidentified": ""
    },
    "tags": [],
    "activation": {
      "cost": 1,
      "type": ""
    },
    "unchainedAction": {
      "activation": {
        "cost": 1,
        "type": ""
      }
    },
    "duration": {
      "value": null,
      "units": ""
    },
    "target": {
      "value": ""
    },
    "range": {
      "value": null,
      "units": "",
      "maxIncrements": 1,
      "minValue": null,
      "minUnits": "",
      "long": null
    },
    "uses": {
      "value": 0,
      "max": 0,
      "per": null,
      "autoDeductCharges": true,
      "autoDeductChargesCost": "1"
    },
    "measureTemplate": {
      "type": "",
      "size": "",
      "overrideColor": false,
      "customColor": "",
      "overrideTexture": false,
      "customTexture": ""
    },
    "attackName": "",
    "actionType": "",
    "attackBonus": "",
    "critConfirmBonus": "",
    "damage": {
      "parts": [],
      "critParts": [],
      "nonCritParts": []
    },
    "attackParts": [],
    "formula": "",
    "ability": {
      "attack": null,
      "damage": null,
      "damageMult": 1,
      "critRange": 20,
      "critMult": 2
    },
    "save": {
      "dc": 0,
      "type": "",
      "description": ""
    },
    "effectNotes": "",
    "attackNotes": "",
    "soundEffect": "",
    "changes": [],
    "changeFlags": {
      "loseDexToAC": false,
      "noStr": false,
      "noDex": false,
      "oneInt": false,
      "oneWis": false,
      "oneCha": false,
      "noEncumbrance": false,
      "mediumArmorFullSpeed": false,
      "heavyArmorFullSpeed": false
    },
    "contextNotes": [],
    "links": {
      "children": [],
      "charges": []
    },
    "tag": "",
    "useCustomTag": false,
    "armorProf": {
      "value": [],
      "custom": ""
    },
    "weaponProf": {
      "value": [],
      "custom": ""
    },
    "featType": "classFeat",
    "associations": {
      "classes": [
        [
          "Shifter"
        ]
      ]
    },
    "showInQuickbar": false,
    "nonlethal": false,
    "abilityType": "none",
    "crOffset": "",
    "attack": {
      "parts": []
    }
  },
  "flags": {},
  "img": "systems/pf1/icons/skills/blue_29.jpg",
  "effects": []
}