{
  "_id": "q8TzVsWTFXbCUlLp",
  "name": "Godclaw Mystery",
  "permission": {
    "default": 0
  },
  "type": "feat",
  "data": {
    "description": {
      "value": "<p><strong>Class Skills:</strong> An oracle with the Godclaw mystery adds Bluff, Intimidate, Knowledge (local), and Perception to her list of class skills.<br><br><strong>Bonus Spells:</strong>&nbsp;</p>\n<ul>\n<li>@Compendium[pf1.spells.9tww9fc9049h6iqc]{Cause Fear} (2nd),&nbsp;</li>\n<li>@Compendium[pf1.spells.y69de8y5ddrhuue5]{Daze Monster} (4th),&nbsp;</li>\n<li>@Compendium[pf1.spells.78kwl5t99j9e8tzh]{Hold Person} (6th),&nbsp;</li>\n<li>@Compendium[pf1.spells.8zeulunjetwrdgwj]{Order's Wrath} (8th),&nbsp;</li>\n<li>@Compendium[pf1.spells.myg2b9ww43nnlbr2]{Break Enchantment} (10th),&nbsp;</li>\n<li>@Compendium[pf1.spells.aoov6nqfm195txdb]{Forceful Hand} (12th),&nbsp;</li>\n<li>@Compendium[pf1.spells.7e22urxux6i2mua5]{Dictum} (14th),&nbsp;</li>\n<li>@Compendium[pf1.spells.lzj5umxjvogvpg6b]{Shield of Law} (16th),</li>\n<li>@Compendium[pf1.spells.esia6azb5g68tfs7]{Imprisonment} (18th).</li>\n</ul>",
      "chat": "",
      "unidentified": ""
    },
    "tags": [],
    "activation": {
      "cost": 1,
      "type": ""
    },
    "unchainedAction": {
      "activation": {
        "cost": 1,
        "type": ""
      }
    },
    "duration": {
      "value": null,
      "units": ""
    },
    "target": {
      "value": ""
    },
    "range": {
      "value": null,
      "units": "",
      "maxIncrements": 1,
      "minValue": null,
      "minUnits": "",
      "long": null
    },
    "uses": {
      "value": 0,
      "max": 0,
      "per": null,
      "autoDeductCharges": true,
      "autoDeductChargesCost": "1"
    },
    "measureTemplate": {
      "type": "",
      "size": "",
      "overrideColor": false,
      "customColor": "",
      "overrideTexture": false,
      "customTexture": ""
    },
    "attackName": "",
    "actionType": "",
    "attackBonus": "",
    "critConfirmBonus": "",
    "damage": {
      "parts": [],
      "critParts": [],
      "nonCritParts": []
    },
    "attackParts": [],
    "formula": "",
    "ability": {
      "attack": null,
      "damage": null,
      "damageMult": 1,
      "critRange": 20,
      "critMult": 2
    },
    "save": {
      "dc": 0,
      "type": "",
      "description": ""
    },
    "effectNotes": "",
    "attackNotes": "",
    "soundEffect": "",
    "changes": [],
    "changeFlags": {
      "loseDexToAC": false,
      "noStr": false,
      "noDex": false,
      "oneInt": false,
      "oneWis": false,
      "oneCha": false,
      "noEncumbrance": false,
      "mediumArmorFullSpeed": false,
      "heavyArmorFullSpeed": false
    },
    "contextNotes": [],
    "links": {
      "children": [],
      "charges": []
    },
    "tag": "",
    "useCustomTag": false,
    "armorProf": {
      "value": [],
      "custom": ""
    },
    "weaponProf": {
      "value": [],
      "custom": ""
    },
    "featType": "classFeat",
    "associations": {
      "classes": [
        [
          "Oracle"
        ]
      ]
    },
    "showInQuickbar": false,
    "nonlethal": false,
    "abilityType": "none",
    "crOffset": "",
    "attack": {
      "parts": []
    }
  },
  "flags": {},
  "img": "systems/pf1/icons/spells/light-magenta-2.jpg",
  "effects": []
}