{
  "_id": "j1fzO9UphypgM5L4",
  "name": "Heavens Mystery",
  "permission": {
    "default": 0
  },
  "type": "feat",
  "data": {
    "description": {
      "value": "<p><strong>Class Skills:</strong> An oracle with the heavens mystery adds Fly, Knowledge (arcana), Perception, and Survival to her list of class skills.<br><br><strong>Bonus Spells:</strong>&nbsp;</p>\n<ul>\n<li>@Compendium[pf1.spells.qcjskol4ac3eemhy]{Color Spray} (2nd),&nbsp;</li>\n<li>@Compendium[pf1.spells.zyfm6dq35i4hip4u]{Hypnotic Pattern} (4th),</li>\n<li>@Compendium[pf1.spells.7x2z0i8rcx7s81fk]{Daylight} (6th),</li>\n<li>@Compendium[pf1.spells.6lebv7569xsypp8u]{Rainbow Pattern} (8th),</li>\n<li>@Compendium[pf1.spells.wqvy12w1xgk6l9b0]{Overland Flight} (10th),</li>\n<li>@Compendium[pf1.spells.6vfauefzzmwl4az7]{Chain Lightning} (12th),</li>\n<li>@Compendium[pf1.spells.mb819hvwpk0zmw53]{Prismatic Spray} (14th),</li>\n<li>@Compendium[pf1.spells.j2mwv9wfxhqch10g]{Sunburst} (16th),</li>\n<li>@Compendium[pf1.spells.xhzme0v6tjq95fg6]{Meteor Swarm} (18th).</li>\n</ul>",
      "chat": "",
      "unidentified": ""
    },
    "tags": [],
    "activation": {
      "cost": 1,
      "type": ""
    },
    "unchainedAction": {
      "activation": {
        "cost": 1,
        "type": ""
      }
    },
    "duration": {
      "value": null,
      "units": ""
    },
    "target": {
      "value": ""
    },
    "range": {
      "value": null,
      "units": "",
      "maxIncrements": 1,
      "minValue": null,
      "minUnits": "",
      "long": null
    },
    "uses": {
      "value": 0,
      "max": 0,
      "per": null,
      "autoDeductCharges": true,
      "autoDeductChargesCost": "1"
    },
    "measureTemplate": {
      "type": "",
      "size": "",
      "overrideColor": false,
      "customColor": "",
      "overrideTexture": false,
      "customTexture": ""
    },
    "attackName": "",
    "actionType": "",
    "attackBonus": "",
    "critConfirmBonus": "",
    "damage": {
      "parts": [],
      "critParts": [],
      "nonCritParts": []
    },
    "attackParts": [],
    "formula": "",
    "ability": {
      "attack": null,
      "damage": null,
      "damageMult": 1,
      "critRange": 20,
      "critMult": 2
    },
    "save": {
      "dc": 0,
      "type": "",
      "description": ""
    },
    "effectNotes": "",
    "attackNotes": "",
    "soundEffect": "",
    "changes": [],
    "changeFlags": {
      "loseDexToAC": false,
      "noStr": false,
      "noDex": false,
      "oneInt": false,
      "oneWis": false,
      "oneCha": false,
      "noEncumbrance": false,
      "mediumArmorFullSpeed": false,
      "heavyArmorFullSpeed": false
    },
    "contextNotes": [],
    "links": {
      "children": [],
      "charges": []
    },
    "tag": "",
    "useCustomTag": false,
    "armorProf": {
      "value": [],
      "custom": ""
    },
    "weaponProf": {
      "value": [],
      "custom": ""
    },
    "featType": "classFeat",
    "associations": {
      "classes": [
        [
          "Oracle"
        ]
      ]
    },
    "showInQuickbar": false,
    "nonlethal": false,
    "abilityType": "none",
    "crOffset": "",
    "attack": {
      "parts": []
    }
  },
  "flags": {},
  "img": "systems/pf1/icons/spells/light-magenta-2.jpg",
  "effects": []
}