{
  "_id": "qQMqUdWYnnwvCym7",
  "name": "Luck Domain",
  "permission": {
    "default": 0
  },
  "type": "feat",
  "data": {
    "description": {
      "value": "<p><strong>Granted Powers:</strong> You are infused with luck, and your mere presence can spread good fortune.</p>\n<p><strong>Domain Spells:</strong></p>\n<ul>\n<li>1st—@Compendium[pf1.spells.xco22162bwgxn7pj]{True Strike}</li>\n<li>2nd—@Compendium[pf1.spells.ibk7jrc5rwubpia6]{Aid}</li>\n<li>3rd—@Compendium[pf1.spells.1vh2ewwvzvxunoxk]{Protection from Energy}</li>\n<li>4th—@Compendium[pf1.spells.lvzq2mwkqmozolpl]{Freedom of Movement}</li>\n<li>5th—@Compendium[pf1.spells.myg2b9ww43nnlbr2]{Break Enchantment}</li>\n<li>6th—@Compendium[pf1.spells.446vcsetq4ny904e]{Mislead}</li>\n<li>7th—@Compendium[pf1.spells.uyn64zazmaydnk7o]{Spell Turning}</li>\n<li>8th—@Compendium[pf1.spells.2vb5orfcy57lrfmc]{Moment of Prescience}</li>\n<li>9th—@Compendium[pf1.spells.suel7sgnztenv551]{Miracle}</li>\n</ul>",
      "chat": "",
      "unidentified": ""
    },
    "tags": [],
    "activation": {
      "cost": 1,
      "type": ""
    },
    "unchainedAction": {
      "activation": {
        "cost": 1,
        "type": ""
      }
    },
    "duration": {
      "value": null,
      "units": ""
    },
    "target": {
      "value": ""
    },
    "range": {
      "value": null,
      "units": "",
      "maxIncrements": 1,
      "minValue": null,
      "minUnits": "",
      "long": null
    },
    "uses": {
      "value": 0,
      "max": 0,
      "per": null,
      "autoDeductCharges": true,
      "autoDeductChargesCost": "1"
    },
    "measureTemplate": {
      "type": "",
      "size": "0",
      "overrideColor": false,
      "customColor": "",
      "overrideTexture": false,
      "customTexture": ""
    },
    "attackName": "",
    "actionType": "",
    "attackBonus": "",
    "critConfirmBonus": "",
    "damage": {
      "parts": [],
      "critParts": [],
      "nonCritParts": []
    },
    "attackParts": [],
    "formula": "",
    "ability": {
      "attack": null,
      "damage": null,
      "damageMult": 1,
      "critRange": 20,
      "critMult": 2
    },
    "save": {
      "dc": 0,
      "type": "",
      "description": ""
    },
    "effectNotes": "",
    "attackNotes": "",
    "soundEffect": "",
    "changes": [],
    "changeFlags": {
      "loseDexToAC": false,
      "noStr": false,
      "noDex": false,
      "oneInt": false,
      "oneWis": false,
      "oneCha": false,
      "noEncumbrance": false,
      "mediumArmorFullSpeed": false,
      "heavyArmorFullSpeed": false
    },
    "contextNotes": [],
    "links": {
      "children": [],
      "charges": []
    },
    "tag": "",
    "useCustomTag": false,
    "armorProf": {
      "value": [],
      "custom": ""
    },
    "weaponProf": {
      "value": [],
      "custom": ""
    },
    "featType": "classFeat",
    "associations": {
      "classes": [
        [
          "Cleric"
        ]
      ]
    },
    "showInQuickbar": false,
    "nonlethal": false,
    "abilityType": "none",
    "crOffset": "",
    "attack": {
      "parts": []
    }
  },
  "flags": {},
  "img": "systems/pf1/icons/items/inventory/dice.jpg",
  "effects": []
}