{
  "_id": "zotbWnuFdjY6zfv1",
  "name": "Rogue and Ninja Advanced Talents",
  "permission": {
    "default": 0
  },
  "type": "feat",
  "data": {
    "description": {
      "value": "<p>A slayer can select one of the following rogue advanced talents or ninja master tricks in place of a slayer advanced talent:</p>\n<ul>\n<li>@Compendium[pf1.class-abilities.hMI3BJSP5Suq4CYs]{Deadly Sneak}</li>\n<li>@Compendium[pf1.class-abilities.R1edL5tl3sQFxT0O]{Evasion (NIN)}</li>\n<li>@Compendium[pf1.class-abilities.VgnMkLA5V1jvKliT]{Feat}</li>\n<li>@Compendium[pf1.class-abilities.l8rxQ9SwS7Rc74kI]{Hunter's Surprise}</li>\n<li>@Compendium[pf1.class-abilities.0CaDWqyk5MC7JmeC]{Knock-Out Blow}</li>\n<li>@Compendium[pf1.class-abilities.kFCiYXU4EgqwHDER]{Master of Disguise}</li>\n<li>@Compendium[pf1.class-abilities.ajbY8L23aokzbhlR]{Opportunist}</li>\n<li>@Compendium[pf1.class-abilities.8c70clF6ZT8ATEQY]{Stealthy Sniper}</li>\n<li>or any rogue advanced talent from&nbsp;Blood of Shadows.</li>\n</ul>\n<p>A slayer can select multiple rogue advanced talents or ninja master tricks by taking this slayer advanced talent multiple times, but can’t select the same one more than once.</p>",
      "chat": "",
      "unidentified": ""
    },
    "tags": [],
    "activation": {
      "cost": 1,
      "type": ""
    },
    "unchainedAction": {
      "activation": {
        "cost": 1,
        "type": ""
      }
    },
    "duration": {
      "value": null,
      "units": ""
    },
    "target": {
      "value": ""
    },
    "range": {
      "value": null,
      "units": "",
      "maxIncrements": 1,
      "minValue": null,
      "minUnits": "",
      "long": null
    },
    "uses": {
      "value": 0,
      "max": 0,
      "per": null,
      "autoDeductCharges": true,
      "autoDeductChargesCost": "1"
    },
    "measureTemplate": {
      "type": "",
      "size": "",
      "overrideColor": false,
      "customColor": "",
      "overrideTexture": false,
      "customTexture": ""
    },
    "attackName": "",
    "actionType": "",
    "attackBonus": "",
    "critConfirmBonus": "",
    "damage": {
      "parts": [],
      "critParts": [],
      "nonCritParts": []
    },
    "attackParts": [],
    "formula": "",
    "ability": {
      "attack": null,
      "damage": null,
      "damageMult": 1,
      "critRange": 20,
      "critMult": 2
    },
    "save": {
      "dc": 0,
      "type": "",
      "description": ""
    },
    "effectNotes": "",
    "attackNotes": "",
    "soundEffect": "",
    "changes": [],
    "changeFlags": {
      "loseDexToAC": false,
      "noStr": false,
      "noDex": false,
      "oneInt": false,
      "oneWis": false,
      "oneCha": false,
      "noEncumbrance": false,
      "mediumArmorFullSpeed": false,
      "heavyArmorFullSpeed": false
    },
    "contextNotes": [],
    "links": {
      "children": [],
      "charges": []
    },
    "tag": "",
    "useCustomTag": false,
    "armorProf": {
      "value": [],
      "custom": ""
    },
    "weaponProf": {
      "value": [],
      "custom": ""
    },
    "featType": "classFeat",
    "associations": {
      "classes": [
        [
          "Slayer"
        ]
      ]
    },
    "showInQuickbar": false,
    "nonlethal": false,
    "abilityType": "ex",
    "crOffset": "",
    "attack": {
      "parts": []
    }
  },
  "flags": {},
  "img": "systems/pf1/icons/items/weapons/rhoka.PNG",
  "effects": []
}