{
  "_id": "arKp5dB4xzfDpGVG",
  "name": "Rune Domain",
  "permission": {
    "default": 0
  },
  "type": "feat",
  "data": {
    "description": {
      "value": "<p><strong>Granted Powers:</strong> In strange and eldritch runes you find potent magic. You gain Scribe Scroll as a bonus feat.</p>\n<p><strong>Domain Spells: </strong></p>\n<ul>\n<li>1st—@Compendium[pf1.spells.qvpzcjm5lmtn389j]{Erase}</li>\n<li>2nd—@Compendium[pf1.spells.6klw6f8yrhu9z9mn]{Secret Page}</li>\n<li>3rd—@Compendium[pf1.spells.53dyu81yaw4y0nz4]{Glyph Of Warding}</li>\n<li>4th—@Compendium[pf1.spells.o4ywdvsm1oty8blq]{Explosive Runes}</li>\n<li>5th—@Compendium[pf1.spells.y4b1zmhmsa0gvf06]{Planar Binding, Lesser}</li>\n<li>6th—@Compendium[pf1.spells.pmf5luoblkdc4zfk]{Glyph of Warding, Greater}</li>\n<li>7th—@Compendium[pf1.spells.o6vh3lrmi1hsdzmm]{Instant Summons}</li>\n<li>8th—@Compendium[pf1.spells.g0x2fnktg1553wv1]{Symbol of Death}</li>\n<li>9th—@Compendium[pf1.spells.if867t28tu6zxaei]{Teleportation Circle}</li>\n</ul>",
      "chat": "",
      "unidentified": ""
    },
    "tags": [],
    "activation": {
      "cost": 1,
      "type": ""
    },
    "unchainedAction": {
      "activation": {
        "cost": 1,
        "type": ""
      }
    },
    "duration": {
      "value": null,
      "units": ""
    },
    "target": {
      "value": ""
    },
    "range": {
      "value": null,
      "units": "",
      "maxIncrements": 1,
      "minValue": null,
      "minUnits": "",
      "long": null
    },
    "uses": {
      "value": 0,
      "max": 0,
      "per": null,
      "autoDeductCharges": true,
      "autoDeductChargesCost": "1"
    },
    "measureTemplate": {
      "type": "",
      "size": "0",
      "overrideColor": false,
      "customColor": "",
      "overrideTexture": false,
      "customTexture": ""
    },
    "attackName": "",
    "actionType": "",
    "attackBonus": "",
    "critConfirmBonus": "",
    "damage": {
      "parts": [],
      "critParts": [],
      "nonCritParts": []
    },
    "attackParts": [],
    "formula": "",
    "ability": {
      "attack": null,
      "damage": null,
      "damageMult": 1,
      "critRange": 20,
      "critMult": 2
    },
    "save": {
      "dc": 0,
      "type": "",
      "description": ""
    },
    "effectNotes": "",
    "attackNotes": "",
    "soundEffect": "",
    "changes": [],
    "changeFlags": {
      "loseDexToAC": false,
      "noStr": false,
      "noDex": false,
      "oneInt": false,
      "oneWis": false,
      "oneCha": false,
      "noEncumbrance": false,
      "mediumArmorFullSpeed": false,
      "heavyArmorFullSpeed": false
    },
    "contextNotes": [],
    "links": {
      "children": [],
      "charges": []
    },
    "tag": "",
    "useCustomTag": false,
    "armorProf": {
      "value": [],
      "custom": ""
    },
    "weaponProf": {
      "value": [],
      "custom": ""
    },
    "featType": "classFeat",
    "associations": {
      "classes": [
        [
          "Cleric"
        ]
      ]
    },
    "showInQuickbar": false,
    "nonlethal": false,
    "abilityType": "none",
    "crOffset": "",
    "attack": {
      "parts": []
    }
  },
  "flags": {},
  "img": "systems/pf1/icons/spells/runes-blue-1.jpg",
  "effects": []
}