{
  "_id": "GUc0pvmrCvmYIRRM",
  "name": "Stylish Infusion",
  "permission": {
    "default": 0
  },
  "type": "feat",
  "data": {
    "description": {
      "value": "<p><strong>Element&nbsp;</strong>universal;&nbsp;<strong>Type&nbsp;</strong>substance infusion;&nbsp;<strong>Level&nbsp;</strong>3;&nbsp;<strong>Burn&nbsp;</strong>2<br><strong>Prerequisite&nbsp;</strong>brawler's flurry or flurry of blows class feature, kinetic fist<br><strong>Associated Blasts&nbsp;</strong>any<br><strong>Saving Throw&nbsp;</strong>none</p>\n<p>When you learn this infusion, select an&nbsp;<a href=\"https://aonprd.com/MonkUCStyleStrikes.aspx\">unchained monk style strike</a>. You can use that style strike during a flurry of blows with your infused blast, though you must still follow the limitation of one style strike per flurry of blows (or two if you are a 15th-level&nbsp;<a href=\"https://aonprd.com/ClassDisplay.aspx?ItemName=Monk%20(Unchained)\">unchained monk</a>). If you select flying kick, the distance is equal to your elemental overflow bonus on attack rolls × 10 feet. You can use this infusion only while also using the kinetic fist form infusion.<br><br><strong>Special: </strong>You can select this infusion multiple times. Each time, you must select a different style strike.</p>",
      "chat": "",
      "unidentified": ""
    },
    "tags": [],
    "activation": {
      "cost": 1,
      "type": ""
    },
    "unchainedAction": {
      "activation": {
        "cost": 1,
        "type": ""
      }
    },
    "duration": {
      "value": null,
      "units": ""
    },
    "target": {
      "value": ""
    },
    "range": {
      "value": null,
      "units": "",
      "maxIncrements": 1,
      "minValue": null,
      "minUnits": "",
      "long": null
    },
    "uses": {
      "value": 0,
      "max": 0,
      "per": null,
      "autoDeductCharges": true,
      "autoDeductChargesCost": "1"
    },
    "measureTemplate": {
      "type": "",
      "size": "",
      "overrideColor": false,
      "customColor": "",
      "overrideTexture": false,
      "customTexture": ""
    },
    "attackName": "",
    "actionType": "",
    "attackBonus": "",
    "critConfirmBonus": "",
    "damage": {
      "parts": [],
      "critParts": [],
      "nonCritParts": []
    },
    "attackParts": [],
    "formula": "",
    "ability": {
      "attack": null,
      "damage": null,
      "damageMult": 1,
      "critRange": 20,
      "critMult": 2
    },
    "save": {
      "dc": 0,
      "type": "",
      "description": ""
    },
    "effectNotes": "",
    "attackNotes": "",
    "soundEffect": "",
    "changes": [],
    "changeFlags": {
      "loseDexToAC": false,
      "noStr": false,
      "noDex": false,
      "oneInt": false,
      "oneWis": false,
      "oneCha": false,
      "noEncumbrance": false,
      "mediumArmorFullSpeed": false,
      "heavyArmorFullSpeed": false
    },
    "contextNotes": [],
    "links": {
      "children": [],
      "charges": []
    },
    "tag": "",
    "useCustomTag": false,
    "armorProf": {
      "value": [],
      "custom": ""
    },
    "weaponProf": {
      "value": [],
      "custom": ""
    },
    "featType": "classFeat",
    "associations": {
      "classes": [
        [
          "Kineticist"
        ]
      ]
    },
    "showInQuickbar": false,
    "nonlethal": false,
    "abilityType": "none",
    "crOffset": "",
    "attack": {
      "parts": []
    }
  },
  "flags": {},
  "img": "systems/pf1/icons/spells/runes-blue-1.jpg",
  "effects": []
}