{
  "_id": "SHi6Ke3xjqOlghJ4",
  "name": "The Whole Time",
  "permission": {
    "default": 0
  },
  "type": "feat",
  "data": {
    "description": {
      "value": "<p>Mercenaries in the employ of the Aspis Consortium often use wands of @Compendium[pf1.spells.oylikodnyku2zewu]{Invisibility} to attack protected targets, then blend into the crowd to escape or disguise the source of the next attack. A rogue with this ability is practiced at attacking from magical concealment. He can use spell-trigger and spellcompletion items as if the following spells were on a spell list to which he has access: @Compendium[pf1.spells.cxgi0ub77t6aink1]{Invisibility, Greater}, @Compendium[pf1.spells.oylikodnyku2zewu]{Invisibility}, and @Compendium[pf1.spells.c11olzqztodz5o5x]{Vanish}.<br><br>Additionally, if the rogue becomes visible as a result of a weapon or spell attack, he can sheathe his weapon as a free action and instantly adopt a neutral posture. With a successful Bluff or Disguise check (opposed by witnesses’ Sense Motive or Perception checks, whichever is higher), there is no obvious sign that the rogue is the source of the attack (though a lack of any other reasonable candidate can still lead observers to draw the correct conclusion).</p>",
      "chat": "",
      "unidentified": ""
    },
    "tags": [],
    "activation": {
      "cost": 1,
      "type": ""
    },
    "unchainedAction": {
      "activation": {
        "cost": 1,
        "type": ""
      }
    },
    "duration": {
      "value": null,
      "units": ""
    },
    "target": {
      "value": ""
    },
    "range": {
      "value": null,
      "units": "",
      "maxIncrements": 1,
      "minValue": null,
      "minUnits": "",
      "long": null
    },
    "uses": {
      "value": 0,
      "max": 0,
      "per": null,
      "autoDeductCharges": true,
      "autoDeductChargesCost": "1"
    },
    "measureTemplate": {
      "type": "",
      "size": "0",
      "overrideColor": false,
      "customColor": "",
      "overrideTexture": false,
      "customTexture": ""
    },
    "attackName": "",
    "actionType": "",
    "attackBonus": "",
    "critConfirmBonus": "",
    "damage": {
      "parts": [],
      "critParts": [],
      "nonCritParts": []
    },
    "attackParts": [],
    "formula": "",
    "ability": {
      "attack": null,
      "damage": null,
      "damageMult": 1,
      "critRange": 20,
      "critMult": 2
    },
    "save": {
      "dc": 0,
      "type": "",
      "description": ""
    },
    "effectNotes": "",
    "attackNotes": "",
    "soundEffect": "",
    "changes": [],
    "changeFlags": {
      "loseDexToAC": false,
      "noStr": false,
      "noDex": false,
      "oneInt": false,
      "oneWis": false,
      "oneCha": false,
      "noEncumbrance": false,
      "mediumArmorFullSpeed": false,
      "heavyArmorFullSpeed": false
    },
    "contextNotes": [],
    "links": {
      "children": [],
      "charges": []
    },
    "tag": "",
    "useCustomTag": false,
    "armorProf": {
      "value": [],
      "custom": ""
    },
    "weaponProf": {
      "value": [],
      "custom": ""
    },
    "featType": "classFeat",
    "associations": {
      "classes": [
        [
          "Rogue"
        ]
      ]
    },
    "showInQuickbar": false,
    "nonlethal": false,
    "abilityType": "su",
    "crOffset": "",
    "attack": {
      "parts": []
    }
  },
  "flags": {},
  "img": "systems/pf1/icons/items/weapons/dagger.PNG",
  "effects": []
}