{
  "_id": "7k5ypftnzy9r7mzz",
  "name": "Animate Rope",
  "permission": {
    "default": 0
  },
  "type": "spell",
  "data": {
    "description": {
      "value": "<div class=\"spell-description\">\n  <p>\n    <strong>School</strong>&nbsp;transmutation;\n    <strong>Level</strong>&nbsp;bard 1, mesmerist 1, psychic 1, sorcerer/wizard 1;\n    <strong>Domain</strong>&nbsp;Artifice 1;\n    \n    \n    \n  </p>\n  <p>\n    <strong>Casting Time</strong>&nbsp;1 standard action<br>\n    <strong>Components</strong>&nbsp;V, S<br>\n  </p>\n  <p>\n    <strong>Range</strong>&nbsp;medium (100 ft. + 10 ft./level)<br>\n    \n    <strong>Targets</strong>&nbsp;one rope-like object, length up to 50 ft. + 5 ft./level; see text<br>\n    \n    <strong>Duration</strong>&nbsp;1 round/level<br>\n    <strong>Saving Throw</strong>&nbsp;none;&nbsp;<strong>Spell Resistance</strong>&nbsp;no<br>\n  </p>\n  <h2>Description</h2>\n  <p>You can animate a nonliving rope-like object. The maximum length assumes a rope with a 1-inch diameter. Reduce the maximum length by 50% for every additional inch of thickness, and increase it by 50% for each reduction of the rope's diameter by half.</p><p>The possible commands are \"coil\" (form a neat, coiled stack), \"coil and knot,\" \"loop,\" \"loop and knot,\" \"tie and knot,\" and the opposites of all of the above (\"uncoil,\" and so forth). You can give one command each round as a move action, as if directing an active spell.</p><p>The rope can enwrap only a creature or an object within 1 foot of it - it does not snake outward - so it must be thrown near the intended target. Doing so requires a successful ranged touch attack roll (range increment 10 feet). A typical 1-inch-diameter hemp rope has 2 hit points, AC 10, and requires a DC 23 Strength check to burst it. The rope does not deal damage, but it can be used as a trip line or to cause a single opponent that fails a Reflex saving throw to become entangled. A creature capable of spellcasting that is bound by this spell must make a concentration check with a DC of 15 + the spell's level to cast a spell. An entangled creature can slip free with a DC 20 Escape Artist check.</p><p>The rope itself and any knots tied in it are not magical.</p><p>The spell cannot affect objects carried or worn by a creature.</p>\n</div>\n",
      "chat": "",
      "unidentified": ""
    },
    "tags": [],
    "activation": {
      "cost": 1,
      "type": "standard"
    },
    "unchainedAction": {
      "activation": {
        "cost": 2,
        "type": "action"
      }
    },
    "duration": {
      "value": null,
      "units": ""
    },
    "target": {
      "value": "one rope-like object, length up to 50 ft. + 5 ft./level; see text"
    },
    "range": {
      "value": null,
      "units": "medium",
      "maxIncrements": 1,
      "minValue": null,
      "minUnits": ""
    },
    "uses": {
      "value": 0,
      "max": 0,
      "per": "",
      "autoDeductCharges": true,
      "autoDeductChargesCost": "1"
    },
    "measureTemplate": {
      "type": "",
      "size": "0",
      "overrideColor": false,
      "customColor": "",
      "overrideTexture": false,
      "customTexture": ""
    },
    "attackName": "",
    "actionType": "",
    "attackBonus": "",
    "critConfirmBonus": "",
    "damage": {
      "parts": [],
      "critParts": [],
      "nonCritParts": []
    },
    "attackParts": [],
    "formula": "",
    "ability": {
      "attack": "",
      "damage": "",
      "damageMult": 1,
      "critRange": 20,
      "critMult": 2
    },
    "save": {
      "dc": "0",
      "type": "",
      "description": ""
    },
    "effectNotes": "",
    "attackNotes": "",
    "soundEffect": "",
    "links": {
      "children": []
    },
    "learnedAt": {
      "class": [
        [
          "sorcerer/wizard",
          1
        ],
        [
          "bard",
          1
        ],
        [
          "psychic",
          1
        ],
        [
          "mesmerist",
          1
        ]
      ],
      "domain": [
        [
          "Artifice",
          1
        ]
      ],
      "subDomain": [],
      "elementalSchool": [],
      "bloodline": []
    },
    "level": 1,
    "clOffset": 0,
    "slOffset": 0,
    "school": "trs",
    "subschool": "",
    "types": "",
    "nonlethal": false,
    "conditionals": [],
    "components": {
      "value": "",
      "verbal": true,
      "somatic": true,
      "material": false,
      "focus": false,
      "divineFocus": 0
    },
    "castTime": "",
    "materials": {
      "value": "",
      "focus": "",
      "gpValue": 0
    },
    "spellbook": "primary",
    "preparation": {
      "preparedAmount": 0,
      "maxAmount": 0,
      "autoDeductCharges": true,
      "spontaneousPrepared": true,
      "mode": "prepared"
    },
    "atWill": false,
    "sr": false,
    "shortDescription": "<p>You can animate a nonliving rope-like object. The maximum length assumes a rope with a 1-inch diameter. Reduce the maximum length by 50% for every additional inch of thickness, and increase it by 50% for each reduction of the rope's diameter by half.</p><p>The possible commands are \"coil\" (form a neat, coiled stack), \"coil and knot,\" \"loop,\" \"loop and knot,\" \"tie and knot,\" and the opposites of all of the above (\"uncoil,\" and so forth). You can give one command each round as a move action, as if directing an active spell.</p><p>The rope can enwrap only a creature or an object within 1 foot of it - it does not snake outward - so it must be thrown near the intended target. Doing so requires a successful ranged touch attack roll (range increment 10 feet). A typical 1-inch-diameter hemp rope has 2 hit points, AC 10, and requires a DC 23 Strength check to burst it. The rope does not deal damage, but it can be used as a trip line or to cause a single opponent that fails a Reflex saving throw to become entangled. A creature capable of spellcasting that is bound by this spell must make a concentration check with a DC of 15 + the spell's level to cast a spell. An entangled creature can slip free with a DC 20 Escape Artist check.</p><p>The rope itself and any knots tied in it are not magical.</p><p>The spell cannot affect objects carried or worn by a creature.</p>",
    "spellDuration": "1 round/level",
    "spellEffect": "",
    "spellArea": "",
    "showInQuickbar": false,
    "spellPoints": {
      "cost": "1 + @sl"
    },
    "domain": false,
    "slotCost": 1
  },
  "flags": {},
  "img": "systems/pf1/icons/misc/magic-swirl.png",
  "effects": []
}