{
  "_id": "5iztb4bo8ybh1wzo",
  "name": "Arrow of Law",
  "permission": {
    "default": 0
  },
  "type": "spell",
  "data": {
    "description": {
      "value": "<div class=\"spell-description\">\n  <p>\n    <strong>School</strong>&nbsp;evocation&nbsp;[lawful];\n    <strong>Level</strong>&nbsp;cleric/oracle 2, paladin 2;\n    \n    \n    \n    \n  </p>\n  <p>\n    <strong>Casting Time</strong>&nbsp;1 standard action<br>\n    <strong>Components</strong>&nbsp;V, S, F (a holy symbol)<br>\n  </p>\n  <p>\n    <strong>Range</strong>&nbsp;close (25 ft. + 5 ft./2 levels)<br>\n    \n    \n    <strong>Effect</strong>&nbsp;arrow-shaped projectile of lawful energy<br>\n    <strong>Duration</strong>&nbsp;instantaneous (1 round); see text<br>\n    <strong>Saving Throw</strong>&nbsp;Will partial (see text);&nbsp;<strong>Spell Resistance</strong>&nbsp;yes<br>\n  </p>\n  <h2>Description</h2>\n  <p>You fire a shimmering arrow of pure order from your holy symbol at any one target in range as a ranged touch attack.</p><p>A chaotic creature struck by an <i>arrow of law</i> takes 1d8 points of damage per two caster levels (maximum 5d8). A chaotic outsider instead takes 1d6 points of damage per caster level (maximum 10d6) and is dazed for 1 round. A successful Will save reduces the damage to half and negates the daze effect.</p><p>This spell deals only half damage to creatures that are neither chaotic nor lawful, and they are not dazed. The arrow has no effect on lawful creatures.</p>\n</div>\n",
      "chat": "",
      "unidentified": ""
    },
    "tags": [],
    "activation": {
      "cost": 1,
      "type": "standard"
    },
    "unchainedAction": {
      "activation": {
        "cost": 2,
        "type": "action"
      }
    },
    "duration": {
      "value": null,
      "units": ""
    },
    "target": {
      "value": ""
    },
    "range": {
      "value": null,
      "units": "close",
      "maxIncrements": 1,
      "minValue": null,
      "minUnits": ""
    },
    "uses": {
      "value": 0,
      "max": 0,
      "per": "",
      "autoDeductCharges": true,
      "autoDeductChargesCost": "1"
    },
    "measureTemplate": {
      "type": "",
      "size": "0",
      "overrideColor": false,
      "customColor": "",
      "overrideTexture": false,
      "customTexture": ""
    },
    "attackName": "",
    "actionType": "spellsave",
    "attackBonus": "",
    "critConfirmBonus": "",
    "damage": {
      "parts": [],
      "critParts": [],
      "nonCritParts": []
    },
    "attackParts": [],
    "formula": "",
    "ability": {
      "attack": "",
      "damage": "",
      "damageMult": 1,
      "critRange": 20,
      "critMult": 2
    },
    "save": {
      "dc": "0",
      "type": "will",
      "description": "Will partial (see text)"
    },
    "effectNotes": "",
    "attackNotes": "",
    "soundEffect": "",
    "links": {
      "children": []
    },
    "learnedAt": {
      "class": [
        [
          "cleric/oracle",
          2
        ],
        [
          "paladin",
          2
        ]
      ],
      "domain": [],
      "subDomain": [],
      "elementalSchool": [],
      "bloodline": []
    },
    "level": 2,
    "clOffset": 0,
    "slOffset": 0,
    "school": "evo",
    "subschool": "",
    "types": "lawful",
    "nonlethal": false,
    "conditionals": [],
    "components": {
      "value": "",
      "verbal": true,
      "somatic": true,
      "material": false,
      "focus": true,
      "divineFocus": 0
    },
    "castTime": "",
    "materials": {
      "value": "",
      "focus": "a holy symbol",
      "gpValue": 0
    },
    "spellbook": "primary",
    "preparation": {
      "preparedAmount": 0,
      "maxAmount": 0,
      "autoDeductCharges": true,
      "spontaneousPrepared": true,
      "mode": "prepared"
    },
    "atWill": false,
    "sr": true,
    "shortDescription": "<p>You fire a shimmering arrow of pure order from your holy symbol at any one target in range as a ranged touch attack.</p><p>A chaotic creature struck by an <i>arrow of law</i> takes 1d8 points of damage per two caster levels (maximum 5d8). A chaotic outsider instead takes 1d6 points of damage per caster level (maximum 10d6) and is dazed for 1 round. A successful Will save reduces the damage to half and negates the daze effect.</p><p>This spell deals only half damage to creatures that are neither chaotic nor lawful, and they are not dazed. The arrow has no effect on lawful creatures.</p>",
    "spellDuration": "instantaneous (1 round); see text",
    "spellEffect": "arrow-shaped projectile of lawful energy",
    "spellArea": "",
    "showInQuickbar": false,
    "spellPoints": {
      "cost": "1 + @sl"
    },
    "domain": false,
    "slotCost": 1
  },
  "flags": {},
  "img": "systems/pf1/icons/misc/magic-swirl.png",
  "effects": []
}