{
  "_id": "br37848gchetel0q",
  "name": "Beast Shape IV",
  "permission": {
    "default": 0
  },
  "type": "spell",
  "data": {
    "description": {
      "value": "<div class=\"spell-description\">\n  <p>\n    <strong>School</strong>&nbsp;transmutation&nbsp;(polymorph);\n    <strong>Level</strong>&nbsp;alchemist 6, magus 6, sorcerer/wizard 6;\n    \n    \n    \n    <strong>Bloodline</strong>&nbsp;Aquatic 6;\n  </p>\n  <p>\n    <strong>Casting Time</strong>&nbsp;1 standard action<br>\n    <strong>Components</strong>&nbsp;V, S, M (a piece of the creature whose form you plan to assume)<br>\n  </p>\n  <p>\n    <strong>Range</strong>&nbsp;personal<br>\n    \n    <strong>Targets</strong>&nbsp;you<br>\n    \n    <strong>Duration</strong>&nbsp;1 min./level<br>\n    \n  </p>\n  <h2>Description</h2>\n  <p>This spell functions as <i>beast shape III</i> except that it also allows you to assume the form of a Tiny or Large creature of the magical beast type. If the form you assume has any of the following abilities, you gain the listed ability: burrow 60 feet, climb 90 feet, fly 120 feet (good maneuverability), swim 120 feet, blindsense 60 feet, darkvision 90 feet, low-light vision, scent, tremorsense 60 feet, breath weapon, constrict, ferocity, grab, jet, poison, pounce, rake, rend, roar, spikes, trample, trip, and web. If the creature has immunity or resistance to any elements, you gain resistance 20 to those elements. If the creature has vulnerability to an element, you gain that vulnerability.</p><p><i>Diminutive animal</i>: If the form you take is that of a Diminutive animal, you gain a +6 size bonus to your Dexterity, a -4 penalty to your Strength, and a +1 natural armor bonus.</p><p><i>Tiny animal</i>: If the form you take is that of a Tiny animal, you gain a +4 size bonus to your Dexterity, a -2 penalty to your Strength, and a +1 natural armor bonus.</p><p><i>Small animal</i>: If the form you take is that of a Small animal, you gain a +2 size bonus to your Dexterity and a +1 natural armor bonus.</p><p><i>Medium animal</i>: If the form you take is that of a Medium animal, you gain a +2 size bonus to your Strength and a +2 natural armor bonus.</p><p><i>Large animal</i>: If the form you take is that of a Large animal, you gain a +4 size bonus to your Strength, a -2 penalty to your Dexterity, and a +4 natural armor bonus.</p><p><i>Huge animal</i>: If the form you take is that of a Huge animal, you gain a +6 size bonus to your Strength, a -4 penalty to your Dexterity, and a +6 natural armor bonus.</p><p><i>Tiny magical beast</i>: If the form you take is that of a Tiny magical beast, you gain a -2 penalty to your Strength, a +8 size bonus to your Dexterity, and a +3 natural armor bonus.</p><p><i>Small magical beast</i>: If the form you take is that of a Small magical beast, you gain a +4 size bonus to your Dexterity, and a +2 natural armor bonus.</p><p><i>Medium magical beast</i>: If the form you take is that of a Medium magical beast, you gain a +4 size bonus to your Strength, and a +4 natural armor bonus.</p><p><i>Large magical beast</i>: If the form you take is that of a Large magical beast, you gain a +6 size bonus to your Strength, a -2 penalty on your Dexterity, a +2 size bonus to your Constitution, and a +6 natural armor bonus.</p>\n</div>\n",
      "chat": "",
      "unidentified": ""
    },
    "tags": [],
    "activation": {
      "cost": 1,
      "type": "standard"
    },
    "unchainedAction": {
      "activation": {
        "cost": 2,
        "type": "action"
      }
    },
    "duration": {
      "value": null,
      "units": ""
    },
    "target": {
      "value": "you"
    },
    "range": {
      "value": null,
      "units": "personal",
      "maxIncrements": 1,
      "minValue": null,
      "minUnits": ""
    },
    "uses": {
      "value": 0,
      "max": 0,
      "per": "",
      "autoDeductCharges": true,
      "autoDeductChargesCost": "1"
    },
    "measureTemplate": {
      "type": "",
      "size": "0",
      "overrideColor": false,
      "customColor": "",
      "overrideTexture": false,
      "customTexture": ""
    },
    "attackName": "",
    "actionType": "",
    "attackBonus": "",
    "critConfirmBonus": "",
    "damage": {
      "parts": [],
      "critParts": [],
      "nonCritParts": []
    },
    "attackParts": [],
    "formula": "",
    "ability": {
      "attack": "",
      "damage": "",
      "damageMult": 1,
      "critRange": 20,
      "critMult": 2
    },
    "save": {
      "dc": "0",
      "type": "",
      "description": ""
    },
    "effectNotes": "",
    "attackNotes": "",
    "soundEffect": "",
    "links": {
      "children": []
    },
    "learnedAt": {
      "class": [
        [
          "sorcerer/wizard",
          6
        ],
        [
          "alchemist",
          6
        ],
        [
          "magus",
          6
        ]
      ],
      "domain": [],
      "subDomain": [],
      "elementalSchool": [],
      "bloodline": [
        [
          "Aquatic",
          6
        ]
      ]
    },
    "level": 6,
    "clOffset": 0,
    "slOffset": 0,
    "school": "trs",
    "subschool": "polymorph",
    "types": "",
    "nonlethal": false,
    "conditionals": [],
    "components": {
      "value": "",
      "verbal": true,
      "somatic": true,
      "material": true,
      "focus": false,
      "divineFocus": 0
    },
    "castTime": "",
    "materials": {
      "value": "a piece of the creature whose form you plan to assume",
      "focus": "",
      "gpValue": 0
    },
    "spellbook": "primary",
    "preparation": {
      "preparedAmount": 0,
      "maxAmount": 0,
      "autoDeductCharges": true,
      "spontaneousPrepared": true,
      "mode": "prepared"
    },
    "atWill": false,
    "sr": false,
    "shortDescription": "<p>This spell functions as <i>beast shape III</i> except that it also allows you to assume the form of a Tiny or Large creature of the magical beast type. If the form you assume has any of the following abilities, you gain the listed ability: burrow 60 feet, climb 90 feet, fly 120 feet (good maneuverability), swim 120 feet, blindsense 60 feet, darkvision 90 feet, low-light vision, scent, tremorsense 60 feet, breath weapon, constrict, ferocity, grab, jet, poison, pounce, rake, rend, roar, spikes, trample, trip, and web. If the creature has immunity or resistance to any elements, you gain resistance 20 to those elements. If the creature has vulnerability to an element, you gain that vulnerability.</p><p><i>Diminutive animal</i>: If the form you take is that of a Diminutive animal, you gain a +6 size bonus to your Dexterity, a -4 penalty to your Strength, and a +1 natural armor bonus.</p><p><i>Tiny animal</i>: If the form you take is that of a Tiny animal, you gain a +4 size bonus to your Dexterity, a -2 penalty to your Strength, and a +1 natural armor bonus.</p><p><i>Small animal</i>: If the form you take is that of a Small animal, you gain a +2 size bonus to your Dexterity and a +1 natural armor bonus.</p><p><i>Medium animal</i>: If the form you take is that of a Medium animal, you gain a +2 size bonus to your Strength and a +2 natural armor bonus.</p><p><i>Large animal</i>: If the form you take is that of a Large animal, you gain a +4 size bonus to your Strength, a -2 penalty to your Dexterity, and a +4 natural armor bonus.</p><p><i>Huge animal</i>: If the form you take is that of a Huge animal, you gain a +6 size bonus to your Strength, a -4 penalty to your Dexterity, and a +6 natural armor bonus.</p><p><i>Tiny magical beast</i>: If the form you take is that of a Tiny magical beast, you gain a -2 penalty to your Strength, a +8 size bonus to your Dexterity, and a +3 natural armor bonus.</p><p><i>Small magical beast</i>: If the form you take is that of a Small magical beast, you gain a +4 size bonus to your Dexterity, and a +2 natural armor bonus.</p><p><i>Medium magical beast</i>: If the form you take is that of a Medium magical beast, you gain a +4 size bonus to your Strength, and a +4 natural armor bonus.</p><p><i>Large magical beast</i>: If the form you take is that of a Large magical beast, you gain a +6 size bonus to your Strength, a -2 penalty on your Dexterity, a +2 size bonus to your Constitution, and a +6 natural armor bonus.</p>",
    "spellDuration": "1 min./level",
    "spellEffect": "",
    "spellArea": "",
    "showInQuickbar": false,
    "spellPoints": {
      "cost": "1 + @sl"
    },
    "domain": false,
    "slotCost": 1
  },
  "flags": {},
  "img": "systems/pf1/icons/misc/magic-swirl.png",
  "effects": []
}