{
  "_id": "vdmgs1xvnnobtg9y",
  "name": "Bladed Dash",
  "permission": {
    "default": 0
  },
  "type": "spell",
  "data": {
    "description": {
      "value": "<div class=\"spell-description\">\n  <p>\n    <strong>School</strong>&nbsp;transmutation;\n    <strong>Level</strong>&nbsp;bard 2, magus 2;\n    \n    \n    \n    \n  </p>\n  <p>\n    <strong>Casting Time</strong>&nbsp;1 standard action<br>\n    <strong>Components</strong>&nbsp;V<br>\n  </p>\n  <p>\n    <strong>Range</strong>&nbsp;personal<br>\n    \n    <strong>Targets</strong>&nbsp;you<br>\n    \n    <strong>Duration</strong>&nbsp;instantaneous<br>\n    \n  </p>\n  <h2>Description</h2>\n  <p>Both Quantium and Jalmeray claim that this spell was born in their arcane universities. Regardless of the spell's origin, it quickly spread throughout the Inner Sea and beyond as spellcasting sword-fighters learned of its existence.</p><p>When you cast this spell, you immediately move up to 30 feet in a straight line any direction, momentarily leaving a multi-hued cascade of images behind you. This movement does not provoke attacks of opportunity. You may make a single melee attack at your highest base attack bonus against any one creature you are adjacent to at any point along this 30 feet. You gain a circumstance bonus on your attack roll equal to your Intelligence or Charisma modifier, whichever is higher.</p><p>You must end the bonus movement granted by this spell in an unoccupied square. If no such space is available along the trajectory, the spell fails. Despite the name, the spell works with any melee weapon.</p>\n</div>\n",
      "chat": "",
      "unidentified": ""
    },
    "tags": [],
    "activation": {
      "cost": 1,
      "type": "standard"
    },
    "unchainedAction": {
      "activation": {
        "cost": 2,
        "type": "action"
      }
    },
    "duration": {
      "value": null,
      "units": ""
    },
    "target": {
      "value": "you"
    },
    "range": {
      "value": null,
      "units": "personal",
      "maxIncrements": 1,
      "minValue": null,
      "minUnits": ""
    },
    "uses": {
      "value": 0,
      "max": 0,
      "per": "",
      "autoDeductCharges": true,
      "autoDeductChargesCost": "1"
    },
    "measureTemplate": {
      "type": "",
      "size": "0",
      "overrideColor": false,
      "customColor": "",
      "overrideTexture": false,
      "customTexture": ""
    },
    "attackName": "",
    "actionType": "",
    "attackBonus": "",
    "critConfirmBonus": "",
    "damage": {
      "parts": [],
      "critParts": [],
      "nonCritParts": []
    },
    "attackParts": [],
    "formula": "",
    "ability": {
      "attack": "",
      "damage": "",
      "damageMult": 1,
      "critRange": 20,
      "critMult": 2
    },
    "save": {
      "dc": "0",
      "type": "",
      "description": ""
    },
    "effectNotes": "",
    "attackNotes": "",
    "soundEffect": "",
    "links": {
      "children": []
    },
    "learnedAt": {
      "class": [
        [
          "bard",
          2
        ],
        [
          "magus",
          2
        ]
      ],
      "domain": [],
      "subDomain": [],
      "elementalSchool": [],
      "bloodline": []
    },
    "level": 2,
    "clOffset": 0,
    "slOffset": 0,
    "school": "trs",
    "subschool": "",
    "types": "",
    "nonlethal": false,
    "conditionals": [],
    "components": {
      "value": "",
      "verbal": true,
      "somatic": false,
      "material": false,
      "focus": false,
      "divineFocus": 0
    },
    "castTime": "",
    "materials": {
      "value": "",
      "focus": "",
      "gpValue": 0
    },
    "spellbook": "primary",
    "preparation": {
      "preparedAmount": 0,
      "maxAmount": 0,
      "autoDeductCharges": true,
      "spontaneousPrepared": true,
      "mode": "prepared"
    },
    "atWill": false,
    "sr": false,
    "shortDescription": "<p>Both Quantium and Jalmeray claim that this spell was born in their arcane universities. Regardless of the spell's origin, it quickly spread throughout the Inner Sea and beyond as spellcasting sword-fighters learned of its existence.</p><p>When you cast this spell, you immediately move up to 30 feet in a straight line any direction, momentarily leaving a multi-hued cascade of images behind you. This movement does not provoke attacks of opportunity. You may make a single melee attack at your highest base attack bonus against any one creature you are adjacent to at any point along this 30 feet. You gain a circumstance bonus on your attack roll equal to your Intelligence or Charisma modifier, whichever is higher.</p><p>You must end the bonus movement granted by this spell in an unoccupied square. If no such space is available along the trajectory, the spell fails. Despite the name, the spell works with any melee weapon.</p>",
    "spellDuration": "instantaneous",
    "spellEffect": "",
    "spellArea": "",
    "showInQuickbar": false,
    "spellPoints": {
      "cost": "1 + @sl"
    },
    "domain": false,
    "slotCost": 1
  },
  "flags": {},
  "img": "systems/pf1/icons/misc/magic-swirl.png",
  "effects": []
}