{
  "_id": "0g0pgsbjns61ovln",
  "name": "Body Capacitance",
  "permission": {
    "default": 0
  },
  "type": "spell",
  "data": {
    "description": {
      "value": "<div class=\"spell-description\">\n  <p>\n    <strong>School</strong>&nbsp;transmutation&nbsp;[electricity];\n    <strong>Level</strong>&nbsp;alchemist 1, sorcerer/wizard 1;\n    \n    \n    \n    \n  </p>\n  <p>\n    <strong>Casting Time</strong>&nbsp;1 standard action<br>\n    <strong>Components</strong>&nbsp;V, S, M (an iron coil)<br>\n  </p>\n  <p>\n    <strong>Range</strong>&nbsp;personal<br>\n    \n    <strong>Targets</strong>&nbsp;you<br>\n    \n    <strong>Duration</strong>&nbsp;1 minute/level or until discharged (see text)<br>\n    \n  </p>\n  <h2>Description</h2>\n  <p>If you take electricity damage while this spell is active, some of the energy is stored on your skin, as with holding the charge on a touch spell. You can release this stored electricity by making a melee touch attack. You gain a +3 bonus on the attack roll if your opponent is wearing metal armor, is carrying a metal weapon, or is made of metal. The target of your touch attack is dealt electricity damage equal to half the amount of electricity damage you took after you cast this spell (for example, if you saved for half damage against a <i>lightning bolt</i> and took only 15 points of electricity damage, your next touch attack deals 7 points of electricity damage). This spell is discharged once you hit with a melee touch attack to deliver its damage. If you take electricity damage multiple times while this spell is active, use the largest amount of electricity damage you took to determine your touch attack damage.</p>\n</div>\n",
      "chat": "",
      "unidentified": ""
    },
    "tags": [],
    "activation": {
      "cost": 1,
      "type": "standard"
    },
    "unchainedAction": {
      "activation": {
        "cost": 2,
        "type": "action"
      }
    },
    "duration": {
      "value": null,
      "units": ""
    },
    "target": {
      "value": "you"
    },
    "range": {
      "value": null,
      "units": "personal",
      "maxIncrements": 1,
      "minValue": null,
      "minUnits": ""
    },
    "uses": {
      "value": 0,
      "max": 0,
      "per": "",
      "autoDeductCharges": true,
      "autoDeductChargesCost": "1"
    },
    "measureTemplate": {
      "type": "",
      "size": "0",
      "overrideColor": false,
      "customColor": "",
      "overrideTexture": false,
      "customTexture": ""
    },
    "attackName": "",
    "actionType": "",
    "attackBonus": "",
    "critConfirmBonus": "",
    "damage": {
      "parts": [],
      "critParts": [],
      "nonCritParts": []
    },
    "attackParts": [],
    "formula": "",
    "ability": {
      "attack": "",
      "damage": "",
      "damageMult": 1,
      "critRange": 20,
      "critMult": 2
    },
    "save": {
      "dc": "0",
      "type": "",
      "description": ""
    },
    "effectNotes": "",
    "attackNotes": "",
    "soundEffect": "",
    "links": {
      "children": []
    },
    "learnedAt": {
      "class": [
        [
          "sorcerer/wizard",
          1
        ],
        [
          "alchemist",
          1
        ]
      ],
      "domain": [],
      "subDomain": [],
      "elementalSchool": [],
      "bloodline": []
    },
    "level": 1,
    "clOffset": 0,
    "slOffset": 0,
    "school": "trs",
    "subschool": "",
    "types": "electricity",
    "nonlethal": false,
    "conditionals": [],
    "components": {
      "value": "",
      "verbal": true,
      "somatic": true,
      "material": true,
      "focus": false,
      "divineFocus": 0
    },
    "castTime": "",
    "materials": {
      "value": "an iron coil",
      "focus": "",
      "gpValue": 0
    },
    "spellbook": "primary",
    "preparation": {
      "preparedAmount": 0,
      "maxAmount": 0,
      "autoDeductCharges": true,
      "spontaneousPrepared": true,
      "mode": "prepared"
    },
    "atWill": false,
    "sr": false,
    "shortDescription": "<p>If you take electricity damage while this spell is active, some of the energy is stored on your skin, as with holding the charge on a touch spell. You can release this stored electricity by making a melee touch attack. You gain a +3 bonus on the attack roll if your opponent is wearing metal armor, is carrying a metal weapon, or is made of metal. The target of your touch attack is dealt electricity damage equal to half the amount of electricity damage you took after you cast this spell (for example, if you saved for half damage against a <i>lightning bolt</i> and took only 15 points of electricity damage, your next touch attack deals 7 points of electricity damage). This spell is discharged once you hit with a melee touch attack to deliver its damage. If you take electricity damage multiple times while this spell is active, use the largest amount of electricity damage you took to determine your touch attack damage.</p>",
    "spellDuration": "1 minute/level or until discharged (see text)",
    "spellEffect": "",
    "spellArea": "",
    "showInQuickbar": false,
    "spellPoints": {
      "cost": "1 + @sl"
    },
    "domain": false,
    "slotCost": 1
  },
  "flags": {},
  "img": "systems/pf1/icons/misc/magic-swirl.png",
  "effects": []
}