{
  "_id": "slz390w3px7q1srf",
  "name": "Curse of Night",
  "permission": {
    "default": 0
  },
  "type": "spell",
  "data": {
    "description": {
      "value": "<div class=\"spell-description\">\n  <p>\n    <strong>School</strong>&nbsp;evocation&nbsp;[curse, darkness];\n    <strong>Level</strong>&nbsp;cleric/oracle 8, druid 8, sorcerer/wizard 8, witch 8;\n    \n    \n    \n    \n  </p>\n  <p>\n    <strong>Casting Time</strong>&nbsp;10 minutes<br>\n    <strong>Components</strong>&nbsp;V, S, F (jet gemstones worth a total of 10,000 gp)<br>\n  </p>\n  <p>\n    <strong>Range</strong>&nbsp;touch<br>\n    <strong>Area</strong>&nbsp;1-mile radius emanating from the touched point<br>\n    \n    \n    <strong>Duration</strong>&nbsp;permanent (D)<br>\n    <strong>Saving Throw</strong>&nbsp;none (see curse text);&nbsp;<strong>Spell Resistance</strong>&nbsp;no<br>\n  </p>\n  <h2>Description</h2>\n  <p>By touching the ground, you curse an area to remain in bleak darkness, as the endless night curse (see page 143). The focus merges into the cursed area as part of the spell and can only be retrieved if the curse is lifted.</p>\n</div>\n",
      "chat": "",
      "unidentified": ""
    },
    "tags": [],
    "activation": {
      "cost": 10,
      "type": "minute"
    },
    "unchainedAction": {
      "activation": {
        "cost": 10,
        "type": "minute"
      }
    },
    "duration": {
      "value": null,
      "units": ""
    },
    "target": {
      "value": ""
    },
    "range": {
      "value": null,
      "units": "touch",
      "maxIncrements": 1,
      "minValue": null,
      "minUnits": ""
    },
    "uses": {
      "value": 0,
      "max": 0,
      "per": "",
      "autoDeductCharges": true,
      "autoDeductChargesCost": "1"
    },
    "measureTemplate": {
      "type": "",
      "size": "0",
      "overrideColor": false,
      "customColor": "",
      "overrideTexture": false,
      "customTexture": ""
    },
    "attackName": "",
    "actionType": "spellsave",
    "attackBonus": "",
    "critConfirmBonus": "",
    "damage": {
      "parts": [],
      "critParts": [],
      "nonCritParts": []
    },
    "attackParts": [],
    "formula": "",
    "ability": {
      "attack": "",
      "damage": "",
      "damageMult": 1,
      "critRange": 20,
      "critMult": 2
    },
    "save": {
      "dc": "0",
      "type": "",
      "description": "none (see curse text)"
    },
    "effectNotes": "",
    "attackNotes": "",
    "soundEffect": "",
    "links": {
      "children": []
    },
    "learnedAt": {
      "class": [
        [
          "sorcerer/wizard",
          8
        ],
        [
          "cleric/oracle",
          8
        ],
        [
          "druid",
          8
        ],
        [
          "witch",
          8
        ]
      ],
      "domain": [],
      "subDomain": [],
      "elementalSchool": [],
      "bloodline": []
    },
    "level": 8,
    "clOffset": 0,
    "slOffset": 0,
    "school": "evo",
    "subschool": "",
    "types": "curse, darkness",
    "nonlethal": false,
    "conditionals": [],
    "components": {
      "value": "",
      "verbal": true,
      "somatic": true,
      "material": false,
      "focus": true,
      "divineFocus": 0
    },
    "castTime": "",
    "materials": {
      "value": "",
      "focus": "jet gemstones worth a total of 10,000 gp",
      "gpValue": 0
    },
    "spellbook": "primary",
    "preparation": {
      "preparedAmount": 0,
      "maxAmount": 0,
      "autoDeductCharges": true,
      "spontaneousPrepared": true,
      "mode": "prepared"
    },
    "atWill": false,
    "sr": false,
    "shortDescription": "<p>By touching the ground, you curse an area to remain in bleak darkness, as the endless night curse (see page 143). The focus merges into the cursed area as part of the spell and can only be retrieved if the curse is lifted.</p>",
    "spellDuration": "permanent (D)",
    "spellEffect": "",
    "spellArea": "1-mile radius emanating from the touched point",
    "showInQuickbar": false,
    "spellPoints": {
      "cost": "1 + @sl"
    },
    "domain": false,
    "slotCost": 1
  },
  "flags": {},
  "img": "systems/pf1/icons/misc/magic-swirl.png",
  "effects": []
}