{
  "_id": "vxt8zx57agd6a3lj",
  "name": "Dream Scan",
  "permission": {
    "default": 0
  },
  "type": "spell",
  "data": {
    "description": {
      "value": "<div class=\"spell-description\">\n  <p>\n    <strong>School</strong>&nbsp;divination&nbsp;[mind-affecting];\n    <strong>Level</strong>&nbsp;bard 6, medium 4, mesmerist 5, psychic 5, sorcerer/wizard 6;\n    \n    \n    \n    \n  </p>\n  <p>\n    <strong>Casting Time</strong>&nbsp;1 standard action<br>\n    <strong>Components</strong>&nbsp;V, S<br>\n  </p>\n  <p>\n    \n    \n    <strong>Targets</strong>&nbsp;one living creature<br>\n    \n    <strong>Duration</strong>&nbsp;see text<br>\n    <strong>Saving Throw</strong>&nbsp;Will negates;&nbsp;<strong>Spell Resistance</strong>&nbsp;yes<br>\n  </p>\n  <h2>Description</h2>\n  <p>This spell functions as <i>dream</i>, but rather than sending a message to a sleeping target, you can instead read the target's thoughts. The target must be asleep for you to perform a <i>dream</i> scan, though if the target isn't asleep, you can wait in a trance until your target falls asleep. Once the target is asleep, you can concentrate in order to read its surface thoughts as if using <i>detect thoughts</i>. You can continue concentrating for up to 1 minute per caster level.  Instead of reading surface thoughts, you can choose to scan the target's <i>dream</i>s and subconscious mind for the answers to questions. For every minute you spend concentrating, you can obtain the answer to one question,  though the answers might be brief, cryptic, or repetitive. The target is entitled to a new Will save to end the <i>dream</i> scan each time you ask it a question. Otherwise, the creature can attempt a Bluff check with a DC equal to 11 + your Sense Motive modifier. If it fails its Bluff check, you gain the information you desire. If it succeeds at its check, you gain no information. If it succeeds at its check by 5 or more, you misinterpret the target's <i>dream</i>s- you draw a false conclusion of the target's choice and believe that wrong answer to be true.  Unlike with <i>dream</i>, you can't cast this spell on another creature to have it serve as your messenger.</p>\n</div>\n",
      "chat": "",
      "unidentified": ""
    },
    "tags": [],
    "activation": {
      "cost": 1,
      "type": "standard"
    },
    "unchainedAction": {
      "activation": {
        "cost": 2,
        "type": "action"
      }
    },
    "duration": {
      "value": null,
      "units": ""
    },
    "target": {
      "value": "one living creature"
    },
    "range": {
      "value": null,
      "units": "",
      "maxIncrements": 1,
      "minValue": null,
      "minUnits": ""
    },
    "uses": {
      "value": 0,
      "max": 0,
      "per": "",
      "autoDeductCharges": true,
      "autoDeductChargesCost": "1"
    },
    "measureTemplate": {
      "type": "",
      "size": "0",
      "overrideColor": false,
      "customColor": "",
      "overrideTexture": false,
      "customTexture": ""
    },
    "attackName": "",
    "actionType": "spellsave",
    "attackBonus": "",
    "critConfirmBonus": "",
    "damage": {
      "parts": [],
      "critParts": [],
      "nonCritParts": []
    },
    "attackParts": [],
    "formula": "",
    "ability": {
      "attack": "",
      "damage": "",
      "damageMult": 1,
      "critRange": 20,
      "critMult": 2
    },
    "save": {
      "dc": "0",
      "type": "will",
      "description": "Will negates"
    },
    "effectNotes": "",
    "attackNotes": "",
    "soundEffect": "",
    "links": {
      "children": []
    },
    "learnedAt": {
      "class": [
        [
          "sorcerer/wizard",
          6
        ],
        [
          "bard",
          6
        ],
        [
          "psychic",
          5
        ],
        [
          "medium",
          4
        ],
        [
          "mesmerist",
          5
        ]
      ],
      "domain": [],
      "subDomain": [],
      "elementalSchool": [],
      "bloodline": []
    },
    "level": 6,
    "clOffset": 0,
    "slOffset": 0,
    "school": "div",
    "subschool": "",
    "types": "mind-affecting",
    "nonlethal": false,
    "conditionals": [],
    "components": {
      "value": "",
      "verbal": true,
      "somatic": true,
      "material": false,
      "focus": false,
      "divineFocus": 0
    },
    "castTime": "",
    "materials": {
      "value": "",
      "focus": "",
      "gpValue": 0
    },
    "spellbook": "primary",
    "preparation": {
      "preparedAmount": 0,
      "maxAmount": 0,
      "autoDeductCharges": true,
      "spontaneousPrepared": true,
      "mode": "prepared"
    },
    "atWill": false,
    "sr": true,
    "shortDescription": "<p>This spell functions as <i>dream</i>, but rather than sending a message to a sleeping target, you can instead read the target's thoughts. The target must be asleep for you to perform a <i>dream</i> scan, though if the target isn't asleep, you can wait in a trance until your target falls asleep. Once the target is asleep, you can concentrate in order to read its surface thoughts as if using <i>detect thoughts</i>. You can continue concentrating for up to 1 minute per caster level.  Instead of reading surface thoughts, you can choose to scan the target's <i>dream</i>s and subconscious mind for the answers to questions. For every minute you spend concentrating, you can obtain the answer to one question,  though the answers might be brief, cryptic, or repetitive. The target is entitled to a new Will save to end the <i>dream</i> scan each time you ask it a question. Otherwise, the creature can attempt a Bluff check with a DC equal to 11 + your Sense Motive modifier. If it fails its Bluff check, you gain the information you desire. If it succeeds at its check, you gain no information. If it succeeds at its check by 5 or more, you misinterpret the target's <i>dream</i>s- you draw a false conclusion of the target's choice and believe that wrong answer to be true.  Unlike with <i>dream</i>, you can't cast this spell on another creature to have it serve as your messenger.</p>",
    "spellDuration": "see text",
    "spellEffect": "",
    "spellArea": "",
    "showInQuickbar": false,
    "spellPoints": {
      "cost": "1 + @sl"
    },
    "domain": false,
    "slotCost": 1
  },
  "flags": {},
  "img": "systems/pf1/icons/misc/magic-swirl.png",
  "effects": []
}