{
  "_id": "759y8xzdg3unvt6s",
  "name": "Dream Voyage",
  "permission": {
    "default": 0
  },
  "type": "spell",
  "data": {
    "description": {
      "value": "<div class=\"spell-description\">\n  <p>\n    <strong>School</strong>&nbsp;conjuration&nbsp;(teleportation)&nbsp;[mind-affecting];\n    <strong>Level</strong>&nbsp;psychic 9;\n    \n    \n    \n    \n  </p>\n  <p>\n    <strong>Casting Time</strong>&nbsp;1 standard action<br>\n    <strong>Components</strong>&nbsp;V, S<br>\n  </p>\n  <p>\n    <strong>Range</strong>&nbsp;touch<br>\n    \n    <strong>Targets</strong>&nbsp;you and one creature/level<br>\n    \n    <strong>Duration</strong>&nbsp;1 hour/level (D)<br>\n    <strong>Saving Throw</strong>&nbsp;Will negates;&nbsp;<strong>Spell Resistance</strong>&nbsp;yes<br>\n  </p>\n  <h2>Description</h2>\n  <p>This spell functions as <i><i>dream</i> travel</i>, but you and your companions travel through the Dimension of Dreams in a fantastical vehicle of your own devising that halves the travel time. Only you can pilot the vessel, and you can do so even if you aren't inside it. Your psychic vehicle buffers minds from the intense emotional tides of the Dimension of Dreams, rendering everyone inside immune to harmful emotion and fear effects. Unlike with <i><i>dream</i> travel</i>, there is no chance the vessel arrives off target. In addition, you need not have met the target creature, but in that case you must have at least a reliable description of it. However, if you attempt to travel there with insufficient or incorrect information, you do need to roll, using the false identity entry from <i><i>dream</i> travel</i>.  Creatures that disembark from your vehicle can either enter the <i>dream</i>scape or exit to the plane where the <i>dream</i>er's body lies, arriving within 1 mile of the <i>dream</i>er's body. All creatures that disembark from the vehicle onto a plane at the same time arrive in the same place. The <i>dream</i>er can't prevent the <i><i>dream</i> voyage</i>rs from entering its <i>dream</i>, but can attempt a Will save to prevent a group of creatures from exiting to the plane where its body resides.  The psychic vehicle remains in the <i>dream</i> for the remainder of the spell's duration, even if it's unoccupied. A creature adjacent to the <i>dream</i>er can reenter the <i>dream</i> vessel as a full-round action through an illusory portal only subjects of the spell can see. You can return the vessel to the point where you cast <i><i>dream</i> voyage</i> to allow any number of passengers to return to that plane, and can return it to the <i>dream</i> again. Either of these trips takes the same amount of time as the initial travel, and can be done any number of times within the spell's duration. If the vessel moves out of a <i>dream</i>scape, companions left behind can't return to the vessel by being near the <i>dream</i>er. If a companion is killed, its body doesn't return to the <i><i>dream</i> voyage</i> unless you carry it with you, just like any other object.  If the <i>dream</i>er awakens while the <i>dream</i> vessel is still in its <i>dream</i>, it can allow the <i><i>dream</i> travel</i>ers to exit or not (as with <i><i>dream</i> travel</i>). The <i>dream</i> vessel remains intact in the Dimension of Dreams for the spell's duration even if it's untethered from a  <i>dream</i>. It drifts through <i>dream</i>s when this happens, and you can't pilot it to another <i>dream</i> (even a <i>dream</i> of the initial <i>dream</i>er if that creature begins <i>dream</i>ing again). If you dismiss the spell at any time, you and all subjects within the <i>dream</i> vessel return to where you started on the Material Plane.  You can increase the number of companions you can bring on a <i><i>dream</i> voyage</i> to 10 creatures per caster level, though to do so you must increase the casting time, maintaining your concentration and touching up to 6 creatures per round as a full-round action. If your concentration is disrupted before you touch all of the targets, the spell is wasted and has no effect. Once you have touched all of your companions, the <i><i>dream</i> voyage</i> begins; however, its duration is reduced to 1 hour.</p>\n</div>\n",
      "chat": "",
      "unidentified": ""
    },
    "tags": [],
    "activation": {
      "cost": 1,
      "type": "standard"
    },
    "unchainedAction": {
      "activation": {
        "cost": 2,
        "type": "action"
      }
    },
    "duration": {
      "value": null,
      "units": ""
    },
    "target": {
      "value": "you and one creature/level"
    },
    "range": {
      "value": null,
      "units": "touch",
      "maxIncrements": 1,
      "minValue": null,
      "minUnits": ""
    },
    "uses": {
      "value": 0,
      "max": 0,
      "per": "",
      "autoDeductCharges": true,
      "autoDeductChargesCost": "1"
    },
    "measureTemplate": {
      "type": "",
      "size": "0",
      "overrideColor": false,
      "customColor": "",
      "overrideTexture": false,
      "customTexture": ""
    },
    "attackName": "",
    "actionType": "spellsave",
    "attackBonus": "",
    "critConfirmBonus": "",
    "damage": {
      "parts": [],
      "critParts": [],
      "nonCritParts": []
    },
    "attackParts": [],
    "formula": "",
    "ability": {
      "attack": "",
      "damage": "",
      "damageMult": 1,
      "critRange": 20,
      "critMult": 2
    },
    "save": {
      "dc": "0",
      "type": "will",
      "description": "Will negates"
    },
    "effectNotes": "",
    "attackNotes": "",
    "soundEffect": "",
    "links": {
      "children": []
    },
    "learnedAt": {
      "class": [
        [
          "psychic",
          9
        ]
      ],
      "domain": [],
      "subDomain": [],
      "elementalSchool": [],
      "bloodline": []
    },
    "level": 9,
    "clOffset": 0,
    "slOffset": 0,
    "school": "con",
    "subschool": "teleportation",
    "types": "mind-affecting",
    "nonlethal": false,
    "conditionals": [],
    "components": {
      "value": "",
      "verbal": true,
      "somatic": true,
      "material": false,
      "focus": false,
      "divineFocus": 0
    },
    "castTime": "",
    "materials": {
      "value": "",
      "focus": "",
      "gpValue": 0
    },
    "spellbook": "primary",
    "preparation": {
      "preparedAmount": 0,
      "maxAmount": 0,
      "autoDeductCharges": true,
      "spontaneousPrepared": true,
      "mode": "prepared"
    },
    "atWill": false,
    "sr": true,
    "shortDescription": "<p>This spell functions as <i><i>dream</i> travel</i>, but you and your companions travel through the Dimension of Dreams in a fantastical vehicle of your own devising that halves the travel time. Only you can pilot the vessel, and you can do so even if you aren't inside it. Your psychic vehicle buffers minds from the intense emotional tides of the Dimension of Dreams, rendering everyone inside immune to harmful emotion and fear effects. Unlike with <i><i>dream</i> travel</i>, there is no chance the vessel arrives off target. In addition, you need not have met the target creature, but in that case you must have at least a reliable description of it. However, if you attempt to travel there with insufficient or incorrect information, you do need to roll, using the false identity entry from <i><i>dream</i> travel</i>.  Creatures that disembark from your vehicle can either enter the <i>dream</i>scape or exit to the plane where the <i>dream</i>er's body lies, arriving within 1 mile of the <i>dream</i>er's body. All creatures that disembark from the vehicle onto a plane at the same time arrive in the same place. The <i>dream</i>er can't prevent the <i><i>dream</i> voyage</i>rs from entering its <i>dream</i>, but can attempt a Will save to prevent a group of creatures from exiting to the plane where its body resides.  The psychic vehicle remains in the <i>dream</i> for the remainder of the spell's duration, even if it's unoccupied. A creature adjacent to the <i>dream</i>er can reenter the <i>dream</i> vessel as a full-round action through an illusory portal only subjects of the spell can see. You can return the vessel to the point where you cast <i><i>dream</i> voyage</i> to allow any number of passengers to return to that plane, and can return it to the <i>dream</i> again. Either of these trips takes the same amount of time as the initial travel, and can be done any number of times within the spell's duration. If the vessel moves out of a <i>dream</i>scape, companions left behind can't return to the vessel by being near the <i>dream</i>er. If a companion is killed, its body doesn't return to the <i><i>dream</i> voyage</i> unless you carry it with you, just like any other object.  If the <i>dream</i>er awakens while the <i>dream</i> vessel is still in its <i>dream</i>, it can allow the <i><i>dream</i> travel</i>ers to exit or not (as with <i><i>dream</i> travel</i>). The <i>dream</i> vessel remains intact in the Dimension of Dreams for the spell's duration even if it's untethered from a  <i>dream</i>. It drifts through <i>dream</i>s when this happens, and you can't pilot it to another <i>dream</i> (even a <i>dream</i> of the initial <i>dream</i>er if that creature begins <i>dream</i>ing again). If you dismiss the spell at any time, you and all subjects within the <i>dream</i> vessel return to where you started on the Material Plane.  You can increase the number of companions you can bring on a <i><i>dream</i> voyage</i> to 10 creatures per caster level, though to do so you must increase the casting time, maintaining your concentration and touching up to 6 creatures per round as a full-round action. If your concentration is disrupted before you touch all of the targets, the spell is wasted and has no effect. Once you have touched all of your companions, the <i><i>dream</i> voyage</i> begins; however, its duration is reduced to 1 hour.</p>",
    "spellDuration": "1 hour/level (D)",
    "spellEffect": "",
    "spellArea": "",
    "showInQuickbar": false,
    "spellPoints": {
      "cost": "1 + @sl"
    },
    "domain": false,
    "slotCost": 1
  },
  "flags": {},
  "img": "systems/pf1/icons/misc/magic-swirl.png",
  "effects": []
}