{
  "_id": "8fyg16j34uruuy45",
  "name": "Ectoplasmic Eruption",
  "permission": {
    "default": 0
  },
  "type": "spell",
  "data": {
    "description": {
      "value": "<div class=\"spell-description\">\n  <p>\n    <strong>School</strong>&nbsp;evocation;\n    <strong>Level</strong>&nbsp;psychic 7, spiritualist 6;\n    \n    \n    \n    <strong>Bloodline</strong>&nbsp;Ectoplasm 7;\n  </p>\n  <p>\n    <strong>Casting Time</strong>&nbsp;1 standard action<br>\n    <strong>Components</strong>&nbsp;V, S<br>\n  </p>\n  <p>\n    <strong>Range</strong>&nbsp;medium (100 ft. + 10 ft./level)<br>\n    <strong>Area</strong>&nbsp;30-ft.-radius burst<br>\n    \n    \n    <strong>Duration</strong>&nbsp;1 round/level<br>\n    <strong>Saving Throw</strong>&nbsp;Reflex half and Will partial; see text;&nbsp;<strong>Spell Resistance</strong>&nbsp;yes<br>\n  </p>\n  <h2>Description</h2>\n  <p>A cascading avalanche of pale, swirling ectoplasmic matter erupts from a point you select. All creatures in the area when the spell is cast take 6d6 points of bludgeoning damage and are entangled for a number of rounds equal to your caster level. This spell passes between planes, so it affects ethereal and incorporeal creatures normally.  In addition, each ethereal or incorporeal creature in the area must succeed at a Will save or be pushed partially onto the Material Plane for a number of rounds equal to your caster level. It must attempt this Will save regardless of whether it succeeded at the Reflex save. An incorporeal creature pushed partially onto the Material Plane can't enter or pass through solid objects, takes half damage from nonmagical attack forms, and takes full damage from magic weapons, spells, spell-like effects, and supernatural effects. Corporeal spells and effects that don't cause damage affect the creature normally instead of having a 50% chance of affecting it. The creature still gains the other benefits of being incorporeal, and retains its attack bonuses and Armor Class.</p>\n</div>\n",
      "chat": "",
      "unidentified": ""
    },
    "tags": [],
    "activation": {
      "cost": 1,
      "type": "standard"
    },
    "unchainedAction": {
      "activation": {
        "cost": 2,
        "type": "action"
      }
    },
    "duration": {
      "value": null,
      "units": ""
    },
    "target": {
      "value": ""
    },
    "range": {
      "value": null,
      "units": "medium",
      "maxIncrements": 1,
      "minValue": null,
      "minUnits": ""
    },
    "uses": {
      "value": 0,
      "max": 0,
      "per": "",
      "autoDeductCharges": true,
      "autoDeductChargesCost": "1"
    },
    "measureTemplate": {
      "type": "",
      "size": "0",
      "overrideColor": false,
      "customColor": "",
      "overrideTexture": false,
      "customTexture": ""
    },
    "attackName": "",
    "actionType": "spellsave",
    "attackBonus": "",
    "critConfirmBonus": "",
    "damage": {
      "parts": [],
      "critParts": [],
      "nonCritParts": []
    },
    "attackParts": [],
    "formula": "",
    "ability": {
      "attack": "",
      "damage": "",
      "damageMult": 1,
      "critRange": 20,
      "critMult": 2
    },
    "save": {
      "dc": "0",
      "type": "ref",
      "description": "Reflex half and Will partial; see text"
    },
    "effectNotes": "",
    "attackNotes": "",
    "soundEffect": "",
    "links": {
      "children": []
    },
    "learnedAt": {
      "class": [
        [
          "psychic",
          7
        ],
        [
          "spiritualist",
          6
        ]
      ],
      "domain": [],
      "subDomain": [],
      "elementalSchool": [],
      "bloodline": [
        [
          "Ectoplasm",
          7
        ]
      ]
    },
    "level": 7,
    "clOffset": 0,
    "slOffset": 0,
    "school": "evo",
    "subschool": "",
    "types": "",
    "nonlethal": false,
    "conditionals": [],
    "components": {
      "value": "",
      "verbal": true,
      "somatic": true,
      "material": false,
      "focus": false,
      "divineFocus": 0
    },
    "castTime": "",
    "materials": {
      "value": "",
      "focus": "",
      "gpValue": 0
    },
    "spellbook": "primary",
    "preparation": {
      "preparedAmount": 0,
      "maxAmount": 0,
      "autoDeductCharges": true,
      "spontaneousPrepared": true,
      "mode": "prepared"
    },
    "atWill": false,
    "sr": true,
    "shortDescription": "<p>A cascading avalanche of pale, swirling ectoplasmic matter erupts from a point you select. All creatures in the area when the spell is cast take 6d6 points of bludgeoning damage and are entangled for a number of rounds equal to your caster level. This spell passes between planes, so it affects ethereal and incorporeal creatures normally.  In addition, each ethereal or incorporeal creature in the area must succeed at a Will save or be pushed partially onto the Material Plane for a number of rounds equal to your caster level. It must attempt this Will save regardless of whether it succeeded at the Reflex save. An incorporeal creature pushed partially onto the Material Plane can't enter or pass through solid objects, takes half damage from nonmagical attack forms, and takes full damage from magic weapons, spells, spell-like effects, and supernatural effects. Corporeal spells and effects that don't cause damage affect the creature normally instead of having a 50% chance of affecting it. The creature still gains the other benefits of being incorporeal, and retains its attack bonuses and Armor Class.</p>",
    "spellDuration": "1 round/level",
    "spellEffect": "",
    "spellArea": "30-ft.-radius burst",
    "showInQuickbar": false,
    "spellPoints": {
      "cost": "1 + @sl"
    },
    "domain": false,
    "slotCost": 1
  },
  "flags": {},
  "img": "systems/pf1/icons/misc/magic-swirl.png",
  "effects": []
}