{
  "_id": "uv3bvuerhe0furhu",
  "name": "Hollow Heroism",
  "permission": {
    "default": 0
  },
  "type": "spell",
  "data": {
    "description": {
      "value": "<div class=\"spell-description\">\n  <p>\n    <strong>School</strong>&nbsp;enchantment&nbsp;(compulsion)&nbsp;[mind-affecting, ruse];\n    <strong>Level</strong>&nbsp;bard 3, bloodrager 4, inquisitor 4, medium 3, psychic 4, sorcerer/wizard 4, spiritualist 4, summoner 4, unchained Summoner 4, witch 4;\n    \n    \n    \n    \n  </p>\n  <p>\n    <strong>Casting Time</strong>&nbsp;1 standard action<br>\n    <strong>Components</strong>&nbsp;V, S<br>\n  </p>\n  <p>\n    <strong>Range</strong>&nbsp;touch<br>\n    \n    <strong>Targets</strong>&nbsp;creature touched<br>\n    \n    <strong>Duration</strong>&nbsp;10 minutes/level (D)<br>\n      <strong>Saving Throw</strong>&nbsp;Will negates (harmless);&nbsp;\n      <strong>Spell Resistance</strong>&nbsp;yes<br>\n  </p>\n  <h2>Description</h2>\n  <p>This spell functions as @Compendium[pf1.spells.vqfrp8t0c1lw1jna]{Heroism}, except that you can reverse the spell by issuing a special command as a standard action if you are within medium range (100 feet + 10 feet per caster level) of the target. The target loses the bonuses and instead takes a -2 penalty on attack rolls, saving throws, and skill checks until the spell's duration ends (no save). Attempts to identify hollow <em>heroism</em> with a skill check incorrectly identify it as <em>heroism</em> (see the ruse descriptor on page 192).</p>\n</div>\n",
      "chat": "",
      "unidentified": ""
    },
    "tags": [],
    "activation": {
      "cost": 1,
      "type": "standard"
    },
    "unchainedAction": {
      "activation": {
        "cost": 2,
        "type": "action"
      }
    },
    "duration": {
      "value": null,
      "units": ""
    },
    "target": {
      "value": "creature touched"
    },
    "range": {
      "value": null,
      "units": "touch",
      "maxIncrements": 1,
      "minValue": null,
      "minUnits": ""
    },
    "uses": {
      "value": 0,
      "max": 0,
      "per": "",
      "autoDeductCharges": true,
      "autoDeductChargesCost": "1"
    },
    "measureTemplate": {
      "type": "",
      "size": "0",
      "overrideColor": false,
      "customColor": "",
      "overrideTexture": false,
      "customTexture": ""
    },
    "attackName": "",
    "actionType": "spellsave",
    "attackBonus": "",
    "critConfirmBonus": "",
    "damage": {
      "parts": [],
      "critParts": [],
      "nonCritParts": []
    },
    "attackParts": [],
    "formula": "",
    "ability": {
      "attack": "",
      "damage": "",
      "damageMult": 1,
      "critRange": 20,
      "critMult": 2
    },
    "save": {
      "dc": "0",
      "type": "will",
      "description": "Will negates (harmless)"
    },
    "effectNotes": "",
    "attackNotes": "",
    "soundEffect": "",
    "links": {
      "children": []
    },
    "learnedAt": {
      "class": [
        [
          "sorcerer/wizard",
          4
        ],
        [
          "bard",
          3
        ],
        [
          "summoner",
          4
        ],
        [
          "witch",
          4
        ],
        [
          "inquisitor",
          4
        ],
        [
          "bloodrager",
          4
        ],
        [
          "psychic",
          4
        ],
        [
          "medium",
          3
        ],
        [
          "spiritualist",
          4
        ],
        [
          "unchained Summoner",
          4
        ]
      ],
      "domain": [],
      "subDomain": [],
      "elementalSchool": [],
      "bloodline": []
    },
    "level": 4,
    "clOffset": 0,
    "slOffset": 0,
    "school": "enc",
    "subschool": "compulsion",
    "types": "mind-affecting, ruse",
    "nonlethal": false,
    "conditionals": [],
    "components": {
      "value": "",
      "verbal": true,
      "somatic": true,
      "material": false,
      "focus": false,
      "divineFocus": 0
    },
    "castTime": "",
    "materials": {
      "value": "",
      "focus": "",
      "gpValue": 0
    },
    "spellbook": "",
    "preparation": {
      "preparedAmount": 0,
      "maxAmount": 0,
      "autoDeductCharges": true,
      "spontaneousPrepared": true,
      "mode": "prepared"
    },
    "atWill": false,
    "sr": true,
    "shortDescription": "<p>This spell functions as @Compendium[pf1.spells.vqfrp8t0c1lw1jna]{Heroism}, except that you can reverse the spell by issuing a special command as a standard action if you are within medium range (100 feet + 10 feet per caster level) of the target. The target loses the bonuses and instead takes a -2 penalty on attack rolls, saving throws, and skill checks until the spell's duration ends (no save). Attempts to identify hollow <em>heroism</em> with a skill check incorrectly identify it as <em>heroism</em> (see the ruse descriptor on page 192).</p>",
    "spellDuration": "10 minutes/level (D)",
    "spellEffect": "",
    "spellArea": "",
    "showInQuickbar": false,
    "spellPoints": {
      "cost": "1 + @sl"
    },
    "domain": false,
    "slotCost": 1,
    "identifiedName": "Hollow Heroism"
  },
  "flags": {},
  "img": "systems/pf1/icons/misc/magic-swirl.png",
  "effects": []
}