{
  "_id": "mkrjbrp57yfdqrx0",
  "name": "Iron Body",
  "permission": {
    "default": 0
  },
  "type": "spell",
  "data": {
    "description": {
      "value": "<div class=\"spell-description\">\n  <p>\n    <strong>School</strong>&nbsp;transmutation;\n    <strong>Level</strong>&nbsp;psychic 8, sorcerer/wizard 8;\n    \n    <strong>Subdomain</strong>&nbsp;Metal 8;\n    \n    <strong>Bloodline</strong>&nbsp;Nanite 8, Orc 8, Shaitan 8;\n  </p>\n  <p>\n    <strong>Casting Time</strong>&nbsp;1 standard action<br>\n    <strong>Components</strong>&nbsp;V, S, M/DF (a piece of iron from an iron golem, a hero&#x27;s armor, or a war machine)<br>\n  </p>\n  <p>\n    <strong>Range</strong>&nbsp;personal<br>\n    \n    <strong>Targets</strong>&nbsp;you<br>\n    \n    <strong>Duration</strong>&nbsp;1 min./level<br>\n    \n  </p>\n  <h2>Description</h2>\n  <p>This spell transforms your body into living iron, which grants you several powerful resistances and abilities. You gain damage reduction 15/adamantine. You are immune to blindness, critical hits, ability score damage, deafness, disease, drowning, electricity, poison, stunning, and all spells or attacks that affect your physiology or respiration, because you have no physiology or respiration while this spell is in effect. You take only half damage from acid and fire.</p><p>However, you also become vulnerable to all special attacks that affect iron golems (see the <i>Pathfinder RPG Bestiary</i>).</p><p>You gain a +6 enhancement bonus to your Strength score, but you take a -6 penalty to Dexterity as well (to a minimum Dexterity score of 1), and your speed is reduced to half normal. You have an arcane spell failure chance of 35% and a -6 armor check penalty, just as if you were clad in full plate armor. You cannot drink (and thus can't use potions) or play wind instruments.</p><p>Your unarmed attack deals damage equal to a club sized for you (1d4 for Small characters or 1d6 for Medium characters), and you are considered armed when making unarmed attacks.</p><p>Your weight increases by a factor of 10, causing you to sink in water like a stone. However, you could survive the lack of air at the bottom of the ocean-at least until the spell duration expires.</p>\n</div>\n",
      "chat": "",
      "unidentified": ""
    },
    "tags": [],
    "activation": {
      "cost": 1,
      "type": "standard"
    },
    "unchainedAction": {
      "activation": {
        "cost": 2,
        "type": "action"
      }
    },
    "duration": {
      "value": null,
      "units": ""
    },
    "target": {
      "value": "you"
    },
    "range": {
      "value": null,
      "units": "personal",
      "maxIncrements": 1,
      "minValue": null,
      "minUnits": ""
    },
    "uses": {
      "value": 0,
      "max": 0,
      "per": "",
      "autoDeductCharges": true,
      "autoDeductChargesCost": "1"
    },
    "measureTemplate": {
      "type": "",
      "size": "0",
      "overrideColor": false,
      "customColor": "",
      "overrideTexture": false,
      "customTexture": ""
    },
    "attackName": "",
    "actionType": "",
    "attackBonus": "",
    "critConfirmBonus": "",
    "damage": {
      "parts": [],
      "critParts": [],
      "nonCritParts": []
    },
    "attackParts": [],
    "formula": "",
    "ability": {
      "attack": "",
      "damage": "",
      "damageMult": 1,
      "critRange": 20,
      "critMult": 2
    },
    "save": {
      "dc": "0",
      "type": "",
      "description": ""
    },
    "effectNotes": "",
    "attackNotes": "",
    "soundEffect": "",
    "links": {
      "children": []
    },
    "learnedAt": {
      "class": [
        [
          "sorcerer/wizard",
          8
        ],
        [
          "psychic",
          8
        ]
      ],
      "domain": [],
      "subDomain": [
        [
          "Metal",
          8
        ]
      ],
      "elementalSchool": [],
      "bloodline": [
        [
          "Orc",
          8
        ],
        [
          "Shaitan",
          8
        ],
        [
          "Nanite",
          8
        ]
      ]
    },
    "level": 8,
    "clOffset": 0,
    "slOffset": 0,
    "school": "trs",
    "subschool": "",
    "types": "",
    "nonlethal": false,
    "conditionals": [],
    "components": {
      "value": "",
      "verbal": true,
      "somatic": true,
      "material": true,
      "focus": false,
      "divineFocus": 2
    },
    "castTime": "",
    "materials": {
      "value": "a piece of iron from an iron golem, a hero's armor, or a war machine",
      "focus": "",
      "gpValue": 0
    },
    "spellbook": "primary",
    "preparation": {
      "preparedAmount": 0,
      "maxAmount": 0,
      "autoDeductCharges": true,
      "spontaneousPrepared": true,
      "mode": "prepared"
    },
    "atWill": false,
    "sr": false,
    "shortDescription": "<p>This spell transforms your body into living iron, which grants you several powerful resistances and abilities. You gain damage reduction 15/adamantine. You are immune to blindness, critical hits, ability score damage, deafness, disease, drowning, electricity, poison, stunning, and all spells or attacks that affect your physiology or respiration, because you have no physiology or respiration while this spell is in effect. You take only half damage from acid and fire.</p><p>However, you also become vulnerable to all special attacks that affect iron golems (see the <i>Pathfinder RPG Bestiary</i>).</p><p>You gain a +6 enhancement bonus to your Strength score, but you take a -6 penalty to Dexterity as well (to a minimum Dexterity score of 1), and your speed is reduced to half normal. You have an arcane spell failure chance of 35% and a -6 armor check penalty, just as if you were clad in full plate armor. You cannot drink (and thus can't use potions) or play wind instruments.</p><p>Your unarmed attack deals damage equal to a club sized for you (1d4 for Small characters or 1d6 for Medium characters), and you are considered armed when making unarmed attacks.</p><p>Your weight increases by a factor of 10, causing you to sink in water like a stone. However, you could survive the lack of air at the bottom of the ocean-at least until the spell duration expires.</p>",
    "spellDuration": "1 min./level",
    "spellEffect": "",
    "spellArea": "",
    "showInQuickbar": false,
    "spellPoints": {
      "cost": "1 + @sl"
    },
    "domain": false,
    "slotCost": 1
  },
  "flags": {},
  "img": "systems/pf1/icons/misc/magic-swirl.png",
  "effects": []
}