{
  "_id": "cppzcx64lvsjnllj",
  "name": "Mantle of Doubt",
  "permission": {
    "default": 0
  },
  "type": "spell",
  "data": {
    "description": {
      "value": "<div class=\"spell-description\">\n  <p>\n    <strong>School</strong>&nbsp;illusion&nbsp;(phantasm)&nbsp;[emotion, fear, mind-affecting];\n    <strong>Level</strong>&nbsp;mesmerist 6, psychic 8;\n    \n    \n    \n    \n  </p>\n  <p>\n    <strong>Casting Time</strong>&nbsp;1 standard action<br>\n    <strong>Components</strong>&nbsp;V, S<br>\n  </p>\n  <p>\n    <strong>Range</strong>&nbsp;personal<br>\n    \n    <strong>Targets</strong>&nbsp;you<br>\n    \n    <strong>Duration</strong>&nbsp;1 round/level (D)<br>\n    \n  </p>\n  <h2>Description</h2>\n  <p>You wrap your mind in phantasms of crippling doubt that assail any who dare harm you. When a creature within the mantle's radius attacks you or attempts to affect you with a harmful effect, it must succeed at a Will save as these spectres of uncertainty force themselves into its mind. Ongoing effects trigger the mantle only if the creature consciously directs them against you. A given creature need only roll a saving throw against your <i>Mantle of Doubt</i> at most once per round. If the creature's attack or effect against you was a psychic spell or spell-like ability, that creature's save takes a -4 penalty. A creatures that fails its save against your <i>Mantle of Doubt</i> is affected for 1d4+1 rounds, during which time it is shaken, cannot flank, and no longer threatens creatures within its reach. In addition, it takes a -2 penalty on saves against mind-affecting effects, which stacks with the penalties for being shaken. If your <i>Mantle of Doubt</i> affects a creature that is already shaken, that creature's fear level doesn't increase. Instead, mounting doubts stagger the creature for 1 round and deal 1d4 points of Wisdom and Charisma damage to it.  Spell resistance applies against assaults from a <i>Mantle of Doubt</i>, and immunity to fear or mind-affecting effects negates the spell's effects. If you are immune to fear or mind-affecting effects, you can still cast <i>Mantle of Doubt</i> on yourself.</p>\n</div>\n",
      "chat": "",
      "unidentified": ""
    },
    "tags": [],
    "activation": {
      "cost": 1,
      "type": "standard"
    },
    "unchainedAction": {
      "activation": {
        "cost": 2,
        "type": "action"
      }
    },
    "duration": {
      "value": null,
      "units": ""
    },
    "target": {
      "value": "you"
    },
    "range": {
      "value": null,
      "units": "personal",
      "maxIncrements": 1,
      "minValue": null,
      "minUnits": ""
    },
    "uses": {
      "value": 0,
      "max": 0,
      "per": "",
      "autoDeductCharges": true,
      "autoDeductChargesCost": "1"
    },
    "measureTemplate": {
      "type": "",
      "size": "0",
      "overrideColor": false,
      "customColor": "",
      "overrideTexture": false,
      "customTexture": ""
    },
    "attackName": "",
    "actionType": "",
    "attackBonus": "",
    "critConfirmBonus": "",
    "damage": {
      "parts": [],
      "critParts": [],
      "nonCritParts": []
    },
    "attackParts": [],
    "formula": "",
    "ability": {
      "attack": "",
      "damage": "",
      "damageMult": 1,
      "critRange": 20,
      "critMult": 2
    },
    "save": {
      "dc": "0",
      "type": "",
      "description": ""
    },
    "effectNotes": "",
    "attackNotes": "",
    "soundEffect": "",
    "links": {
      "children": []
    },
    "learnedAt": {
      "class": [
        [
          "psychic",
          8
        ],
        [
          "mesmerist",
          6
        ]
      ],
      "domain": [],
      "subDomain": [],
      "elementalSchool": [],
      "bloodline": []
    },
    "level": 8,
    "clOffset": 0,
    "slOffset": 0,
    "school": "ill",
    "subschool": "phantasm",
    "types": "emotion, fear, mind-affecting",
    "nonlethal": false,
    "conditionals": [],
    "components": {
      "value": "",
      "verbal": true,
      "somatic": true,
      "material": false,
      "focus": false,
      "divineFocus": 0
    },
    "castTime": "",
    "materials": {
      "value": "",
      "focus": "",
      "gpValue": 0
    },
    "spellbook": "primary",
    "preparation": {
      "preparedAmount": 0,
      "maxAmount": 0,
      "autoDeductCharges": true,
      "spontaneousPrepared": true,
      "mode": "prepared"
    },
    "atWill": false,
    "sr": false,
    "shortDescription": "<p>You wrap your mind in phantasms of crippling doubt that assail any who dare harm you. When a creature within the mantle's radius attacks you or attempts to affect you with a harmful effect, it must succeed at a Will save as these spectres of uncertainty force themselves into its mind. Ongoing effects trigger the mantle only if the creature consciously directs them against you. A given creature need only roll a saving throw against your <i>Mantle of Doubt</i> at most once per round. If the creature's attack or effect against you was a psychic spell or spell-like ability, that creature's save takes a -4 penalty. A creatures that fails its save against your <i>Mantle of Doubt</i> is affected for 1d4+1 rounds, during which time it is shaken, cannot flank, and no longer threatens creatures within its reach. In addition, it takes a -2 penalty on saves against mind-affecting effects, which stacks with the penalties for being shaken. If your <i>Mantle of Doubt</i> affects a creature that is already shaken, that creature's fear level doesn't increase. Instead, mounting doubts stagger the creature for 1 round and deal 1d4 points of Wisdom and Charisma damage to it.  Spell resistance applies against assaults from a <i>Mantle of Doubt</i>, and immunity to fear or mind-affecting effects negates the spell's effects. If you are immune to fear or mind-affecting effects, you can still cast <i>Mantle of Doubt</i> on yourself.</p>",
    "spellDuration": "1 round/level (D)",
    "spellEffect": "",
    "spellArea": "",
    "showInQuickbar": false,
    "spellPoints": {
      "cost": "1 + @sl"
    },
    "domain": false,
    "slotCost": 1
  },
  "flags": {},
  "img": "systems/pf1/icons/misc/magic-swirl.png",
  "effects": []
}