{
  "_id": "y4d021ta06s5tr72",
  "name": "Massacre",
  "permission": {
    "default": 0
  },
  "type": "spell",
  "data": {
    "description": {
      "value": "<div class=\"spell-description\">\n  <p>\n    <strong>School</strong>&nbsp;necromancy&nbsp;[death];\n    <strong>Level</strong>&nbsp;cleric/oracle 9, psychic 9, shaman 9, sorcerer/wizard 9, witch 9;\n    \n    \n    \n    \n  </p>\n  <p>\n    <strong>Casting Time</strong>&nbsp;1 standard action<br>\n    <strong>Components</strong>&nbsp;V, S, M (a flask of ectoplasmic residue)<br>\n  </p>\n  <p>\n    \n    <strong>Area</strong>&nbsp;60-ft. line<br>\n    \n    \n    <strong>Duration</strong>&nbsp;instantaneous<br>\n    <strong>Saving Throw</strong>&nbsp;Fortitude negates;&nbsp;<strong>Spell Resistance</strong>&nbsp;yes<br>\n  </p>\n  <h2>Description</h2>\n  <p>You unleash a wave of necromantic energy that snuffs out the life force of those in its path. This wave pulses out from you in a line 5 feet wide and 30 feet long. The wave visibly rips the souls from the bodies of those it passes through, which manifest as screaming, transparent versions of the affected creatures. The wave kills every living creature of 17 or fewer HD in the line, starting with the creature closest to you, to a maximum of 1d4 HD of creatures  per caster level. No creature of 18 or more HD can be affected. If a creature succeeds at its saving throw or has too many HD, it doesn't count against the HD the spell can kill The wave continues to affect creatures as it rolls away from you until you either run out of HD to affect or reach the limit of the spell's area. If the spell does not kill any creatures, the unreleased necromantic energy violently explodes in the final square of the 60-foot line, dealing 10d6 points of damage + 1 point per caster level to any creature in that square with no saving throw. If several creatures occupy the same square, roll randomly to determine which is affected.</p>\n</div>\n",
      "chat": "",
      "unidentified": ""
    },
    "tags": [],
    "activation": {
      "cost": 1,
      "type": "standard"
    },
    "unchainedAction": {
      "activation": {
        "cost": 2,
        "type": "action"
      }
    },
    "duration": {
      "value": null,
      "units": ""
    },
    "target": {
      "value": ""
    },
    "range": {
      "value": null,
      "units": "",
      "maxIncrements": 1,
      "minValue": null,
      "minUnits": ""
    },
    "uses": {
      "value": 0,
      "max": 0,
      "per": "",
      "autoDeductCharges": true,
      "autoDeductChargesCost": "1"
    },
    "measureTemplate": {
      "type": "",
      "size": "0",
      "overrideColor": false,
      "customColor": "",
      "overrideTexture": false,
      "customTexture": ""
    },
    "attackName": "",
    "actionType": "spellsave",
    "attackBonus": "",
    "critConfirmBonus": "",
    "damage": {
      "parts": [],
      "critParts": [],
      "nonCritParts": []
    },
    "attackParts": [],
    "formula": "",
    "ability": {
      "attack": "",
      "damage": "",
      "damageMult": 1,
      "critRange": 20,
      "critMult": 2
    },
    "save": {
      "dc": "0",
      "type": "fort",
      "description": "Fortitude negates"
    },
    "effectNotes": "",
    "attackNotes": "",
    "soundEffect": "",
    "links": {
      "children": []
    },
    "learnedAt": {
      "class": [
        [
          "sorcerer/wizard",
          9
        ],
        [
          "cleric/oracle",
          9
        ],
        [
          "witch",
          9
        ],
        [
          "shaman",
          9
        ],
        [
          "psychic",
          9
        ]
      ],
      "domain": [],
      "subDomain": [],
      "elementalSchool": [],
      "bloodline": []
    },
    "level": 9,
    "clOffset": 0,
    "slOffset": 0,
    "school": "nec",
    "subschool": "",
    "types": "death",
    "nonlethal": false,
    "conditionals": [],
    "components": {
      "value": "",
      "verbal": true,
      "somatic": true,
      "material": true,
      "focus": false,
      "divineFocus": 0
    },
    "castTime": "",
    "materials": {
      "value": "a flask of ectoplasmic residue",
      "focus": "",
      "gpValue": 0
    },
    "spellbook": "primary",
    "preparation": {
      "preparedAmount": 0,
      "maxAmount": 0,
      "autoDeductCharges": true,
      "spontaneousPrepared": true,
      "mode": "prepared"
    },
    "atWill": false,
    "sr": true,
    "shortDescription": "<p>You unleash a wave of necromantic energy that snuffs out the life force of those in its path. This wave pulses out from you in a line 5 feet wide and 30 feet long. The wave visibly rips the souls from the bodies of those it passes through, which manifest as screaming, transparent versions of the affected creatures. The wave kills every living creature of 17 or fewer HD in the line, starting with the creature closest to you, to a maximum of 1d4 HD of creatures  per caster level. No creature of 18 or more HD can be affected. If a creature succeeds at its saving throw or has too many HD, it doesn't count against the HD the spell can kill The wave continues to affect creatures as it rolls away from you until you either run out of HD to affect or reach the limit of the spell's area. If the spell does not kill any creatures, the unreleased necromantic energy violently explodes in the final square of the 60-foot line, dealing 10d6 points of damage + 1 point per caster level to any creature in that square with no saving throw. If several creatures occupy the same square, roll randomly to determine which is affected.</p>",
    "spellDuration": "instantaneous",
    "spellEffect": "",
    "spellArea": "60-ft. line",
    "showInQuickbar": false,
    "spellPoints": {
      "cost": "1 + @sl"
    },
    "domain": false,
    "slotCost": 1
  },
  "flags": {},
  "img": "systems/pf1/icons/misc/magic-swirl.png",
  "effects": []
}