{
  "_id": "003tu19dpyoaj0se",
  "name": "Orb of the Void",
  "permission": {
    "default": 0
  },
  "type": "spell",
  "data": {
    "description": {
      "value": "<div class=\"spell-description\">\n  <p>\n    <strong>School</strong>&nbsp;necromancy;\n    <strong>Level</strong>&nbsp;cleric/oracle 8, psychic 8, sorcerer/wizard 8;\n    \n    \n    \n    \n  </p>\n  <p>\n    <strong>Casting Time</strong>&nbsp;1 standard action<br>\n    <strong>Components</strong>&nbsp;V, S, M (a black gemstone of any kind worth 50 gp)<br>\n  </p>\n  <p>\n    <strong>Range</strong>&nbsp;close (25 ft. + 5 ft./2 levels)<br>\n    \n    \n    <strong>Effect</strong>&nbsp;1-ft.-diameter sphere<br>\n    <strong>Duration</strong>&nbsp;1 round/level (D)<br>\n      <strong>Saving Throw</strong>&nbsp;Fortitude negates;&nbsp;\n      <strong>Spell Resistance</strong>&nbsp;yes<br>\n  </p>\n  <h2>Description</h2>\n  <p>You create a small weightless sphere of pure negative energy. As a move action, you can move it up to 30 feet per round in any direction. If it enters a space with a living creature, it stops moving for the round and that creature gains one negative level (Fortitude negates). Any creature passing through or ending its turn in the space occupied by the sphere gains one negative level (Fortitude negates). Twenty-four hours after gaining a negative level from the sphere, the subject must make a Fortitude saving throw (the DC of this save is equal to the DC of this spell) for each negative level. If the save succeeds, that negative level is removed. If it fails, that negative level becomes permanent.  If more than one orb (from different castings of the spell) enters the same space, the orbs automatically fuse together. The resulting orb uses the higher of the two orbs' DCs as its DC and whichever duration has more time left. If the orbs are from different casters, each must make an opposed Intelligence check to move the sphere.  An undead creature that passes through or ends its turn in the space occupied by the orb gains 2d4 x 5 temporary hit points for 1 hour.</p>\n</div>\n",
      "chat": "",
      "unidentified": ""
    },
    "tags": [],
    "activation": {
      "cost": 1,
      "type": "standard"
    },
    "unchainedAction": {
      "activation": {
        "cost": 2,
        "type": "action"
      }
    },
    "duration": {
      "value": null,
      "units": ""
    },
    "target": {
      "value": ""
    },
    "range": {
      "value": null,
      "units": "close",
      "maxIncrements": 1,
      "minValue": null,
      "minUnits": ""
    },
    "uses": {
      "value": 0,
      "max": 0,
      "per": "",
      "autoDeductCharges": true,
      "autoDeductChargesCost": "1"
    },
    "measureTemplate": {
      "type": "",
      "size": "0",
      "overrideColor": false,
      "customColor": "",
      "overrideTexture": false,
      "customTexture": ""
    },
    "attackName": "",
    "actionType": "spellsave",
    "attackBonus": "",
    "critConfirmBonus": "",
    "damage": {
      "parts": [],
      "critParts": [],
      "nonCritParts": []
    },
    "attackParts": [],
    "formula": "",
    "ability": {
      "attack": "",
      "damage": "",
      "damageMult": 1,
      "critRange": 20,
      "critMult": 2
    },
    "save": {
      "dc": "0",
      "type": "fort",
      "description": "Fortitude negates"
    },
    "effectNotes": "",
    "attackNotes": "",
    "soundEffect": "",
    "links": {
      "children": []
    },
    "learnedAt": {
      "class": [
        [
          "sorcerer/wizard",
          8
        ],
        [
          "cleric/oracle",
          8
        ],
        [
          "psychic",
          8
        ]
      ],
      "domain": [],
      "subDomain": [],
      "elementalSchool": [],
      "bloodline": []
    },
    "level": 8,
    "clOffset": 0,
    "slOffset": 0,
    "school": "nec",
    "subschool": "",
    "types": "",
    "nonlethal": false,
    "conditionals": [],
    "components": {
      "value": "",
      "verbal": true,
      "somatic": true,
      "material": true,
      "focus": false,
      "divineFocus": 0
    },
    "castTime": "",
    "materials": {
      "value": "a black gemstone of any kind worth 50 gp",
      "focus": "",
      "gpValue": 50
    },
    "spellbook": "",
    "preparation": {
      "preparedAmount": 0,
      "maxAmount": 0,
      "autoDeductCharges": false,
      "spontaneousPrepared": false,
      "mode": "prepared"
    },
    "atWill": false,
    "sr": true,
    "shortDescription": "<p>You create a small weightless sphere of pure negative energy. As a move action, you can move it up to 30 feet per round in any direction. If it enters a space with a living creature, it stops moving for the round and that creature gains one negative level (Fortitude negates). Any creature passing through or ending its turn in the space occupied by the sphere gains one negative level (Fortitude negates). Twenty-four hours after gaining a negative level from the sphere, the subject must make a Fortitude saving throw (the DC of this save is equal to the DC of this spell) for each negative level. If the save succeeds, that negative level is removed. If it fails, that negative level becomes permanent.  If more than one orb (from different castings of the spell) enters the same space, the orbs automatically fuse together. The resulting orb uses the higher of the two orbs' DCs as its DC and whichever duration has more time left. If the orbs are from different casters, each must make an opposed Intelligence check to move the sphere.  An undead creature that passes through or ends its turn in the space occupied by the orb gains 2d4 x 5 temporary hit points for 1 hour.</p>",
    "spellDuration": "1 round/level (D)",
    "spellEffect": "1-ft.-diameter sphere",
    "spellArea": "",
    "showInQuickbar": false,
    "spellPoints": {
      "cost": ""
    },
    "domain": false,
    "slotCost": 1
  },
  "flags": {},
  "img": "systems/pf1/icons/misc/magic-swirl.png",
  "effects": []
}