{
  "_id": "xvvbh893jdcjz7x3",
  "name": "Phantasmal Reminder",
  "permission": {
    "default": 0
  },
  "type": "spell",
  "data": {
    "description": {
      "value": "<div class=\"spell-description\">\n  <p>\n    <strong>School</strong>&nbsp;illusion&nbsp;(phantasm)&nbsp;[mind-affecting];\n    <strong>Level</strong>&nbsp;antipaladin 3, bard 4, mesmerist 3, psychic 3, shaman 4, sorcerer/wizard 3, witch 3;\n    \n    \n    \n    \n  </p>\n  <p>\n    <strong>Casting Time</strong>&nbsp;1 standard action<br>\n    <strong>Components</strong>&nbsp;V, S<br>\n  </p>\n  <p>\n    <strong>Range</strong>&nbsp;medium (100 ft. + 10 ft./level)<br>\n    \n    <strong>Targets</strong>&nbsp;one living creature<br>\n    \n    <strong>Duration</strong>&nbsp;1 round (see text)<br>\n    <strong>Saving Throw</strong>&nbsp;Will disbelief, then Fortitude partial; see text;&nbsp;<strong>Spell Resistance</strong>&nbsp;yes<br>\n  </p>\n  <h2>Description</h2>\n  <p>You create a memory loop of a successful attack made against the target, forcing its conscious mind to recall the details of the attack in such excruciating detail that its physical body is racked by the recollection. This spell can affect only a creature that has taken damage since the end of your last turn. The target first can attempt a Will save to recognize the attack as unreal. If it fails that saving throw, the target must succeed at a Fortitude save or take an amount of damage equal to 1d6 x your caster level (maximum 10d6). Because the damage is a quasi-real memory of existing wounds, this damage can't be reduced or prevented (such as by the <i>shield other</i> spell).  If the target of a <i>phantasmal reminder</i> attack succeeds at the Will save to disbelieve the memory loop and either has natural telepathy or is wearing a <i>helm of telepathy</i>, the memory of damage automatically rebounds to affect you. You must immediately attempt a Will save to disbelieve; if you fail, you take half the spell's damage yourself.</p>\n</div>\n",
      "chat": "",
      "unidentified": ""
    },
    "tags": [],
    "activation": {
      "cost": 1,
      "type": "standard"
    },
    "unchainedAction": {
      "activation": {
        "cost": 2,
        "type": "action"
      }
    },
    "duration": {
      "value": null,
      "units": ""
    },
    "target": {
      "value": "one living creature"
    },
    "range": {
      "value": null,
      "units": "medium",
      "maxIncrements": 1,
      "minValue": null,
      "minUnits": ""
    },
    "uses": {
      "value": 0,
      "max": 0,
      "per": "",
      "autoDeductCharges": true,
      "autoDeductChargesCost": "1"
    },
    "measureTemplate": {
      "type": "",
      "size": "0",
      "overrideColor": false,
      "customColor": "",
      "overrideTexture": false,
      "customTexture": ""
    },
    "attackName": "",
    "actionType": "spellsave",
    "attackBonus": "",
    "critConfirmBonus": "",
    "damage": {
      "parts": [],
      "critParts": [],
      "nonCritParts": []
    },
    "attackParts": [],
    "formula": "",
    "ability": {
      "attack": "",
      "damage": "",
      "damageMult": 1,
      "critRange": 20,
      "critMult": 2
    },
    "save": {
      "dc": "0",
      "type": "fort",
      "description": "Will disbelief, then Fortitude partial; see text"
    },
    "effectNotes": "",
    "attackNotes": "",
    "soundEffect": "",
    "links": {
      "children": []
    },
    "learnedAt": {
      "class": [
        [
          "sorcerer/wizard",
          3
        ],
        [
          "bard",
          4
        ],
        [
          "witch",
          3
        ],
        [
          "antipaladin",
          3
        ],
        [
          "shaman",
          4
        ],
        [
          "psychic",
          3
        ],
        [
          "mesmerist",
          3
        ]
      ],
      "domain": [],
      "subDomain": [],
      "elementalSchool": [],
      "bloodline": []
    },
    "level": 3,
    "clOffset": 0,
    "slOffset": 0,
    "school": "ill",
    "subschool": "phantasm",
    "types": "mind-affecting",
    "nonlethal": false,
    "conditionals": [],
    "components": {
      "value": "",
      "verbal": true,
      "somatic": true,
      "material": false,
      "focus": false,
      "divineFocus": 0
    },
    "castTime": "",
    "materials": {
      "value": "",
      "focus": "",
      "gpValue": 0
    },
    "spellbook": "primary",
    "preparation": {
      "preparedAmount": 0,
      "maxAmount": 0,
      "autoDeductCharges": true,
      "spontaneousPrepared": true,
      "mode": "prepared"
    },
    "atWill": false,
    "sr": true,
    "shortDescription": "<p>You create a memory loop of a successful attack made against the target, forcing its conscious mind to recall the details of the attack in such excruciating detail that its physical body is racked by the recollection. This spell can affect only a creature that has taken damage since the end of your last turn. The target first can attempt a Will save to recognize the attack as unreal. If it fails that saving throw, the target must succeed at a Fortitude save or take an amount of damage equal to 1d6 x your caster level (maximum 10d6). Because the damage is a quasi-real memory of existing wounds, this damage can't be reduced or prevented (such as by the <i>shield other</i> spell).  If the target of a <i>phantasmal reminder</i> attack succeeds at the Will save to disbelieve the memory loop and either has natural telepathy or is wearing a <i>helm of telepathy</i>, the memory of damage automatically rebounds to affect you. You must immediately attempt a Will save to disbelieve; if you fail, you take half the spell's damage yourself.</p>",
    "spellDuration": "1 round (see text)",
    "spellEffect": "",
    "spellArea": "",
    "showInQuickbar": false,
    "spellPoints": {
      "cost": "1 + @sl"
    },
    "domain": false,
    "slotCost": 1
  },
  "flags": {},
  "img": "systems/pf1/icons/misc/magic-swirl.png",
  "effects": []
}