{
  "_id": "vzul2c8j6hps0134",
  "name": "Plundered Power",
  "permission": {
    "default": 0
  },
  "type": "spell",
  "data": {
    "description": {
      "value": "<div class=\"spell-description\">\n  <p>\n    <strong>School</strong>&nbsp;necromancy&nbsp;[evil];\n    <strong>Level</strong>&nbsp;cleric/oracle 7, druid 7, occultist 6, shaman 7, sorcerer/wizard 7, summoner 6, unchained Summoner 6, witch 7;\n    \n    \n    \n    \n  </p>\n  <p>\n    <strong>Casting Time</strong>&nbsp;10 minutes<br>\n    <strong>Components</strong>&nbsp;V, S, M (crushed rubies worth 2,500 gp and a major organ from the sacrificed target, see text)<br>\n  </p>\n  <p>\n    <strong>Range</strong>&nbsp;close (25 ft. + 5 ft./2 levels)<br>\n    \n    <strong>Targets</strong>&nbsp;one creature<br>\n    \n    <strong>Duration</strong>&nbsp;1 day/level<br>\n      <strong>Saving Throw</strong>&nbsp;Will negates;&nbsp;\n      <strong>Spell Resistance</strong>&nbsp;no<br>\n  </p>\n  <h2>Description</h2>\n  <p>You must sacrifice a creature just as you finish casting this spell. When the sacrifice dies, its blood or ichor pools and hardens into a single red bloodstone. This bloodstone contains the essence and spirit of the sacrificed creature, allowing anyone holding the stone to activate the creature's highest-level activated racial spell-like ability, taking the actions necessary to activate the stored spell-like ability. Any creature who holds the stone can activate it, but the stone can be used only once per day (or the frequency of the creature's spell-like ability, whichever is less). If a creature has several racial spell-like abilities of the same spell level, choose randomly from among them to determine which one is stored in the bloodstone. The bloodstone can only store racial spell-like abilities that emulate a spell, including altered spells, like <i>invisibility</i> (self only), but not unique spell-like abilities possessed by the creature. Abilities with altered effects are still altered, so a creature activating the bloodstone for <i>greater teleport</i> (self only) would affect only itself and a bloodstone storing <i>summon monster II</i> (Small fire elemental only) would still only be able to summon a Small fire elemental. Additionally, the bloodstone can't store spell-like abilities that duplicate spells with expensive components costing more than 250 gp.  The save DC, caster level, and other attributes of this ability remain the same as when the creature was still alive, though the creature who activates the bloodstone can choose the targets, area, or shape of the spell, and make other decisions, such as  controlling the target of <i>dominate person</i>. The bloodstone can take any actions necessary to manipulate aspects of the spell, concentrating on the spell, redirecting the spell, and so on, up to a full normal round's worth of actions.  If the sacrificed creature doesn't die during the casting of the spell (for instance if it was merely a summoned creature) or is brought back to life before the spell's duration expires, the bloodstone loses its magical power. The fragment of the creature's spirit trapped in the bloodstone does not hinder attempts to restore the creature to life.</p>\n</div>\n",
      "chat": "",
      "unidentified": ""
    },
    "tags": [],
    "activation": {
      "cost": 10,
      "type": "minute"
    },
    "unchainedAction": {
      "activation": {
        "cost": 10,
        "type": "minute"
      }
    },
    "duration": {
      "value": null,
      "units": ""
    },
    "target": {
      "value": "one creature"
    },
    "range": {
      "value": null,
      "units": "close",
      "maxIncrements": 1,
      "minValue": null,
      "minUnits": ""
    },
    "uses": {
      "value": 0,
      "max": 0,
      "per": "",
      "autoDeductCharges": true,
      "autoDeductChargesCost": "1"
    },
    "measureTemplate": {
      "type": "",
      "size": "0",
      "overrideColor": false,
      "customColor": "",
      "overrideTexture": false,
      "customTexture": ""
    },
    "attackName": "",
    "actionType": "spellsave",
    "attackBonus": "",
    "critConfirmBonus": "",
    "damage": {
      "parts": [],
      "critParts": [],
      "nonCritParts": []
    },
    "attackParts": [],
    "formula": "",
    "ability": {
      "attack": "",
      "damage": "",
      "damageMult": 1,
      "critRange": 20,
      "critMult": 2
    },
    "save": {
      "dc": "0",
      "type": "will",
      "description": "Will negates"
    },
    "effectNotes": "",
    "attackNotes": "",
    "soundEffect": "",
    "links": {
      "children": []
    },
    "learnedAt": {
      "class": [
        [
          "sorcerer/wizard",
          7
        ],
        [
          "cleric/oracle",
          7
        ],
        [
          "druid",
          7
        ],
        [
          "summoner",
          6
        ],
        [
          "witch",
          7
        ],
        [
          "shaman",
          7
        ],
        [
          "occultist",
          6
        ],
        [
          "unchained Summoner",
          6
        ]
      ],
      "domain": [],
      "subDomain": [],
      "elementalSchool": [],
      "bloodline": []
    },
    "level": 7,
    "clOffset": 0,
    "slOffset": 0,
    "school": "nec",
    "subschool": "",
    "types": "evil",
    "nonlethal": false,
    "conditionals": [],
    "components": {
      "value": "",
      "verbal": true,
      "somatic": true,
      "material": true,
      "focus": false,
      "divineFocus": 0
    },
    "castTime": "",
    "materials": {
      "value": "crushed rubies worth 2,500 gp and a major organ from the sacrificed target, see text",
      "focus": "",
      "gpValue": 2500
    },
    "spellbook": "",
    "preparation": {
      "preparedAmount": 0,
      "maxAmount": 0,
      "autoDeductCharges": false,
      "spontaneousPrepared": false,
      "mode": "prepared"
    },
    "atWill": false,
    "sr": false,
    "shortDescription": "<p>You must sacrifice a creature just as you finish casting this spell. When the sacrifice dies, its blood or ichor pools and hardens into a single red bloodstone. This bloodstone contains the essence and spirit of the sacrificed creature, allowing anyone holding the stone to activate the creature's highest-level activated racial spell-like ability, taking the actions necessary to activate the stored spell-like ability. Any creature who holds the stone can activate it, but the stone can be used only once per day (or the frequency of the creature's spell-like ability, whichever is less). If a creature has several racial spell-like abilities of the same spell level, choose randomly from among them to determine which one is stored in the bloodstone. The bloodstone can only store racial spell-like abilities that emulate a spell, including altered spells, like <i>invisibility</i> (self only), but not unique spell-like abilities possessed by the creature. Abilities with altered effects are still altered, so a creature activating the bloodstone for <i>greater teleport</i> (self only) would affect only itself and a bloodstone storing <i>summon monster II</i> (Small fire elemental only) would still only be able to summon a Small fire elemental. Additionally, the bloodstone can't store spell-like abilities that duplicate spells with expensive components costing more than 250 gp.  The save DC, caster level, and other attributes of this ability remain the same as when the creature was still alive, though the creature who activates the bloodstone can choose the targets, area, or shape of the spell, and make other decisions, such as  controlling the target of <i>dominate person</i>. The bloodstone can take any actions necessary to manipulate aspects of the spell, concentrating on the spell, redirecting the spell, and so on, up to a full normal round's worth of actions.  If the sacrificed creature doesn't die during the casting of the spell (for instance if it was merely a summoned creature) or is brought back to life before the spell's duration expires, the bloodstone loses its magical power. The fragment of the creature's spirit trapped in the bloodstone does not hinder attempts to restore the creature to life.</p>",
    "spellDuration": "1 day/level",
    "spellEffect": "",
    "spellArea": "",
    "showInQuickbar": false,
    "spellPoints": {
      "cost": ""
    },
    "domain": false,
    "slotCost": 1
  },
  "flags": {},
  "img": "systems/pf1/icons/misc/magic-swirl.png",
  "effects": []
}