{
  "_id": "kkjargegjkalyevi",
  "name": "Pugwampi's Grace",
  "permission": {
    "default": 0
  },
  "type": "spell",
  "data": {
    "description": {
      "value": "<div class=\"spell-description\">\n  <p>\n    <strong>School</strong>&nbsp;enchantment&nbsp;(compulsion)&nbsp;[mind-affecting];\n    <strong>Level</strong>&nbsp;bard 2, sorcerer/wizard 3, witch 3;\n    \n    \n    \n    \n  </p>\n  <p>\n    <strong>Casting Time</strong>&nbsp;1 standard action<br>\n    <strong>Components</strong>&nbsp;V, S, M (a pugwampi&#x27;s hair)<br>\n  </p>\n  <p>\n    \n    \n    <strong>Targets</strong>&nbsp;one creature (see below)<br>\n    \n    <strong>Duration</strong>&nbsp;1 round/level<br>\n    <strong>Saving Throw</strong>&nbsp;Will negates;&nbsp;<strong>Spell Resistance</strong>&nbsp;yes<br>\n  </p>\n  <h2>Description</h2>\n  <p>Hated by adventurers throughout the Inner Sea region, the gremlins known as pugwampis infect those around them with a malignant form of unluck-an effect that this spell emulates. If the target fails its Will save, it becomes infused with the so-called \"grace of the pugwampi.\" A creature affected by this spell must roll two d20s whenever a situation calls for a d20 roll (such as an attack roll, a skill check, or a saving throw) and must use the lower of the two results generated. As with the aura shed by actual pugwampies, this spell has no effect on animals, gremlins, or gnolls. The effects of this spell are negated as long as a target gains any sort of luck bonus to a d20 roll (such as those granted by a <i>luckstone</i> or <i>divine</i> favor), but the spell's duration is not impacted by these effects. If the luck bonus goes away before the pugwampi's grace effect ends, the unluck returns and remains until the spell's normal duration runs out.</p>\n</div>\n",
      "chat": "",
      "unidentified": ""
    },
    "tags": [],
    "activation": {
      "cost": 1,
      "type": "standard"
    },
    "unchainedAction": {
      "activation": {
        "cost": 2,
        "type": "action"
      }
    },
    "duration": {
      "value": null,
      "units": ""
    },
    "target": {
      "value": "one creature (see below)"
    },
    "range": {
      "value": null,
      "units": "",
      "maxIncrements": 1,
      "minValue": null,
      "minUnits": ""
    },
    "uses": {
      "value": 0,
      "max": 0,
      "per": "",
      "autoDeductCharges": true,
      "autoDeductChargesCost": "1"
    },
    "measureTemplate": {
      "type": "",
      "size": "0",
      "overrideColor": false,
      "customColor": "",
      "overrideTexture": false,
      "customTexture": ""
    },
    "attackName": "",
    "actionType": "spellsave",
    "attackBonus": "",
    "critConfirmBonus": "",
    "damage": {
      "parts": [],
      "critParts": [],
      "nonCritParts": []
    },
    "attackParts": [],
    "formula": "",
    "ability": {
      "attack": "",
      "damage": "",
      "damageMult": 1,
      "critRange": 20,
      "critMult": 2
    },
    "save": {
      "dc": "0",
      "type": "will",
      "description": "Will negates"
    },
    "effectNotes": "",
    "attackNotes": "",
    "soundEffect": "",
    "links": {
      "children": []
    },
    "learnedAt": {
      "class": [
        [
          "sorcerer/wizard",
          3
        ],
        [
          "bard",
          2
        ],
        [
          "witch",
          3
        ]
      ],
      "domain": [],
      "subDomain": [],
      "elementalSchool": [],
      "bloodline": []
    },
    "level": 3,
    "clOffset": 0,
    "slOffset": 0,
    "school": "enc",
    "subschool": "compulsion",
    "types": "mind-affecting",
    "nonlethal": false,
    "conditionals": [],
    "components": {
      "value": "",
      "verbal": true,
      "somatic": true,
      "material": true,
      "focus": false,
      "divineFocus": 0
    },
    "castTime": "",
    "materials": {
      "value": "a pugwampi's hair",
      "focus": "",
      "gpValue": 0
    },
    "spellbook": "primary",
    "preparation": {
      "preparedAmount": 0,
      "maxAmount": 0,
      "autoDeductCharges": true,
      "spontaneousPrepared": true,
      "mode": "prepared"
    },
    "atWill": false,
    "sr": true,
    "shortDescription": "<p>Hated by adventurers throughout the Inner Sea region, the gremlins known as pugwampis infect those around them with a malignant form of unluck-an effect that this spell emulates. If the target fails its Will save, it becomes infused with the so-called \"grace of the pugwampi.\" A creature affected by this spell must roll two d20s whenever a situation calls for a d20 roll (such as an attack roll, a skill check, or a saving throw) and must use the lower of the two results generated. As with the aura shed by actual pugwampies, this spell has no effect on animals, gremlins, or gnolls. The effects of this spell are negated as long as a target gains any sort of luck bonus to a d20 roll (such as those granted by a <i>luckstone</i> or <i>divine</i> favor), but the spell's duration is not impacted by these effects. If the luck bonus goes away before the pugwampi's grace effect ends, the unluck returns and remains until the spell's normal duration runs out.</p>",
    "spellDuration": "1 round/level",
    "spellEffect": "",
    "spellArea": "",
    "showInQuickbar": false,
    "spellPoints": {
      "cost": "1 + @sl"
    },
    "domain": false,
    "slotCost": 1
  },
  "flags": {},
  "img": "systems/pf1/icons/misc/magic-swirl.png",
  "effects": []
}