{
  "_id": "hrlql4cdfkppfblb",
  "name": "Rope Trick",
  "permission": {
    "default": 0
  },
  "type": "spell",
  "data": {
    "description": {
      "value": "<div class=\"spell-description\">\n  <p>\n    <strong>School</strong>&nbsp;transmutation;\n    <strong>Level</strong>&nbsp;medium 2, occultist 2, psychic 2, sorcerer/wizard 2;\n    \n    \n    \n    \n  </p>\n  <p>\n    <strong>Casting Time</strong>&nbsp;1 standard action<br>\n    <strong>Components</strong>&nbsp;V, S, M (powdered corn and a twisted loop of parchment)<br>\n  </p>\n  <p>\n    <strong>Range</strong>&nbsp;touch<br>\n    \n    <strong>Targets</strong>&nbsp;one touched piece of rope from 5 ft. to 30 ft. long<br>\n    \n    <strong>Duration</strong>&nbsp;1 hour/level<br>\n    <strong>Saving Throw</strong>&nbsp;none;&nbsp;<strong>Spell Resistance</strong>&nbsp;no<br>\n  </p>\n  <h2>Description</h2>\n  <p>When this spell is cast upon a piece of rope from 5 to 30 feet long, one end of the rope rises into the air until the whole rope hangs perpendicular to the ground, as if affixed at the upper end.</p><p>The upper end is, in fact, fastened to an extradimensional space that is outside the usual multiverse of extradimensional spaces.</p><p>Creatures in the extradimensional space are hidden, beyond the reach of spells (including divinations), unless those spells work across planes. The space holds as many as eight creatures (of any size). The rope cannot be removed or hidden. The rope can support up to 16,000 pounds. A weight greater than that can pull the rope free.</p><p>Spells cannot be cast across the extradimensional interface, nor can area effects cross it. Those in the extradimensional space can see out of it as if a 3-foot-by-5-foot window were centered on the rope. The window is invisible, and even creatures that can see the window can't see through it. Anything inside the extradimensional space drops out when the spell ends. The rope can be climbed by only one person at a time. The <i>rope trick</i> spell enables climbers to reach a normal place if they do not climb all the way to the extradimensional space.</p>\n</div>\n",
      "chat": "",
      "unidentified": ""
    },
    "tags": [],
    "activation": {
      "cost": 1,
      "type": "standard"
    },
    "unchainedAction": {
      "activation": {
        "cost": 2,
        "type": "action"
      }
    },
    "duration": {
      "value": null,
      "units": ""
    },
    "target": {
      "value": "one touched piece of rope from 5 ft. to 30 ft. long"
    },
    "range": {
      "value": null,
      "units": "touch",
      "maxIncrements": 1,
      "minValue": null,
      "minUnits": ""
    },
    "uses": {
      "value": 0,
      "max": 0,
      "per": "",
      "autoDeductCharges": true,
      "autoDeductChargesCost": "1"
    },
    "measureTemplate": {
      "type": "",
      "size": "0",
      "overrideColor": false,
      "customColor": "",
      "overrideTexture": false,
      "customTexture": ""
    },
    "attackName": "",
    "actionType": "",
    "attackBonus": "",
    "critConfirmBonus": "",
    "damage": {
      "parts": [],
      "critParts": [],
      "nonCritParts": []
    },
    "attackParts": [],
    "formula": "",
    "ability": {
      "attack": "",
      "damage": "",
      "damageMult": 1,
      "critRange": 20,
      "critMult": 2
    },
    "save": {
      "dc": "0",
      "type": "",
      "description": ""
    },
    "effectNotes": "",
    "attackNotes": "",
    "soundEffect": "",
    "links": {
      "children": []
    },
    "learnedAt": {
      "class": [
        [
          "sorcerer/wizard",
          2
        ],
        [
          "psychic",
          2
        ],
        [
          "medium",
          2
        ],
        [
          "occultist",
          2
        ]
      ],
      "domain": [],
      "subDomain": [],
      "elementalSchool": [],
      "bloodline": []
    },
    "level": 2,
    "clOffset": 0,
    "slOffset": 0,
    "school": "trs",
    "subschool": "",
    "types": "",
    "nonlethal": false,
    "conditionals": [],
    "components": {
      "value": "",
      "verbal": true,
      "somatic": true,
      "material": true,
      "focus": false,
      "divineFocus": 0
    },
    "castTime": "",
    "materials": {
      "value": "powdered corn and a twisted loop of parchment",
      "focus": "",
      "gpValue": 0
    },
    "spellbook": "primary",
    "preparation": {
      "preparedAmount": 0,
      "maxAmount": 0,
      "autoDeductCharges": true,
      "spontaneousPrepared": true,
      "mode": "prepared"
    },
    "atWill": false,
    "sr": false,
    "shortDescription": "<p>When this spell is cast upon a piece of rope from 5 to 30 feet long, one end of the rope rises into the air until the whole rope hangs perpendicular to the ground, as if affixed at the upper end.</p><p>The upper end is, in fact, fastened to an extradimensional space that is outside the usual multiverse of extradimensional spaces.</p><p>Creatures in the extradimensional space are hidden, beyond the reach of spells (including divinations), unless those spells work across planes. The space holds as many as eight creatures (of any size). The rope cannot be removed or hidden. The rope can support up to 16,000 pounds. A weight greater than that can pull the rope free.</p><p>Spells cannot be cast across the extradimensional interface, nor can area effects cross it. Those in the extradimensional space can see out of it as if a 3-foot-by-5-foot window were centered on the rope. The window is invisible, and even creatures that can see the window can't see through it. Anything inside the extradimensional space drops out when the spell ends. The rope can be climbed by only one person at a time. The <i>rope trick</i> spell enables climbers to reach a normal place if they do not climb all the way to the extradimensional space.</p>",
    "spellDuration": "1 hour/level",
    "spellEffect": "",
    "spellArea": "",
    "showInQuickbar": false,
    "spellPoints": {
      "cost": "1 + @sl"
    },
    "domain": false,
    "slotCost": 1
  },
  "flags": {},
  "img": "systems/pf1/icons/misc/magic-swirl.png",
  "effects": []
}