{
  "_id": "vefor1qn5ro1y6k7",
  "name": "Sharesister",
  "permission": {
    "default": 0
  },
  "type": "spell",
  "data": {
    "description": {
      "value": "<div class=\"spell-description\">\n  <p>\n    <strong>School</strong>&nbsp;necromancy;\n    <strong>Level</strong>&nbsp;cleric/oracle 3, witch 3;\n    \n    \n    \n    \n  </p>\n  <p>\n    <strong>Casting Time</strong>&nbsp;1 standard action<br>\n    <strong>Components</strong>&nbsp;V, S, M (a drop of your own blood)<br>\n  </p>\n  <p>\n    <strong>Range</strong>&nbsp;touch<br>\n    \n    <strong>Targets</strong>&nbsp;you and one creature of your gender<br>\n    \n    <strong>Duration</strong>&nbsp;1 minute/level<br>\n    <strong>Saving Throw</strong>&nbsp;Will negates (harmless);&nbsp;<strong>Spell Resistance</strong>&nbsp;yes<br>\n  </p>\n  <h2>Description</h2>\n  <p>(harmless) Ithuna Vardsdottir claims to have unearthed this ancient prayer in a ruined temple of Desna, though Pathfinders have reported the use of similar magic in Irrisen among the White Witches. While the name of this spell is <i>sharesister</i>, it works equally well on male or female creatures-both targets of the spell must simply be of the same gender.</p><p>When you deliver the spell, you receive a negative level for the duration of the spell, and the other target receives a +1 insight bonus to her caster level and a +1 insight bonus to the save DCs of all of her spells. At 11th level, you can opt to take four negative levels to grant a +2 insight bonus to the other target's caster level and spell save DCs if you wish, while at 17th level you can take 6 negative levels to increase the insight bonus to +3. Any effect that removes or prevents the negative level immediately ends the <i>sharesister</i> spell. Negative levels received from the spell vanish as soon as this spell effect ends.</p><p>Negative levels from multiple castings of this spell stack.</p>\n</div>\n",
      "chat": "",
      "unidentified": ""
    },
    "tags": [],
    "activation": {
      "cost": 1,
      "type": "standard"
    },
    "unchainedAction": {
      "activation": {
        "cost": 2,
        "type": "action"
      }
    },
    "duration": {
      "value": null,
      "units": ""
    },
    "target": {
      "value": "you and one creature of your gender"
    },
    "range": {
      "value": null,
      "units": "touch",
      "maxIncrements": 1,
      "minValue": null,
      "minUnits": ""
    },
    "uses": {
      "value": 0,
      "max": 0,
      "per": "",
      "autoDeductCharges": true,
      "autoDeductChargesCost": "1"
    },
    "measureTemplate": {
      "type": "",
      "size": "0",
      "overrideColor": false,
      "customColor": "",
      "overrideTexture": false,
      "customTexture": ""
    },
    "attackName": "",
    "actionType": "spellsave",
    "attackBonus": "",
    "critConfirmBonus": "",
    "damage": {
      "parts": [],
      "critParts": [],
      "nonCritParts": []
    },
    "attackParts": [],
    "formula": "",
    "ability": {
      "attack": "",
      "damage": "",
      "damageMult": 1,
      "critRange": 20,
      "critMult": 2
    },
    "save": {
      "dc": "0",
      "type": "will",
      "description": "Will negates (harmless)"
    },
    "effectNotes": "",
    "attackNotes": "",
    "soundEffect": "",
    "links": {
      "children": []
    },
    "learnedAt": {
      "class": [
        [
          "cleric/oracle",
          3
        ],
        [
          "witch",
          3
        ]
      ],
      "domain": [],
      "subDomain": [],
      "elementalSchool": [],
      "bloodline": []
    },
    "level": 3,
    "clOffset": 0,
    "slOffset": 0,
    "school": "nec",
    "subschool": "",
    "types": "",
    "nonlethal": false,
    "conditionals": [],
    "components": {
      "value": "",
      "verbal": true,
      "somatic": true,
      "material": true,
      "focus": false,
      "divineFocus": 0
    },
    "castTime": "",
    "materials": {
      "value": "a drop of your own blood",
      "focus": "",
      "gpValue": 0
    },
    "spellbook": "primary",
    "preparation": {
      "preparedAmount": 0,
      "maxAmount": 0,
      "autoDeductCharges": true,
      "spontaneousPrepared": true,
      "mode": "prepared"
    },
    "atWill": false,
    "sr": true,
    "shortDescription": "<p>(harmless) Ithuna Vardsdottir claims to have unearthed this ancient prayer in a ruined temple of Desna, though Pathfinders have reported the use of similar magic in Irrisen among the White Witches. While the name of this spell is <i>sharesister</i>, it works equally well on male or female creatures-both targets of the spell must simply be of the same gender.</p><p>When you deliver the spell, you receive a negative level for the duration of the spell, and the other target receives a +1 insight bonus to her caster level and a +1 insight bonus to the save DCs of all of her spells. At 11th level, you can opt to take four negative levels to grant a +2 insight bonus to the other target's caster level and spell save DCs if you wish, while at 17th level you can take 6 negative levels to increase the insight bonus to +3. Any effect that removes or prevents the negative level immediately ends the <i>sharesister</i> spell. Negative levels received from the spell vanish as soon as this spell effect ends.</p><p>Negative levels from multiple castings of this spell stack.</p>",
    "spellDuration": "1 minute/level",
    "spellEffect": "",
    "spellArea": "",
    "showInQuickbar": false,
    "spellPoints": {
      "cost": "1 + @sl"
    },
    "domain": false,
    "slotCost": 1
  },
  "flags": {},
  "img": "systems/pf1/icons/misc/magic-swirl.png",
  "effects": []
}