{
  "_id": "c21adykehhoj8d6j",
  "name": "Symbol of Exsanguination",
  "permission": {
    "default": 0
  },
  "type": "spell",
  "data": {
    "description": {
      "value": "<div class=\"spell-description\">\n  <p>\n    <strong>School</strong>&nbsp;necromancy&nbsp;[evil];\n    <strong>Level</strong>&nbsp;bloodrager 2, cleric/oracle 3, occultist 2, sorcerer/wizard 3, witch 3;\n    \n    \n    \n    \n  </p>\n  <p>\n    <strong>Casting Time</strong>&nbsp;10 minutes<br>\n    <strong>Components</strong>&nbsp;V, S, M (powdered garnet and bloodstone worth a total of 500 gp)<br>\n  </p>\n  <p>\n    <strong>Range</strong>&nbsp;0 feet<br>\n    \n    \n    <strong>Effect</strong>&nbsp;one symbol<br>\n    <strong>Duration</strong>&nbsp;10 minutes/level<br>\n      <strong>Saving Throw</strong>&nbsp;Fortitude negates;&nbsp;\n      <strong>Spell Resistance</strong>&nbsp;yes<br>\n  </p>\n  <h2>Description</h2>\n  <p>This spell functions like <i>symbol of death</i>, except that each creature within the radius of <i>Symbol of Exsanguination</i> begins to bleed uncontrollably and violently from their eyes, ears, nose, and mouth, as well as any existing open wounds. Creatures that failed their saving throws immediately take 1d6 points of bleed damage and are sickened as long as they continue to take bleed damage from the symbol.  While a DC 15 Heal check or magical healing can end the bleed damage as normal, the bleed damage and sickened condition begin again each round so long as the creature begins its turn still within 60 feet of the symbol, including if the creature leaves the area and returns. Creatures that succeed at their saving throw suffer no ill effects from the symbol, even if they leave its area and return.  Unlike <i>symbol of death</i>, <i>Symbol of Exsanguination</i> has no hit point limit on the creatures it can affect. Once triggered, a <i>Symbol of Exsanguination</i> remains active for 10 minutes per caster level.  Magic traps such as <i>Symbol of Exsanguination</i> are hard to detect and disable. While any character can use Perception to find a symbol, only a character who has the trapfinding class feature can use Disable Device to disarm it. The DC in each case is equal to 25 + spell level, or 28 (27 for a bloodrager) for <i>Symbol of Exsanguination</i>.</p>\n</div>\n",
      "chat": "",
      "unidentified": ""
    },
    "tags": [],
    "activation": {
      "cost": 10,
      "type": "minute"
    },
    "unchainedAction": {
      "activation": {
        "cost": 10,
        "type": "minute"
      }
    },
    "duration": {
      "value": null,
      "units": ""
    },
    "target": {
      "value": ""
    },
    "range": {
      "value": "0",
      "units": "ft",
      "maxIncrements": 1,
      "minValue": null,
      "minUnits": ""
    },
    "uses": {
      "value": 0,
      "max": 0,
      "per": "",
      "autoDeductCharges": true,
      "autoDeductChargesCost": "1"
    },
    "measureTemplate": {
      "type": "",
      "size": "0",
      "overrideColor": false,
      "customColor": "",
      "overrideTexture": false,
      "customTexture": ""
    },
    "attackName": "",
    "actionType": "spellsave",
    "attackBonus": "",
    "critConfirmBonus": "",
    "damage": {
      "parts": [],
      "critParts": [],
      "nonCritParts": []
    },
    "attackParts": [],
    "formula": "",
    "ability": {
      "attack": "",
      "damage": "",
      "damageMult": 1,
      "critRange": 20,
      "critMult": 2
    },
    "save": {
      "dc": "0",
      "type": "fort",
      "description": "Fortitude negates"
    },
    "effectNotes": "",
    "attackNotes": "",
    "soundEffect": "",
    "links": {
      "children": []
    },
    "learnedAt": {
      "class": [
        [
          "sorcerer/wizard",
          3
        ],
        [
          "cleric/oracle",
          3
        ],
        [
          "witch",
          3
        ],
        [
          "bloodrager",
          2
        ],
        [
          "occultist",
          2
        ]
      ],
      "domain": [],
      "subDomain": [],
      "elementalSchool": [],
      "bloodline": []
    },
    "level": 3,
    "clOffset": 0,
    "slOffset": 0,
    "school": "nec",
    "subschool": "",
    "types": "evil",
    "nonlethal": false,
    "conditionals": [],
    "components": {
      "value": "",
      "verbal": true,
      "somatic": true,
      "material": true,
      "focus": false,
      "divineFocus": 0
    },
    "castTime": "",
    "materials": {
      "value": "powdered garnet and bloodstone worth a total of 500 gp",
      "focus": "",
      "gpValue": 500
    },
    "spellbook": "",
    "preparation": {
      "preparedAmount": 0,
      "maxAmount": 0,
      "autoDeductCharges": false,
      "spontaneousPrepared": false,
      "mode": "prepared"
    },
    "atWill": false,
    "sr": true,
    "shortDescription": "<p>This spell functions like <i>symbol of death</i>, except that each creature within the radius of <i>Symbol of Exsanguination</i> begins to bleed uncontrollably and violently from their eyes, ears, nose, and mouth, as well as any existing open wounds. Creatures that failed their saving throws immediately take 1d6 points of bleed damage and are sickened as long as they continue to take bleed damage from the symbol.  While a DC 15 Heal check or magical healing can end the bleed damage as normal, the bleed damage and sickened condition begin again each round so long as the creature begins its turn still within 60 feet of the symbol, including if the creature leaves the area and returns. Creatures that succeed at their saving throw suffer no ill effects from the symbol, even if they leave its area and return.  Unlike <i>symbol of death</i>, <i>Symbol of Exsanguination</i> has no hit point limit on the creatures it can affect. Once triggered, a <i>Symbol of Exsanguination</i> remains active for 10 minutes per caster level.  Magic traps such as <i>Symbol of Exsanguination</i> are hard to detect and disable. While any character can use Perception to find a symbol, only a character who has the trapfinding class feature can use Disable Device to disarm it. The DC in each case is equal to 25 + spell level, or 28 (27 for a bloodrager) for <i>Symbol of Exsanguination</i>.</p>",
    "spellDuration": "10 minutes/level",
    "spellEffect": "one symbol",
    "spellArea": "",
    "showInQuickbar": false,
    "spellPoints": {
      "cost": ""
    },
    "domain": false,
    "slotCost": 1
  },
  "flags": {},
  "img": "systems/pf1/icons/misc/magic-swirl.png",
  "effects": []
}