{
  "_id": "07adg3f6f6lu8jz5",
  "name": "Tactical Formation",
  "permission": {
    "default": 0
  },
  "type": "spell",
  "data": {
    "description": {
      "value": "<div class=\"spell-description\">\n  <p>\n    <strong>School</strong>&nbsp;abjuration;\n    <strong>Level</strong>&nbsp;cleric/oracle 3, hunter 4, paladin 3, ranger 4;\n    \n    \n    \n    \n  </p>\n  <p>\n    <strong>Casting Time</strong>&nbsp;1 standard action<br>\n    <strong>Components</strong>&nbsp;V, S<br>\n  </p>\n  <p>\n    <strong>Range</strong>&nbsp;close (25 ft. + 5 ft./2 levels)<br>\n    <strong>Area</strong>&nbsp;up to one creature/level, no two of which may be more than 30 ft. apart<br>\n    \n    \n    <strong>Duration</strong>&nbsp;10 minutes/level<br>\n    <strong>Saving Throw</strong>&nbsp;Will negates (harmless);&nbsp;<strong>Spell Resistance</strong>&nbsp;yes<br>\n  </p>\n  <h2>Description</h2>\n  <p>This spell increases the effectiveness of a group's formation in battle. When cast, all creatures under the effect of the spell must be adjacent to one another, forming an unbroken chain of squares (which may include creatures sharing the same square). This chain does not need to be a straight line. Each target in the chain receives a +2 defection bonus to AC as long as the targets stay adjacent to at least one other creature affected by the spell; moving more than 5 feet from another target ends the spell with respect to that creature only. For example, a cleric could cast it on himself and four dwarves blocking a 20-foot-wide corridor; the cleric can move freely from the left side of the formation to the right side (whether in front of or behind the other targets) and not break the spell as long as he stays within 5 feet of at least one of them.</p>\n</div>\n",
      "chat": "",
      "unidentified": ""
    },
    "tags": [],
    "activation": {
      "cost": 1,
      "type": "standard"
    },
    "unchainedAction": {
      "activation": {
        "cost": 2,
        "type": "action"
      }
    },
    "duration": {
      "value": null,
      "units": ""
    },
    "target": {
      "value": ""
    },
    "range": {
      "value": null,
      "units": "close",
      "maxIncrements": 1,
      "minValue": null,
      "minUnits": ""
    },
    "uses": {
      "value": 0,
      "max": 0,
      "per": "",
      "autoDeductCharges": true,
      "autoDeductChargesCost": "1"
    },
    "measureTemplate": {
      "type": "",
      "size": "0",
      "overrideColor": false,
      "customColor": "",
      "overrideTexture": false,
      "customTexture": ""
    },
    "attackName": "",
    "actionType": "spellsave",
    "attackBonus": "",
    "critConfirmBonus": "",
    "damage": {
      "parts": [],
      "critParts": [],
      "nonCritParts": []
    },
    "attackParts": [],
    "formula": "",
    "ability": {
      "attack": "",
      "damage": "",
      "damageMult": 1,
      "critRange": 20,
      "critMult": 2
    },
    "save": {
      "dc": "0",
      "type": "will",
      "description": "Will negates (harmless)"
    },
    "effectNotes": "",
    "attackNotes": "",
    "soundEffect": "",
    "links": {
      "children": []
    },
    "learnedAt": {
      "class": [
        [
          "cleric/oracle",
          3
        ],
        [
          "ranger",
          4
        ],
        [
          "paladin",
          3
        ],
        [
          "hunter",
          4
        ]
      ],
      "domain": [],
      "subDomain": [],
      "elementalSchool": [],
      "bloodline": []
    },
    "level": 3,
    "clOffset": 0,
    "slOffset": 0,
    "school": "abj",
    "subschool": "",
    "types": "",
    "nonlethal": false,
    "conditionals": [],
    "components": {
      "value": "",
      "verbal": true,
      "somatic": true,
      "material": false,
      "focus": false,
      "divineFocus": 0
    },
    "castTime": "",
    "materials": {
      "value": "",
      "focus": "",
      "gpValue": 0
    },
    "spellbook": "primary",
    "preparation": {
      "preparedAmount": 0,
      "maxAmount": 0,
      "autoDeductCharges": true,
      "spontaneousPrepared": true,
      "mode": "prepared"
    },
    "atWill": false,
    "sr": true,
    "shortDescription": "<p>This spell increases the effectiveness of a group's formation in battle. When cast, all creatures under the effect of the spell must be adjacent to one another, forming an unbroken chain of squares (which may include creatures sharing the same square). This chain does not need to be a straight line. Each target in the chain receives a +2 defection bonus to AC as long as the targets stay adjacent to at least one other creature affected by the spell; moving more than 5 feet from another target ends the spell with respect to that creature only. For example, a cleric could cast it on himself and four dwarves blocking a 20-foot-wide corridor; the cleric can move freely from the left side of the formation to the right side (whether in front of or behind the other targets) and not break the spell as long as he stays within 5 feet of at least one of them.</p>",
    "spellDuration": "10 minutes/level",
    "spellEffect": "",
    "spellArea": "up to one creature/level, no two of which may be more than 30 ft. apart",
    "showInQuickbar": false,
    "spellPoints": {
      "cost": "1 + @sl"
    },
    "domain": false,
    "slotCost": 1
  },
  "flags": {},
  "img": "systems/pf1/icons/misc/magic-swirl.png",
  "effects": []
}