{
  "_id": "fq7jpcbpo8cjtkqi",
  "name": "Tattoo Potion",
  "permission": {
    "default": 0
  },
  "type": "spell",
  "data": {
    "description": {
      "value": "<div class=\"spell-description\">\n  <p>\n    <strong>School</strong>&nbsp;transmutation;\n    <strong>Level</strong>&nbsp;alchemist 2, bard 2, sorcerer/wizard 2, witch 2;\n    \n    \n    \n    \n  </p>\n  <p>\n    <strong>Casting Time</strong>&nbsp;1 minute<br>\n    <strong>Components</strong>&nbsp;V, S, M (a potion to be tattooed, special inks worth 500 gp)<br>\n  </p>\n  <p>\n    \n    \n    \n    <strong>Effect</strong>&nbsp;one spell tattoo<br>\n    <strong>Duration</strong>&nbsp;instantaneous<br>\n      <strong>Saving Throw</strong>&nbsp;none;&nbsp;\n      <strong>Spell Resistance</strong>&nbsp;no<br>\n  </p>\n  <h2>Description</h2>\n  <p>When you cast this spell, you mix special tattoo inks into a potion of your choice. Once you finish casting <i>tattoo potion</i>, the potion begins bubbling and fizzing-if no one drinks the potion within 1 minute of the spell being cast, the potion bubbles away into vapor and is destroyed.</p><p>When a potion under the effects of <i>tattoo potion</i> is imbibed, the effects of the potion do not occur. Instead, the potion transforms into a <i>spell tattoo</i> (see page 16) on the drinker's chest tattoo slot-if the drinker already has a magic tattoo in this location, the <i>tattoo potion</i> is wasted. Once the potion transforms into a <i>spell tattoo</i>, it remains in place permanently until it is used as a <i>spell tattoo</i>.</p>\n</div>\n",
      "chat": "",
      "unidentified": ""
    },
    "tags": [],
    "activation": {
      "cost": 1,
      "type": "minute"
    },
    "unchainedAction": {
      "activation": {
        "cost": 1,
        "type": "minute"
      }
    },
    "duration": {
      "value": null,
      "units": ""
    },
    "target": {
      "value": ""
    },
    "range": {
      "value": null,
      "units": "",
      "maxIncrements": 1,
      "minValue": null,
      "minUnits": ""
    },
    "uses": {
      "value": 0,
      "max": 0,
      "per": "",
      "autoDeductCharges": true,
      "autoDeductChargesCost": "1"
    },
    "measureTemplate": {
      "type": "",
      "size": "0",
      "overrideColor": false,
      "customColor": "",
      "overrideTexture": false,
      "customTexture": ""
    },
    "attackName": "",
    "actionType": "other",
    "attackBonus": "",
    "critConfirmBonus": "",
    "damage": {
      "parts": [],
      "critParts": [],
      "nonCritParts": []
    },
    "attackParts": [],
    "formula": "",
    "ability": {
      "attack": "",
      "damage": "",
      "damageMult": 1,
      "critRange": 20,
      "critMult": 2
    },
    "save": {
      "dc": "0",
      "type": "",
      "description": ""
    },
    "effectNotes": "",
    "attackNotes": "",
    "soundEffect": "",
    "links": {
      "children": []
    },
    "learnedAt": {
      "class": [
        [
          "sorcerer/wizard",
          2
        ],
        [
          "bard",
          2
        ],
        [
          "alchemist",
          2
        ],
        [
          "witch",
          2
        ]
      ],
      "domain": [],
      "subDomain": [],
      "elementalSchool": [],
      "bloodline": []
    },
    "level": 2,
    "clOffset": 0,
    "slOffset": 0,
    "school": "trs",
    "subschool": "",
    "types": "",
    "nonlethal": false,
    "conditionals": [],
    "components": {
      "value": "",
      "verbal": true,
      "somatic": true,
      "material": true,
      "focus": false,
      "divineFocus": 0
    },
    "castTime": "",
    "materials": {
      "value": "a potion to be tattooed, special inks worth 500 gp",
      "focus": "",
      "gpValue": 500
    },
    "spellbook": "",
    "preparation": {
      "preparedAmount": 0,
      "maxAmount": 0,
      "autoDeductCharges": false,
      "spontaneousPrepared": false,
      "mode": "prepared"
    },
    "atWill": false,
    "sr": false,
    "shortDescription": "<p>When you cast this spell, you mix special tattoo inks into a potion of your choice. Once you finish casting <i>tattoo potion</i>, the potion begins bubbling and fizzing-if no one drinks the potion within 1 minute of the spell being cast, the potion bubbles away into vapor and is destroyed.</p><p>When a potion under the effects of <i>tattoo potion</i> is imbibed, the effects of the potion do not occur. Instead, the potion transforms into a <i>spell tattoo</i> (see page 16) on the drinker's chest tattoo slot-if the drinker already has a magic tattoo in this location, the <i>tattoo potion</i> is wasted. Once the potion transforms into a <i>spell tattoo</i>, it remains in place permanently until it is used as a <i>spell tattoo</i>.</p>",
    "spellDuration": "instantaneous",
    "spellEffect": "one spell tattoo",
    "spellArea": "",
    "showInQuickbar": false,
    "spellPoints": {
      "cost": ""
    },
    "domain": false,
    "slotCost": 1
  },
  "flags": {},
  "img": "systems/pf1/icons/misc/magic-swirl.png",
  "effects": []
}