{
  "_id": "E27lMw9YNOAjS009",
  "name": "Bloodrager",
  "permission": {
    "default": 0
  },
  "type": "class",
  "data": {
    "description": {
      "value": "<p>While many ferocious combatants can tap into a deep reservoir of buried rage, bloodragers have an intrinsic power that seethes within. Like sorcerers, bloodragers’ veins surge with arcane power. While sorcerers use this power for spellcasting, bloodragers enter an altered state in which their bloodline becomes manifest, where the echoes of their strange ancestry lash out with devastating power. In these states, bloodragers can cast some arcane spells instinctively. The bloodrager’s magic is as fast, violent, and seemingly unstoppable as their physical prowess.</p>\n<p><strong>Role</strong>: Masters of the battlefield, bloodragers unleash fearful carnage on their enemies using their bloodlines and combat prowess. The bloodrager’s place is on the front lines, right in his enemies’ faces, supplying tremendous martial force bolstered by a trace of arcane magic.</p>\n<p><strong>Alignment</strong>: Any.</p>\n<p><strong>Hit Die</strong>: d10.</p>\n<p><strong>Parent Classes</strong>:&nbsp;<a href=\"https://www.d20pfsrd.com/classes/core-classes/barbarian\">Barbarian</a>&nbsp;and&nbsp;<a href=\"https://www.d20pfsrd.com/classes/core-classes/sorcerer\">sorcerer</a>.</p>\n<p><strong>Starting Wealth</strong>: 3d6 × 10 gp (average 105 gp.) In addition, each character begins play with an outfit worth 10 gp or less.</p>\n<h2><span id=\"Class_Skills\">Class Skills</span></h2>\n<p>The bloodrager’s class skills are&nbsp;<a href=\"https://www.d20pfsrd.com/skills/acrobatics\">Acrobatics</a>&nbsp;(<a href=\"https://www.d20pfsrd.com/basics-ability-scores/ability-scores#TOC-Dexterity-Dex-\">Dex</a>), <a href=\"https://www.d20pfsrd.com/skills/climb\">Climb</a>&nbsp;(<a href=\"https://www.d20pfsrd.com/basics-ability-scores/ability-scores#TOC-Strength-Str-\">Str</a>), <a href=\"https://www.d20pfsrd.com/skills/craft\">Craft</a>&nbsp;(<a href=\"https://www.d20pfsrd.com/basics-ability-scores/ability-scores#TOC-Intelligence-Int-\">Int</a>), <a href=\"https://www.d20pfsrd.com/skills/handle-animal\">Handle Animal</a>&nbsp;(<a href=\"https://www.d20pfsrd.com/basics-ability-scores/ability-scores#TOC-Charisma-Cha-\">Cha</a>), <a href=\"https://www.d20pfsrd.com/skills/intimidate\">Intimidate</a>&nbsp;(<a href=\"https://www.d20pfsrd.com/basics-ability-scores/ability-scores#TOC-Charisma-Cha-\">Cha</a>), <a href=\"https://www.d20pfsrd.com/skills/knowledge\">Knowledge</a>&nbsp;(arcana) (<a href=\"https://www.d20pfsrd.com/basics-ability-scores/ability-scores#TOC-Intelligence-Int-\">Int</a>), <a href=\"https://www.d20pfsrd.com/skills/perception\">Perception</a>&nbsp;(<a href=\"https://www.d20pfsrd.com/basics-ability-scores/ability-scores#TOC-Wisdom-Wis-\">Wis</a>), <a href=\"https://www.d20pfsrd.com/skills/ride\">Ride</a>&nbsp;(<a href=\"https://www.d20pfsrd.com/basics-ability-scores/ability-scores#TOC-Dexterity-Dex-\">Dex</a>), <a href=\"https://www.d20pfsrd.com/skills/spellcraft\">Spellcraft</a>&nbsp;(<a href=\"https://www.d20pfsrd.com/basics-ability-scores/ability-scores#TOC-Intelligence-Int-\">Int</a>), <a href=\"https://www.d20pfsrd.com/skills/survival\">Survival</a>&nbsp;(<a href=\"https://www.d20pfsrd.com/basics-ability-scores/ability-scores#TOC-Wisdom-Wis-\">Wis</a>), and <a href=\"https://www.d20pfsrd.com/skills/swim\">Swim</a>&nbsp;(<a href=\"https://www.d20pfsrd.com/basics-ability-scores/ability-scores#TOC-Strength-Str-\">Str</a>).</p>\n<p><strong>Skill Ranks per Level</strong>: 4 +&nbsp;<a href=\"https://www.d20pfsrd.com/basics-ability-scores/ability-scores#TOC-Intelligence-Int-\">Int</a> modifier.</p>",
      "chat": "",
      "unidentified": ""
    },
    "tags": [],
    "changes": [],
    "changeFlags": {
      "loseDexToAC": false,
      "noStr": false,
      "noDex": false,
      "oneInt": false,
      "oneWis": false,
      "oneCha": false,
      "noEncumbrance": false,
      "mediumArmorFullSpeed": false,
      "heavyArmorFullSpeed": false
    },
    "links": {
      "children": [],
      "classAssociations": [
        {
          "id": "pf1.class-abilities.Aq9rx7oWgv7A7kiV",
          "dataType": "compendium",
          "name": "Bloodrager Bloodline",
          "img": "systems/pf1/icons/skills/red_33.jpg",
          "hiddenLinks": {},
          "level": 1,
          "_index": 0
        },
        {
          "id": "pf1.class-abilities.5op6M5xchCJNsYRt",
          "dataType": "compendium",
          "name": "Bloodrage",
          "img": "systems/pf1/icons/skills/red_12.jpg",
          "hiddenLinks": {},
          "level": 1,
          "_index": 1
        },
        {
          "id": "pf1.class-abilities.dvQdP8QfrDA9Lxzk",
          "dataType": "compendium",
          "name": "Fast Movement (BLO)",
          "img": "systems/pf1/icons/skills/armor_01.jpg",
          "hiddenLinks": {},
          "level": 1,
          "_index": 2
        },
        {
          "id": "pf1.class-abilities.7WaQxnVaaoL4AGr8",
          "dataType": "compendium",
          "name": "Uncanny Dodge",
          "img": "systems/pf1/icons/feats/wind-stance.jpg",
          "hiddenLinks": {},
          "level": 2,
          "_index": 3
        },
        {
          "id": "pf1.class-abilities.NoJMNxuXDTHzPMcm",
          "dataType": "compendium",
          "name": "Mighty Bloodrage",
          "img": "systems/pf1/icons/skills/red_17.jpg",
          "hiddenLinks": {},
          "level": 20,
          "_index": 4
        },
        {
          "id": "pf1.class-abilities.vETLfsVXQo1qG2PX",
          "dataType": "compendium",
          "name": "Tireless Bloodrage",
          "img": "systems/pf1/icons/skills/red_10.jpg",
          "hiddenLinks": {},
          "level": 17,
          "_index": 5
        },
        {
          "id": "pf1.class-abilities.Q3x319WbNkCssApD",
          "dataType": "compendium",
          "name": "Indomitable Will",
          "img": "systems/pf1/icons/feats/athletic.jpg",
          "hiddenLinks": {},
          "level": 14,
          "_index": 6
        },
        {
          "id": "pf1.class-abilities.FsOPunvM3kGqD32i",
          "dataType": "compendium",
          "name": "Greater Bloodrage",
          "img": "systems/pf1/icons/skills/red_19.jpg",
          "hiddenLinks": {},
          "level": 11,
          "_index": 7
        },
        {
          "id": "pf1.class-abilities.ZfnHhhTFQVo0Lj4P",
          "dataType": "compendium",
          "name": "Improved Uncanny Dodge",
          "img": "systems/pf1/icons/feats/wind-stance.jpg",
          "hiddenLinks": {},
          "level": 5,
          "_index": 8
        },
        {
          "id": "pf1.class-abilities.HFab4vfATqdqnlSJ",
          "dataType": "compendium",
          "name": "Blood Casting",
          "img": "systems/pf1/icons/skills/red_22.jpg",
          "hiddenLinks": {},
          "level": 4,
          "_index": 9
        },
        {
          "id": "pf1.class-abilities.vVkKDPniD09W5JgO",
          "dataType": "compendium",
          "name": "Eschew Materials",
          "img": "systems/pf1/icons/skills/nature_07.jpg",
          "hiddenLinks": {},
          "level": 4,
          "_index": 10
        },
        {
          "id": "pf1.class-abilities.xvBGDYUbsE4Ozean",
          "dataType": "compendium",
          "name": "Blood Sanctuary",
          "img": "systems/pf1/icons/skills/red_08.jpg",
          "hiddenLinks": {},
          "level": 3,
          "_index": 11
        },
        {
          "id": "pf1.class-abilities.AknYsE7Iirq0LXtj",
          "dataType": "compendium",
          "name": "Damage Reduction (BLO)",
          "img": "systems/pf1/icons/skills/blue_18.jpg",
          "hiddenLinks": {},
          "level": 7,
          "_index": 12
        }
      ]
    },
    "tag": "bloodrager",
    "useCustomTag": true,
    "armorProf": {
      "value": [
        "lgt",
        "med",
        "shl"
      ],
      "custom": ""
    },
    "weaponProf": {
      "value": [
        "sim",
        "mar"
      ],
      "custom": ""
    },
    "classType": "base",
    "levels": {
      "value": 0,
      "_deprecated": true
    },
    "level": 1,
    "hd": 10,
    "hp": 10,
    "bab": "high",
    "skillsPerLevel": 4,
    "savingThrows": {
      "fort": {
        "value": "high"
      },
      "ref": {
        "value": "low"
      },
      "will": {
        "value": "low"
      }
    },
    "fc": {
      "hp": {
        "value": 0
      },
      "skill": {
        "value": 0
      },
      "alt": {
        "value": 0
      }
    },
    "classSkills": {
      "acr": true,
      "apr": false,
      "art": false,
      "blf": false,
      "clm": true,
      "crf": true,
      "dip": false,
      "dev": false,
      "dis": false,
      "esc": false,
      "fly": false,
      "han": true,
      "hea": false,
      "int": true,
      "kar": true,
      "kdu": false,
      "ken": false,
      "kge": false,
      "khi": false,
      "klo": false,
      "kna": false,
      "kno": false,
      "kpl": false,
      "kre": false,
      "lin": false,
      "lor": false,
      "per": true,
      "prf": false,
      "pro": false,
      "rid": true,
      "sen": false,
      "slt": false,
      "spl": true,
      "ste": false,
      "sur": true,
      "swm": true,
      "umd": false
    },
    "extraDescription": {
      "value": "<h2>Weapon and Armor Proficiency</h2>\n<p>Bloodragers are proficient with all simple and martial weapons, light&nbsp;<a href=\"https://www.d20pfsrd.com/basics-ability-scores/glossary#TOC-Armor-Bonus\">armor</a>, medium&nbsp;<a href=\"https://www.d20pfsrd.com/basics-ability-scores/glossary#TOC-Armor-Bonus\">armor</a>, and shields (except tower shields). A bloodrager can cast bloodrager spells while wearing light armor or medium armor without incurring the normal arcane spell failure chance. This does not affect the arcane spell failure chance for arcane spells received from other classes. Like other arcane spellcasters, a bloodrager wearing heavy armor or wielding a shield incurs a chance of arcane spell failure if the spell in question has somatic&nbsp;<a href=\"https://www.d20pfsrd.com/magic#TOC-Components\">components</a>.</p>\n<h2>Bloodline</h2>\n<p>Each bloodrager has a source of magic somewhere in his heritage that empowers his bloodrages, bonus feats, and bonus spells. Sometimes this source reflects a distant blood relationship to a powerful being, or is due to an extreme event involving such a creature somewhere in his family’s past. Regardless of the source, this influence manifests in a number of ways. A bloodrager must pick one bloodline upon taking his first level of bloodrager. Once made, this choice cannot be changed.</p>\n<p>When choosing a bloodline, the bloodrager’s alignment doesn’t restrict his choices. A good bloodrager could come from an&nbsp;<a href=\"https://www.d20pfsrd.com/classes/hybrid-classes/bloodrager/bloodrager-bloodlines/paizo-bloodrager-bloodlines/abyssal\">abyssal bloodline</a>, a celestial bloodline could beget an evil bloodrager generations later, a bloodrager from an&nbsp;<a href=\"https://www.d20pfsrd.com/classes/hybrid-classes/bloodrager/bloodrager-bloodlines/paizo-bloodrager-bloodlines/infernal\">infernal bloodline</a>&nbsp;could be chaotic, and so on. Though his bloodline empowers him, it doesn’t dictate or limit his thoughts and behavior.</p>\n<p>The bloodrager gains bloodline powers at 1st level, 4th level, and every 4 levels thereafter. The bloodline powers a bloodrager gains are described in his chosen bloodline. For all&nbsp;<a href=\"https://www.d20pfsrd.com/magic#TOC-Spell-Like-Abilities-Sp-\">spell-like</a>&nbsp;bloodline powers, treat the character’s bloodrager level as the&nbsp;<a href=\"https://www.d20pfsrd.com/magic#TOC-Caster-Level\">caster level</a>.</p>\n<p>At 6th level and every 3 levels thereafter, a bloodrager receives one bonus feat chosen from a list specific to each bloodline. The bloodrager must meet the prerequisites for these bonus feats. At 7th, 10th, 13th, and 16th levels, a bloodrager learns an additional spell derived from his bloodline. These spells are in addition to the number of spells given on&nbsp;Table: Bloodrager. These spells cannot be exchanged for different spells at higher levels.</p>\n<p>If the bloodrager takes levels in another class that grants a bloodline, the bloodlines must be the same type, even if that means that the bloodline of one of the classes must change. Subject to GM discretion, the bloodrager can change his former&nbsp;<a href=\"https://www.d20pfsrd.com/classes/hybrid-classes/Bloodrager/#TOC-Bloodline\">bloodline</a>&nbsp;to make them conform.</p>\n<p><strong>Bloodline Mutations</strong>: Although heirs to similar arcane bloodlines may share commonalities, the unique circumstances in which a bloodline enters a bloodrager or&nbsp;<a href=\"https://www.d20pfsrd.com/classes/core-classes/sorcerer\">sorcerer’s</a>&nbsp;lineage can result in the manifestation of particularly strange or unusual bloodline powers known as mutations. Whenever a bloodrager or a&nbsp;<a href=\"https://www.d20pfsrd.com/classes/core-classes/sorcerer\">sorcerer</a>&nbsp;gains a new bloodline power, she can swap her bloodline power for a bloodline mutation whose prerequisites she meets. Once this choice is made, it cannot be changed, and a&nbsp;<a href=\"https://www.d20pfsrd.com/classes/hybrid-classes/bloodrager\">bloodrager</a>&nbsp;or&nbsp;<a href=\"https://www.d20pfsrd.com/classes/core-classes/sorcerer\">sorcerer</a>&nbsp;cannot swap a bloodline power that she has altered or replaced with an archetype for a bloodline mutation. A bloodrager need not be in a bloodrage to use her bloodline mutation powers. Alternatively, a bloodrager or&nbsp;<a href=\"https://www.d20pfsrd.com/classes/core-classes/sorcerer\">sorcerer</a>&nbsp;can select a bloodline mutation in place of a bloodline bonus feat, provided her class level is at least equal to the level of the bloodline ability the mutation normally replaces.&nbsp;<a href=\"https://www.d20pfsrd.com/classes/core-classes/sorcerer/bloodlines/bloodline-mutations\">The list of bloodline mutations can be found here</a>.</p>\n<h2>Bloodrager Bloodlines</h2>\n<p>When a bloodrager enters a bloodrage, he often takes on a physical transformation influenced by his bloodline and powered by the magic that roils within him. Unless otherwise specified, he gains the effects of his bloodline powers only while in a bloodrage; once the bloodrage ends, all powers from his bloodline immediately cease, and any physical changes the bloodrager underwent revert, restoring him to normal.</p>\n<ul class=\"ogn-childpages\" style=\"box-sizing: border-box; margin-top: 0px; margin-bottom: 10px; color: #333333; font-family: sans-serif;\">\n<li class=\"page new parent\" style=\"box-sizing: border-box;\"><a style=\"box-sizing: border-box; text-underline-position: under; color: #003965 !important;\" href=\"https://www.d20pfsrd.com/classes/hybrid-classes/bloodrager/bloodrager-bloodlines/paizo-bloodrager-bloodlines/aberrant/\">Aberrant</a></li>\n<li class=\"page new parent\" style=\"box-sizing: border-box;\"><a style=\"box-sizing: border-box; text-underline-position: under; color: #003965 !important;\" href=\"https://www.d20pfsrd.com/classes/hybrid-classes/bloodrager/bloodrager-bloodlines/paizo-bloodrager-bloodlines/abyssal/\">Abyssal</a></li>\n<li class=\"page new parent\" style=\"box-sizing: border-box;\"><a style=\"box-sizing: border-box; text-underline-position: under; color: #003965 !important;\" href=\"https://www.d20pfsrd.com/classes/hybrid-classes/bloodrager/bloodrager-bloodlines/paizo-bloodrager-bloodlines/aquatic-bloodline-bloodrager-bloodline/\">Aquatic</a></li>\n<li class=\"page new parent\" style=\"box-sizing: border-box;\"><a style=\"box-sizing: border-box; text-underline-position: under; color: #003965 !important;\" href=\"https://www.d20pfsrd.com/classes/hybrid-classes/bloodrager/bloodrager-bloodlines/paizo-bloodrager-bloodlines/arcane/\">Arcane</a></li>\n<li class=\"page new parent\" style=\"box-sizing: border-box;\"><a style=\"box-sizing: border-box; text-underline-position: under; color: #003965 !important;\" href=\"https://www.d20pfsrd.com/classes/hybrid-classes/bloodrager/bloodrager-bloodlines/paizo-bloodrager-bloodlines/black-blood-bloodline/\">Black Blood</a></li>\n<li class=\"page new parent\" style=\"box-sizing: border-box;\"><a style=\"box-sizing: border-box; text-underline-position: under; color: #003965 !important;\" href=\"https://www.d20pfsrd.com/classes/hybrid-classes/bloodrager/bloodrager-bloodlines/paizo-bloodrager-bloodlines/celestial/\">Celestial</a></li>\n<li class=\"page new parent\" style=\"box-sizing: border-box;\"><a style=\"box-sizing: border-box; text-underline-position: under; color: #003965 !important;\" href=\"https://www.d20pfsrd.com/classes/hybrid-classes/bloodrager/bloodrager-bloodlines/paizo-bloodrager-bloodlines/destined/\">Destined</a></li>\n<li class=\"page new parent\" style=\"box-sizing: border-box;\"><a style=\"box-sizing: border-box; text-underline-position: under; color: #003965 !important;\" href=\"https://www.d20pfsrd.com/classes/hybrid-classes/bloodrager/bloodrager-bloodlines/paizo-bloodrager-bloodlines/draconic/\">Draconic</a></li>\n<li class=\"page new parent\" style=\"box-sizing: border-box;\"><a style=\"box-sizing: border-box; text-underline-position: under; color: #003965 !important;\" href=\"https://www.d20pfsrd.com/classes/hybrid-classes/bloodrager/bloodrager-bloodlines/paizo-bloodrager-bloodlines/elemental/\">Elemental</a></li>\n<li class=\"page new parent\" style=\"box-sizing: border-box;\"><a style=\"box-sizing: border-box; text-underline-position: under; color: #003965 !important;\" href=\"https://www.d20pfsrd.com/classes/hybrid-classes/bloodrager/bloodrager-bloodlines/paizo-bloodrager-bloodlines/fey/\">Fey</a></li>\n<li class=\"page new parent\" style=\"box-sizing: border-box;\"><a style=\"box-sizing: border-box; text-underline-position: under; color: #003965 !important;\" href=\"https://www.d20pfsrd.com/classes/hybrid-classes/bloodrager/bloodrager-bloodlines/paizo-bloodrager-bloodlines/hag-bloodrager-bloodline/\">Hag</a></li>\n<li class=\"page new parent\" style=\"box-sizing: border-box;\"><a style=\"box-sizing: border-box; text-underline-position: under; color: #003965 !important;\" href=\"https://www.d20pfsrd.com/classes/hybrid-classes/bloodrager/bloodrager-bloodlines/paizo-bloodrager-bloodlines/infernal/\">Infernal</a></li>\n<li class=\"page new parent\" style=\"box-sizing: border-box;\"><a style=\"box-sizing: border-box; text-underline-position: under; color: #003965 !important;\" href=\"https://www.d20pfsrd.com/classes/hybrid-classes/bloodrager/bloodrager-bloodlines/paizo-bloodrager-bloodlines/kyton-bloodline/\">Kyton</a></li>\n<li class=\"page new parent\" style=\"box-sizing: border-box;\"><a style=\"box-sizing: border-box; text-underline-position: under; color: #003965 !important;\" href=\"https://www.d20pfsrd.com/classes/hybrid-classes/bloodrager/bloodrager-bloodlines/paizo-bloodrager-bloodlines/martyred-bloodrager-bloodline/\">Martyred</a></li>\n<li class=\"page new parent\" style=\"box-sizing: border-box;\"><a style=\"box-sizing: border-box; text-underline-position: under; color: #003965 !important;\" href=\"https://www.d20pfsrd.com/classes/hybrid-classes/bloodrager/bloodrager-bloodlines/paizo-bloodrager-bloodlines/medusa-bloodrager-bloodline/\">Medusa</a></li>\n<li class=\"page new parent\" style=\"box-sizing: border-box;\"><a style=\"box-sizing: border-box; text-underline-position: under; color: #003965 !important;\" href=\"https://www.d20pfsrd.com/classes/hybrid-classes/bloodrager/bloodrager-bloodlines/paizo-bloodrager-bloodlines/phoenix-bloodline-bloodrager-bloodline/\">Phoenix Bloodline</a></li>\n<li class=\"page new parent\" style=\"box-sizing: border-box;\"><a style=\"box-sizing: border-box; text-underline-position: under; color: #003965 !important;\" href=\"https://www.d20pfsrd.com/classes/hybrid-classes/bloodrager/bloodrager-bloodlines/paizo-bloodrager-bloodlines/salamander-bloodrager-bloodline/\">Salamander</a></li>\n<li class=\"page new parent\" style=\"box-sizing: border-box;\"><a style=\"box-sizing: border-box; text-underline-position: under; color: #003965 !important;\" href=\"https://www.d20pfsrd.com/classes/hybrid-classes/bloodrager/bloodrager-bloodlines/paizo-bloodrager-bloodlines/shadow/\">Shadow</a></li>\n<li class=\"page new parent\" style=\"box-sizing: border-box;\"><a style=\"box-sizing: border-box; text-underline-position: under; color: #003965 !important;\" href=\"https://www.d20pfsrd.com/classes/hybrid-classes/bloodrager/bloodrager-bloodlines/paizo-bloodrager-bloodlines/shapechanger-bloodrager-bloodline/\">Shapechanger</a></li>\n<li class=\"page new parent\" style=\"box-sizing: border-box;\"><a style=\"box-sizing: border-box; text-underline-position: under; color: #003965 !important;\" href=\"https://www.d20pfsrd.com/classes/hybrid-classes/bloodrager/bloodrager-bloodlines/paizo-bloodrager-bloodlines/sphinx-bloodrager-bloodline/\">Sphinx</a></li>\n<li class=\"page new parent\" style=\"box-sizing: border-box;\"><a style=\"box-sizing: border-box; text-underline-position: under; color: #003965 !important;\" href=\"https://www.d20pfsrd.com/classes/hybrid-classes/bloodrager/bloodrager-bloodlines/paizo-bloodrager-bloodlines/undead/\">Undead</a></li>\n<li class=\"page new parent\" style=\"box-sizing: border-box;\"><a style=\"box-sizing: border-box; text-underline-position: under; color: #003965 !important;\" href=\"https://www.d20pfsrd.com/classes/hybrid-classes/bloodrager/bloodrager-bloodlines/paizo-bloodrager-bloodlines/verdant-bloodrager-bloodline/\">Verdant</a></li>\n<li class=\"page new parent\" style=\"box-sizing: border-box;\"><a style=\"box-sizing: border-box; text-underline-position: under; color: #003965 !important;\" href=\"https://www.d20pfsrd.com/classes/hybrid-classes/bloodrager/bloodrager-bloodlines/paizo-bloodrager-bloodlines/vestige-bloodrager-bloodline/\">Vestige</a></li>\n</ul>\n<h2>Bloodrage (Su)</h2>\n<p>The bloodrager’s source of internal power grants him the ability to bloodrage.</p>\n<p>At 1st level, a bloodrager can bloodrage for a number of rounds per day equal to 4 + his&nbsp;<a href=\"https://www.d20pfsrd.com/basics-ability-scores/ability-scores#TOC-Constitution-Con-\">Constitution</a>&nbsp;modifier. At each level after 1st, he can bloodrage for 2 additional rounds per day. Temporary increases to&nbsp;<a href=\"https://www.d20pfsrd.com/basics-ability-scores/ability-scores#TOC-Constitution-Con-\">Constitution</a>&nbsp;(such as those gained from bloodraging or spells like&nbsp;<a href=\"https://www.d20pfsrd.com/magic/all-spells/b/bear-s-endurance\">bear’s endurance</a>) don’t increase the total number of rounds that a bloodrager can bloodrage per day. The total number of rounds of bloodrage per day is renewed after resting for 8 hours, although these hours need not be consecutive.</p>\n<p>A bloodrager can enter a bloodrage as a&nbsp;<a href=\"https://www.d20pfsrd.com/gamemastering/combat#TOC-Free-Actions\">free action</a>. While in a bloodrage, a bloodrager gains a +4&nbsp;<a href=\"https://www.d20pfsrd.com/basics-ability-scores/glossary#TOC-Morale-Bonus\">morale bonus</a>&nbsp;to his&nbsp;<a href=\"https://www.d20pfsrd.com/basics-ability-scores/ability-scores#TOC-Strength-Str-\">Strength</a>&nbsp;and&nbsp;<a href=\"https://www.d20pfsrd.com/basics-ability-scores/ability-scores#TOC-Constitution-Con-\">Constitution</a>, as well as a +2&nbsp;<a href=\"https://www.d20pfsrd.com/basics-ability-scores/glossary#TOC-Morale-Bonus\">morale bonus</a>&nbsp;on&nbsp;<a href=\"https://www.d20pfsrd.com/gamemastering/combat#TOC-Will\">Will</a>&nbsp;saves. In addition, he takes a –2 penalty to&nbsp;<a href=\"https://www.d20pfsrd.com/gamemastering/combat#TOC-Armor-Class\">Armor Class</a>. The increase to&nbsp;<a href=\"https://www.d20pfsrd.com/basics-ability-scores/ability-scores#TOC-Constitution-Con-\">Constitution</a>&nbsp;grants the bloodrager 2&nbsp;<a href=\"https://www.d20pfsrd.com/gamemastering/combat#TOC-Hit-Points\">hit points</a>&nbsp;per&nbsp;<a href=\"https://www.d20pfsrd.com/basics-ability-scores/glossary#TOC-Hit-Dice-HD-\">Hit Die</a>, but these disappear when the bloodrage ends and are not lost first like&nbsp;<a href=\"https://www.d20pfsrd.com/gamemastering/combat#TOC-Temporary-Hit-Points\">temporary hit points</a>. While bloodraging, a bloodrager cannot use any&nbsp;<a href=\"https://www.d20pfsrd.com/basics-ability-scores/ability-scores#TOC-Charisma-Cha-\">Charisma</a>-,&nbsp;<a href=\"https://www.d20pfsrd.com/basics-ability-scores/ability-scores#TOC-Dexterity-Dex-\">Dexterity</a>-, or&nbsp;<a href=\"https://www.d20pfsrd.com/basics-ability-scores/ability-scores#TOC-Intelligence-Int-\">Intelligence</a>-based skills (except&nbsp;<a href=\"https://www.d20pfsrd.com/skills/acrobatics\">Acrobatics</a>,&nbsp;<a href=\"https://www.d20pfsrd.com/skills/fly\">Fly</a>,&nbsp;<a href=\"https://www.d20pfsrd.com/skills/intimidate\">Intimidate</a>, and&nbsp;<a href=\"https://www.d20pfsrd.com/skills/ride\">Ride</a>) or any ability that requires patience or concentration.</p>\n<p>A bloodrager can end his bloodrage as a&nbsp;<a href=\"https://www.d20pfsrd.com/gamemastering/combat#TOC-Free-Actions\">free action</a>. When the bloodrage ends, he’s&nbsp;<a href=\"https://www.d20pfsrd.com/gamemastering/conditions#TOC-Fatigued\">fatigued</a>&nbsp;for a number of rounds equal to twice the number of rounds spent in the bloodrage. A bloodrager cannot enter a new bloodrage while&nbsp;<a href=\"https://www.d20pfsrd.com/gamemastering/conditions#TOC-Fatigued\">fatigued</a>&nbsp;or&nbsp;<a href=\"https://www.d20pfsrd.com/gamemastering/conditions#TOC-Exhausted\">exhausted</a>, but can otherwise enter bloodrage multiple times during a single encounter or combat. If a bloodrager falls&nbsp;<a href=\"https://www.d20pfsrd.com/gamemastering/conditions#TOC-Unconscious\">unconscious</a>, his bloodrage immediately ends, placing him in peril of death.</p>\n<p>Bloodrage counts as the&nbsp;<a href=\"https://www.d20pfsrd.com/classes/core-classes/barbarian\">barbarian’s</a>&nbsp;<a href=\"https://www.d20pfsrd.com/classes/core-classes/barbarian#TOC-Rage-Ex-\">rage</a>&nbsp;class feature for the purpose of feat prerequisites, feat abilities, magic item abilities, and spell effects.</p>\n<h2>Fast Movement (Ex)</h2>\n<p>A bloodrager’s land speed is faster than is normal for his race by 10 feet. This benefit applies only when he is wearing no&nbsp;<a href=\"https://www.d20pfsrd.com/basics-ability-scores/glossary#TOC-Armor-Bonus\">armor</a>, light&nbsp;<a href=\"https://www.d20pfsrd.com/basics-ability-scores/glossary#TOC-Armor-Bonus\">armor</a>, or medium&nbsp;<a href=\"https://www.d20pfsrd.com/basics-ability-scores/glossary#TOC-Armor-Bonus\">armor</a>, and not carrying a heavy load. Apply this bonus before modifying the bloodrager’s speed due to any armor worn or load carried. This bonus stacks with any other bonuses to the bloodrager’s land speed.</p>\n<h2>Uncanny Dodge (Ex)</h2>\n<p>At 2nd level, a bloodrager can react to danger before his senses would normally allow him to do so. He cannot be caught&nbsp;<a href=\"https://www.d20pfsrd.com/gamemastering/conditions#TOC-Flat-Footed\">flat-footed</a>, nor does he lose his&nbsp;<a href=\"https://www.d20pfsrd.com/basics-ability-scores/ability-scores#TOC-Dexterity-Dex-\">Dexterity</a>&nbsp;bonus to AC if the attacker is&nbsp;<a href=\"https://www.d20pfsrd.com/gamemastering/conditions#TOC-Invisible\">invisible</a>. He still loses his&nbsp;<a href=\"https://www.d20pfsrd.com/basics-ability-scores/ability-scores#TOC-Dexterity-Dex-\">Dexterity</a>&nbsp;bonus to AC if immobilized. A bloodrager with this ability can still lose his&nbsp;<a href=\"https://www.d20pfsrd.com/basics-ability-scores/ability-scores#TOC-Dexterity-Dex-\">Dexterity</a>&nbsp;bonus to AC if an opponent successfully uses the&nbsp;<a href=\"https://www.d20pfsrd.com/gamemastering/combat#TOC-Feint\">feint</a>&nbsp;action against him.</p>\n<p>If a bloodrager already possesses&nbsp;<a href=\"https://www.d20pfsrd.com/classes/core-classes/rogue#TOC-Uncanny-Dodge-Ex-\">uncanny dodge</a>&nbsp;from a different class, he automatically gains&nbsp;<a href=\"https://www.d20pfsrd.com/classes/core-classes/rogue#TOC-Improved-Uncanny-Dodge-Ex-\">improved uncanny dodge</a>&nbsp;(see below) instead.</p>\n<h2>Blood Sanctuary (Su)</h2>\n<p>At 3rd level, due to the power of his blood, a bloodrager can stand confidently amid the effects of spells cast by himself or his allies. He gains a +2 bonus on saving throws against spells that he or an ally casts.</p>\n<h2>Blood Casting (Su)</h2>\n<p>At 4th level, the bloodrager gains the ability to cast spells even while bloodraging. He can also cast these spells defensively and can make&nbsp;<a href=\"https://www.d20pfsrd.com/magic#TOC-Concentration\">concentration</a>&nbsp;checks for these spells while bloodraging. While bloodraging, he can cast and concentrate on only his bloodrager spells (see below); spells from other classes cannot be cast during this state.</p>\n<h2>Eschew Materials</h2>\n<p>At 4th level, the bloodrager gains&nbsp;<a href=\"https://www.d20pfsrd.com/feats/general-feats/eschew-materials\">Eschew Materials</a>&nbsp;as a bonus feat.</p>\n<h2>Spell Casting</h2>\n<p>Beginning at 4th level, a bloodrager gains the ability to cast a small number of arcane spells drawn from the&nbsp;<a href=\"https://www.d20pfsrd.com/magic/spell-lists-and-domains/bloodrager\">bloodrager spell list</a>. To learn or cast a spell, a bloodrager must have a&nbsp;<a href=\"https://www.d20pfsrd.com/basics-ability-scores/ability-scores#TOC-Charisma-Cha-\">Charisma</a>&nbsp;score equal to at least 10 + the spell level. He can cast spells he knows without preparing them ahead of time. The saving throw DC against a bloodrager’s spell is 10 + the spell level + the bloodrager’s&nbsp;<a href=\"https://www.d20pfsrd.com/basics-ability-scores/ability-scores#TOC-Charisma-Cha-\">Charisma</a>&nbsp;modifier.</p>\n<p>Like other spellcasters, a bloodrager can cast only a certain number of spells of each level per day. His base daily spell allotment is given on&nbsp;Table: Bloodrager. In addition, he receives bonus spells per day if he has a high&nbsp;<a href=\"https://www.d20pfsrd.com/basics-ability-scores/ability-scores#TOC-Charisma-Cha-\">Charisma</a>&nbsp;score. The bloodrager does not need to prepare these spells in advance; he can cast any spell he knows at any time, assuming he hasn’t yet used up his allotment of spells per day for the spell’s level.</p>\n<p>The bloodrager’s selection of spells is limited. At 4th level, a bloodrager knows two 1st-level spells of his choice. A bloodrager gains more spells as he increases in level, as indicated on&nbsp;Table: Bloodrager Spells Known. Unlike spells per day, the number of spells a bloodrager knows is not affected by his&nbsp;<a href=\"https://www.d20pfsrd.com/basics-ability-scores/ability-scores#TOC-Charisma-Cha-\">Charisma</a>&nbsp;score, but it is affected by any bonus spells he gains from his bloodline.&nbsp;At 8th level and every 3 levels thereafter, a bloodrager can choose to learn a new spell in place of one he already knows. This swap follows all the same rules as for a&nbsp;<a href=\"https://www.d20pfsrd.com/classes/core-classes/sorcerer\">sorcerer</a>.</p>\n<table style=\"box-sizing: border-box; border-spacing: 0px; background-color: #ffffff; margin: 10px; table-layout: fixed; border-color: #888888; min-width: 200px; color: #333333; font-family: Varela, sans-serif; height: 462px;\" border=\"1\" cellpadding=\"5\">\n<thead style=\"box-sizing: border-box; background-color: #cfe2f3;\">\n<tr style=\"box-sizing: border-box; height: 21px;\">\n<th class=\"text\" style=\"box-sizing: border-box; padding: 2px; text-align: left; height: 42px; width: 50px; border: 1px solid #888888;\" rowspan=\"2\">Level</th>\n<th class=\"text\" style=\"box-sizing: border-box; padding: 2px; text-align: left; height: 21px; width: 200px; border: 1px solid #888888;\" colspan=\"4\">Spells Known</th>\n</tr>\n<tr style=\"box-sizing: border-box; background-color: #f3f3f3; height: 21px;\">\n<th class=\"number\" style=\"box-sizing: border-box; padding: 2px; text-align: left; background-color: #cfe2f3; height: 21px; width: 45px; border: 1px solid #888888;\">1st</th>\n<th class=\"number\" style=\"box-sizing: border-box; padding: 2px; text-align: left; background-color: #cfe2f3; height: 21px; width: 45px; border: 1px solid #888888;\">2nd</th>\n<th class=\"number\" style=\"box-sizing: border-box; padding: 2px; text-align: left; background-color: #cfe2f3; height: 21px; width: 45px; border: 1px solid #888888;\">3rd</th>\n<th class=\"number\" style=\"box-sizing: border-box; padding: 2px; text-align: left; background-color: #cfe2f3; height: 21px; width: 45px; border: 1px solid #888888;\">4th</th>\n</tr>\n</thead>\n<tbody style=\"box-sizing: border-box;\">\n<tr style=\"box-sizing: border-box; height: 21px;\">\n<td class=\"number\" style=\"box-sizing: border-box; padding: 2px; vertical-align: top; text-align: center; height: 21px; width: 50px; border: 1px solid #888888;\">1st</td>\n<td class=\"marker\" style=\"box-sizing: border-box; padding: 2px; vertical-align: top; text-align: center; height: 21px; width: 45px; border: 1px solid #888888;\">—</td>\n<td class=\"marker\" style=\"box-sizing: border-box; padding: 2px; vertical-align: top; text-align: center; height: 21px; width: 45px; border: 1px solid #888888;\">—</td>\n<td class=\"marker\" style=\"box-sizing: border-box; padding: 2px; vertical-align: top; text-align: center; height: 21px; width: 45px; border: 1px solid #888888;\">—</td>\n<td class=\"marker\" style=\"box-sizing: border-box; padding: 2px; vertical-align: top; text-align: center; height: 21px; width: 45px; border: 1px solid #888888;\">—</td>\n</tr>\n<tr style=\"box-sizing: border-box; background-color: #f3f3f3; height: 21px;\">\n<td class=\"number\" style=\"box-sizing: border-box; padding: 2px; vertical-align: top; text-align: center; height: 21px; width: 50px; border: 1px solid #888888;\">2nd</td>\n<td class=\"marker\" style=\"box-sizing: border-box; padding: 2px; vertical-align: top; text-align: center; height: 21px; width: 45px; border: 1px solid #888888;\">—</td>\n<td class=\"marker\" style=\"box-sizing: border-box; padding: 2px; vertical-align: top; text-align: center; height: 21px; width: 45px; border: 1px solid #888888;\">—</td>\n<td class=\"marker\" style=\"box-sizing: border-box; padding: 2px; vertical-align: top; text-align: center; height: 21px; width: 45px; border: 1px solid #888888;\">—</td>\n<td class=\"marker\" style=\"box-sizing: border-box; padding: 2px; vertical-align: top; text-align: center; height: 21px; width: 45px; border: 1px solid #888888;\">—</td>\n</tr>\n<tr style=\"box-sizing: border-box; height: 21px;\">\n<td class=\"number\" style=\"box-sizing: border-box; padding: 2px; vertical-align: top; text-align: center; height: 21px; width: 50px; border: 1px solid #888888;\">3rd</td>\n<td class=\"marker\" style=\"box-sizing: border-box; padding: 2px; vertical-align: top; text-align: center; height: 21px; width: 45px; border: 1px solid #888888;\">—</td>\n<td class=\"marker\" style=\"box-sizing: border-box; padding: 2px; vertical-align: top; text-align: center; height: 21px; width: 45px; border: 1px solid #888888;\">—</td>\n<td class=\"marker\" style=\"box-sizing: border-box; padding: 2px; vertical-align: top; text-align: center; height: 21px; width: 45px; border: 1px solid #888888;\">—</td>\n<td class=\"marker\" style=\"box-sizing: border-box; padding: 2px; vertical-align: top; text-align: center; height: 21px; width: 45px; border: 1px solid #888888;\">—</td>\n</tr>\n<tr style=\"box-sizing: border-box; background-color: #f3f3f3; height: 21px;\">\n<td class=\"number\" style=\"box-sizing: border-box; padding: 2px; vertical-align: top; text-align: center; height: 21px; width: 50px; border: 1px solid #888888;\">4th</td>\n<td class=\"number\" style=\"box-sizing: border-box; padding: 2px; vertical-align: top; text-align: center; height: 21px; width: 45px; border: 1px solid #888888;\">2</td>\n<td class=\"marker\" style=\"box-sizing: border-box; padding: 2px; vertical-align: top; text-align: center; height: 21px; width: 45px; border: 1px solid #888888;\">—</td>\n<td class=\"marker\" style=\"box-sizing: border-box; padding: 2px; vertical-align: top; text-align: center; height: 21px; width: 45px; border: 1px solid #888888;\">—</td>\n<td class=\"marker\" style=\"box-sizing: border-box; padding: 2px; vertical-align: top; text-align: center; height: 21px; width: 45px; border: 1px solid #888888;\">—</td>\n</tr>\n<tr style=\"box-sizing: border-box; height: 21px;\">\n<td class=\"number\" style=\"box-sizing: border-box; padding: 2px; vertical-align: top; text-align: center; height: 21px; width: 50px; border: 1px solid #888888;\">5th</td>\n<td class=\"number\" style=\"box-sizing: border-box; padding: 2px; vertical-align: top; text-align: center; height: 21px; width: 45px; border: 1px solid #888888;\">3</td>\n<td class=\"marker\" style=\"box-sizing: border-box; padding: 2px; vertical-align: top; text-align: center; height: 21px; width: 45px; border: 1px solid #888888;\">—</td>\n<td class=\"marker\" style=\"box-sizing: border-box; padding: 2px; vertical-align: top; text-align: center; height: 21px; width: 45px; border: 1px solid #888888;\">—</td>\n<td class=\"marker\" style=\"box-sizing: border-box; padding: 2px; vertical-align: top; text-align: center; height: 21px; width: 45px; border: 1px solid #888888;\">—</td>\n</tr>\n<tr style=\"box-sizing: border-box; background-color: #f3f3f3; height: 21px;\">\n<td class=\"number\" style=\"box-sizing: border-box; padding: 2px; vertical-align: top; text-align: center; height: 21px; width: 50px; border: 1px solid #888888;\">6th</td>\n<td class=\"number\" style=\"box-sizing: border-box; padding: 2px; vertical-align: top; text-align: center; height: 21px; width: 45px; border: 1px solid #888888;\">4</td>\n<td class=\"marker\" style=\"box-sizing: border-box; padding: 2px; vertical-align: top; text-align: center; height: 21px; width: 45px; border: 1px solid #888888;\">—</td>\n<td class=\"marker\" style=\"box-sizing: border-box; padding: 2px; vertical-align: top; text-align: center; height: 21px; width: 45px; border: 1px solid #888888;\">—</td>\n<td class=\"marker\" style=\"box-sizing: border-box; padding: 2px; vertical-align: top; text-align: center; height: 21px; width: 45px; border: 1px solid #888888;\">—</td>\n</tr>\n<tr style=\"box-sizing: border-box; height: 21px;\">\n<td class=\"number\" style=\"box-sizing: border-box; padding: 2px; vertical-align: top; text-align: center; height: 21px; width: 50px; border: 1px solid #888888;\">7th</td>\n<td class=\"number\" style=\"box-sizing: border-box; padding: 2px; vertical-align: top; text-align: center; height: 21px; width: 45px; border: 1px solid #888888;\">4</td>\n<td class=\"number\" style=\"box-sizing: border-box; padding: 2px; vertical-align: top; text-align: center; height: 21px; width: 45px; border: 1px solid #888888;\">2</td>\n<td class=\"marker\" style=\"box-sizing: border-box; padding: 2px; vertical-align: top; text-align: center; height: 21px; width: 45px; border: 1px solid #888888;\">—</td>\n<td class=\"marker\" style=\"box-sizing: border-box; padding: 2px; vertical-align: top; text-align: center; height: 21px; width: 45px; border: 1px solid #888888;\">—</td>\n</tr>\n<tr style=\"box-sizing: border-box; background-color: #f3f3f3; height: 21px;\">\n<td class=\"number\" style=\"box-sizing: border-box; padding: 2px; vertical-align: top; text-align: center; height: 21px; width: 50px; border: 1px solid #888888;\">8th</td>\n<td class=\"number\" style=\"box-sizing: border-box; padding: 2px; vertical-align: top; text-align: center; height: 21px; width: 45px; border: 1px solid #888888;\">4</td>\n<td class=\"number\" style=\"box-sizing: border-box; padding: 2px; vertical-align: top; text-align: center; height: 21px; width: 45px; border: 1px solid #888888;\">3</td>\n<td class=\"marker\" style=\"box-sizing: border-box; padding: 2px; vertical-align: top; text-align: center; height: 21px; width: 45px; border: 1px solid #888888;\">—</td>\n<td class=\"marker\" style=\"box-sizing: border-box; padding: 2px; vertical-align: top; text-align: center; height: 21px; width: 45px; border: 1px solid #888888;\">—</td>\n</tr>\n<tr style=\"box-sizing: border-box; height: 21px;\">\n<td class=\"number\" style=\"box-sizing: border-box; padding: 2px; vertical-align: top; text-align: center; height: 21px; width: 50px; border: 1px solid #888888;\">9th</td>\n<td class=\"number\" style=\"box-sizing: border-box; padding: 2px; vertical-align: top; text-align: center; height: 21px; width: 45px; border: 1px solid #888888;\">5</td>\n<td class=\"number\" style=\"box-sizing: border-box; padding: 2px; vertical-align: top; text-align: center; height: 21px; width: 45px; border: 1px solid #888888;\">4</td>\n<td class=\"marker\" style=\"box-sizing: border-box; padding: 2px; vertical-align: top; text-align: center; height: 21px; width: 45px; border: 1px solid #888888;\">—</td>\n<td class=\"marker\" style=\"box-sizing: border-box; padding: 2px; vertical-align: top; text-align: center; height: 21px; width: 45px; border: 1px solid #888888;\">—</td>\n</tr>\n<tr style=\"box-sizing: border-box; background-color: #f3f3f3; height: 21px;\">\n<td class=\"number\" style=\"box-sizing: border-box; padding: 2px; vertical-align: top; text-align: center; height: 21px; width: 50px; border: 1px solid #888888;\">10th</td>\n<td class=\"number\" style=\"box-sizing: border-box; padding: 2px; vertical-align: top; text-align: center; height: 21px; width: 45px; border: 1px solid #888888;\">5</td>\n<td class=\"number\" style=\"box-sizing: border-box; padding: 2px; vertical-align: top; text-align: center; height: 21px; width: 45px; border: 1px solid #888888;\">4</td>\n<td class=\"number\" style=\"box-sizing: border-box; padding: 2px; vertical-align: top; text-align: center; height: 21px; width: 45px; border: 1px solid #888888;\">2</td>\n<td class=\"marker\" style=\"box-sizing: border-box; padding: 2px; vertical-align: top; text-align: center; height: 21px; width: 45px; border: 1px solid #888888;\">—</td>\n</tr>\n<tr style=\"box-sizing: border-box; height: 21px;\">\n<td class=\"number\" style=\"box-sizing: border-box; padding: 2px; vertical-align: top; text-align: center; height: 21px; width: 50px; border: 1px solid #888888;\">11th</td>\n<td class=\"number\" style=\"box-sizing: border-box; padding: 2px; vertical-align: top; text-align: center; height: 21px; width: 45px; border: 1px solid #888888;\">5</td>\n<td class=\"number\" style=\"box-sizing: border-box; padding: 2px; vertical-align: top; text-align: center; height: 21px; width: 45px; border: 1px solid #888888;\">4</td>\n<td class=\"number\" style=\"box-sizing: border-box; padding: 2px; vertical-align: top; text-align: center; height: 21px; width: 45px; border: 1px solid #888888;\">3</td>\n<td class=\"marker\" style=\"box-sizing: border-box; padding: 2px; vertical-align: top; text-align: center; height: 21px; width: 45px; border: 1px solid #888888;\">—</td>\n</tr>\n<tr style=\"box-sizing: border-box; background-color: #f3f3f3; height: 21px;\">\n<td class=\"number\" style=\"box-sizing: border-box; padding: 2px; vertical-align: top; text-align: center; height: 21px; width: 50px; border: 1px solid #888888;\">12th</td>\n<td class=\"number\" style=\"box-sizing: border-box; padding: 2px; vertical-align: top; text-align: center; height: 21px; width: 45px; border: 1px solid #888888;\">6</td>\n<td class=\"number\" style=\"box-sizing: border-box; padding: 2px; vertical-align: top; text-align: center; height: 21px; width: 45px; border: 1px solid #888888;\">5</td>\n<td class=\"number\" style=\"box-sizing: border-box; padding: 2px; vertical-align: top; text-align: center; height: 21px; width: 45px; border: 1px solid #888888;\">4</td>\n<td class=\"marker\" style=\"box-sizing: border-box; padding: 2px; vertical-align: top; text-align: center; height: 21px; width: 45px; border: 1px solid #888888;\">—</td>\n</tr>\n<tr style=\"box-sizing: border-box; height: 21px;\">\n<td class=\"number\" style=\"box-sizing: border-box; padding: 2px; vertical-align: top; text-align: center; height: 21px; width: 50px; border: 1px solid #888888;\">13th</td>\n<td class=\"number\" style=\"box-sizing: border-box; padding: 2px; vertical-align: top; text-align: center; height: 21px; width: 45px; border: 1px solid #888888;\">6</td>\n<td class=\"number\" style=\"box-sizing: border-box; padding: 2px; vertical-align: top; text-align: center; height: 21px; width: 45px; border: 1px solid #888888;\">5</td>\n<td class=\"number\" style=\"box-sizing: border-box; padding: 2px; vertical-align: top; text-align: center; height: 21px; width: 45px; border: 1px solid #888888;\">4</td>\n<td class=\"number\" style=\"box-sizing: border-box; padding: 2px; vertical-align: top; text-align: center; height: 21px; width: 45px; border: 1px solid #888888;\">2</td>\n</tr>\n<tr style=\"box-sizing: border-box; background-color: #f3f3f3; height: 21px;\">\n<td class=\"number\" style=\"box-sizing: border-box; padding: 2px; vertical-align: top; text-align: center; height: 21px; width: 50px; border: 1px solid #888888;\">14th</td>\n<td class=\"number\" style=\"box-sizing: border-box; padding: 2px; vertical-align: top; text-align: center; height: 21px; width: 45px; border: 1px solid #888888;\">6</td>\n<td class=\"number\" style=\"box-sizing: border-box; padding: 2px; vertical-align: top; text-align: center; height: 21px; width: 45px; border: 1px solid #888888;\">5</td>\n<td class=\"number\" style=\"box-sizing: border-box; padding: 2px; vertical-align: top; text-align: center; height: 21px; width: 45px; border: 1px solid #888888;\">4</td>\n<td class=\"number\" style=\"box-sizing: border-box; padding: 2px; vertical-align: top; text-align: center; height: 21px; width: 45px; border: 1px solid #888888;\">3</td>\n</tr>\n<tr style=\"box-sizing: border-box; height: 21px;\">\n<td class=\"number\" style=\"box-sizing: border-box; padding: 2px; vertical-align: top; text-align: center; height: 21px; width: 50px; border: 1px solid #888888;\">15th</td>\n<td class=\"number\" style=\"box-sizing: border-box; padding: 2px; vertical-align: top; text-align: center; height: 21px; width: 45px; border: 1px solid #888888;\">6</td>\n<td class=\"number\" style=\"box-sizing: border-box; padding: 2px; vertical-align: top; text-align: center; height: 21px; width: 45px; border: 1px solid #888888;\">6</td>\n<td class=\"number\" style=\"box-sizing: border-box; padding: 2px; vertical-align: top; text-align: center; height: 21px; width: 45px; border: 1px solid #888888;\">5</td>\n<td class=\"number\" style=\"box-sizing: border-box; padding: 2px; vertical-align: top; text-align: center; height: 21px; width: 45px; border: 1px solid #888888;\">4</td>\n</tr>\n<tr style=\"box-sizing: border-box; background-color: #f3f3f3; height: 21px;\">\n<td class=\"number\" style=\"box-sizing: border-box; padding: 2px; vertical-align: top; text-align: center; height: 21px; width: 50px; border: 1px solid #888888;\">16th</td>\n<td class=\"number\" style=\"box-sizing: border-box; padding: 2px; vertical-align: top; text-align: center; height: 21px; width: 45px; border: 1px solid #888888;\">6</td>\n<td class=\"number\" style=\"box-sizing: border-box; padding: 2px; vertical-align: top; text-align: center; height: 21px; width: 45px; border: 1px solid #888888;\">6</td>\n<td class=\"number\" style=\"box-sizing: border-box; padding: 2px; vertical-align: top; text-align: center; height: 21px; width: 45px; border: 1px solid #888888;\">5</td>\n<td class=\"number\" style=\"box-sizing: border-box; padding: 2px; vertical-align: top; text-align: center; height: 21px; width: 45px; border: 1px solid #888888;\">4</td>\n</tr>\n<tr style=\"box-sizing: border-box; height: 21px;\">\n<td class=\"number\" style=\"box-sizing: border-box; padding: 2px; vertical-align: top; text-align: center; height: 21px; width: 50px; border: 1px solid #888888;\">17th</td>\n<td class=\"number\" style=\"box-sizing: border-box; padding: 2px; vertical-align: top; text-align: center; height: 21px; width: 45px; border: 1px solid #888888;\">6</td>\n<td class=\"number\" style=\"box-sizing: border-box; padding: 2px; vertical-align: top; text-align: center; height: 21px; width: 45px; border: 1px solid #888888;\">6</td>\n<td class=\"number\" style=\"box-sizing: border-box; padding: 2px; vertical-align: top; text-align: center; height: 21px; width: 45px; border: 1px solid #888888;\">5</td>\n<td class=\"number\" style=\"box-sizing: border-box; padding: 2px; vertical-align: top; text-align: center; height: 21px; width: 45px; border: 1px solid #888888;\">4</td>\n</tr>\n<tr style=\"box-sizing: border-box; background-color: #f3f3f3; height: 21px;\">\n<td class=\"number\" style=\"box-sizing: border-box; padding: 2px; vertical-align: top; text-align: center; height: 21px; width: 50px; border: 1px solid #888888;\">18th</td>\n<td class=\"number\" style=\"box-sizing: border-box; padding: 2px; vertical-align: top; text-align: center; height: 21px; width: 45px; border: 1px solid #888888;\">6</td>\n<td class=\"number\" style=\"box-sizing: border-box; padding: 2px; vertical-align: top; text-align: center; height: 21px; width: 45px; border: 1px solid #888888;\">6</td>\n<td class=\"number\" style=\"box-sizing: border-box; padding: 2px; vertical-align: top; text-align: center; height: 21px; width: 45px; border: 1px solid #888888;\">6</td>\n<td class=\"number\" style=\"box-sizing: border-box; padding: 2px; vertical-align: top; text-align: center; height: 21px; width: 45px; border: 1px solid #888888;\">5</td>\n</tr>\n<tr style=\"box-sizing: border-box; height: 21px;\">\n<td class=\"number\" style=\"box-sizing: border-box; padding: 2px; vertical-align: top; text-align: center; height: 21px; width: 50px; border: 1px solid #888888;\">19th</td>\n<td class=\"number\" style=\"box-sizing: border-box; padding: 2px; vertical-align: top; text-align: center; height: 21px; width: 45px; border: 1px solid #888888;\">6</td>\n<td class=\"number\" style=\"box-sizing: border-box; padding: 2px; vertical-align: top; text-align: center; height: 21px; width: 45px; border: 1px solid #888888;\">6</td>\n<td class=\"number\" style=\"box-sizing: border-box; padding: 2px; vertical-align: top; text-align: center; height: 21px; width: 45px; border: 1px solid #888888;\">6</td>\n<td class=\"number\" style=\"box-sizing: border-box; padding: 2px; vertical-align: top; text-align: center; height: 21px; width: 45px; border: 1px solid #888888;\">5</td>\n</tr>\n<tr style=\"box-sizing: border-box; background-color: #f3f3f3; height: 21px;\">\n<td class=\"number\" style=\"box-sizing: border-box; padding: 2px; vertical-align: top; text-align: center; height: 21px; width: 50px; border: 1px solid #888888;\">20th</td>\n<td class=\"number\" style=\"box-sizing: border-box; padding: 2px; vertical-align: top; text-align: center; height: 21px; width: 45px; border: 1px solid #888888;\">6</td>\n<td class=\"number\" style=\"box-sizing: border-box; padding: 2px; vertical-align: top; text-align: center; height: 21px; width: 45px; border: 1px solid #888888;\">6</td>\n<td class=\"number\" style=\"box-sizing: border-box; padding: 2px; vertical-align: top; text-align: center; height: 21px; width: 45px; border: 1px solid #888888;\">6</td>\n<td class=\"number\" style=\"box-sizing: border-box; padding: 2px; vertical-align: top; text-align: center; height: 21px; width: 45px; border: 1px solid #888888;\">5</td>\n</tr>\n</tbody>\n</table>\n<h2>Improved Uncanny Dodge (Ex)</h2>\n<p>At 5th level, a bloodrager can no longer be&nbsp;<a href=\"https://www.d20pfsrd.com/gamemastering/combat#TOC-Flanking\">flanked</a>. This defense denies&nbsp;<a href=\"https://www.d20pfsrd.com/classes/core-classes/rogue\">rogues</a>&nbsp;(or other classes with the&nbsp;<a href=\"https://www.d20pfsrd.com/classes/core-classes/rogue#TOC-Sneak-Attack\">sneak attack</a>&nbsp;ability) the ability to&nbsp;<a href=\"https://www.d20pfsrd.com/classes/core-classes/rogue#TOC-Sneak-Attack\">sneak attack</a>&nbsp;the bloodrager by&nbsp;<a href=\"https://www.d20pfsrd.com/gamemastering/combat#TOC-Flanking\">flanking</a>&nbsp;him, unless the attacker has at least four more&nbsp;<a href=\"https://www.d20pfsrd.com/classes/core-classes/rogue\">rogue</a>&nbsp;levels (or levels in the class granting&nbsp;<a href=\"https://www.d20pfsrd.com/classes/core-classes/rogue#TOC-Sneak-Attack\">sneak attack</a>) than the target has bloodrager levels.</p>\n<p>If a character already has&nbsp;<a href=\"https://www.d20pfsrd.com/classes/core-classes/rogue#TOC-Uncanny-Dodge-Ex-\">uncanny dodge</a>&nbsp;from another class, the levels from the classes that grant&nbsp;<a href=\"https://www.d20pfsrd.com/classes/core-classes/rogue#TOC-Uncanny-Dodge-Ex-\">uncanny dodge</a>&nbsp;stack when determining the minimum&nbsp;<a href=\"https://www.d20pfsrd.com/classes/core-classes/rogue\">rogue</a>&nbsp;level required to&nbsp;<a href=\"https://www.d20pfsrd.com/gamemastering/combat#TOC-Flanking\">flank</a>&nbsp;the character.</p>\n<h2>Damage Reduction (Ex)</h2>\n<p>At 7th level, a bloodrager gains&nbsp;<a href=\"https://www.d20pfsrd.com/gamemastering/special-abilities#TOC-Damage-Reduction\">damage reduction</a>. Subtract 1 from the damage the bloodrager takes each time he is dealt damage from a weapon or a&nbsp;<a href=\"https://www.d20pfsrd.com/bestiary/rules-for-monsters/universal-monster-rules#TOC-Natural-Attacks\">natural attack</a>. At 10th level, and every 3 levels thereafter, this&nbsp;<a href=\"https://www.d20pfsrd.com/gamemastering/special-abilities#TOC-Damage-Reduction\">damage reduction</a>&nbsp;increases by 1 point.&nbsp;<a href=\"https://www.d20pfsrd.com/classes/core-classes/barbarian#TOC-Damage-Reduction-Ex-\">Damage Reduction</a>&nbsp;can reduce damage to 0, but not below 0.</p>\n<h2>Greater Bloodrage (Su)</h2>\n<p>At 11th level, when a bloodrager enters a bloodrage, the&nbsp;<a href=\"https://www.d20pfsrd.com/basics-ability-scores/glossary#TOC-Morale-Bonus\">morale bonus</a>&nbsp;to his&nbsp;<a href=\"https://www.d20pfsrd.com/basics-ability-scores/ability-scores#TOC-Strength-Str-\">Strength</a>&nbsp;and&nbsp;<a href=\"https://www.d20pfsrd.com/basics-ability-scores/ability-scores#TOC-Constitution-Con-\">Constitution</a>&nbsp;increases to +6 and the&nbsp;<a href=\"https://www.d20pfsrd.com/basics-ability-scores/glossary#TOC-Morale-Bonus\">morale bonus</a>&nbsp;on his&nbsp;<a href=\"https://www.d20pfsrd.com/gamemastering/combat#TOC-Will\">Will</a>&nbsp;saves increases to +3. In addition, upon entering a bloodrage, the bloodrager can apply the effects a bloodrager spell he knows of 2nd level or lower to himself. The spell must have a range of&nbsp;<a href=\"https://www.d20pfsrd.com/gamemastering/combat#TOC-Touch-Attacks\">touch</a>&nbsp;or personal. If the spell’s duration is greater than 1 round, it instead lasts for the duration of the bloodrage. This use consumes a bloodrager spell slot, as if he had cast the spell; he must have the spell slot available to take advantage of this effect.</p>\n<p>Greater bloodrage counts as the&nbsp;<a href=\"https://www.d20pfsrd.com/classes/core-classes/barbarian\">barbarian’s</a>&nbsp;<a href=\"https://www.d20pfsrd.com/classes/core-classes/barbarian#TOC-Rage-Ex-\">greater rage</a>&nbsp;ability for the purposes of feat prerequisites, feat abilities, magic item abilities, and spell effects.</p>\n<h2>Indomitable Will (Ex)</h2>\n<p>At 14th level, a bloodrager gains a +4 bonus on&nbsp;<a href=\"https://www.d20pfsrd.com/gamemastering/combat#TOC-Will\">Will</a>&nbsp;saves to resist&nbsp;<a href=\"https://www.d20pfsrd.com/magic#TOC-Enchantment\">enchantment</a>&nbsp;spells while bloodraging. This bonus stacks with all other modifiers, including the&nbsp;<a href=\"https://www.d20pfsrd.com/basics-ability-scores/glossary#TOC-Morale-Bonus\">morale bonus</a>&nbsp;on&nbsp;<a href=\"https://www.d20pfsrd.com/gamemastering/combat#TOC-Will\">Will</a>&nbsp;saves he also receives during his bloodrage.</p>\n<h2>Tireless Bloodrage (Su)</h2>\n<p>At 17th level, a bloodrager no longer becomes&nbsp;<a href=\"https://www.d20pfsrd.com/gamemastering/conditions#TOC-Fatigued\">fatigued</a>&nbsp;at the end of his bloodrage.</p>\n<h2>Mighty Bloodrage (Su)</h2>\n<p>At 20th level, when a bloodrager enters a bloodrage, the&nbsp;<a href=\"https://www.d20pfsrd.com/basics-ability-scores/glossary#TOC-Morale-Bonus\">morale bonus</a>&nbsp;to his&nbsp;<a href=\"https://www.d20pfsrd.com/basics-ability-scores/ability-scores#TOC-Strength-Str-\">Strength</a>&nbsp;and&nbsp;<a href=\"https://www.d20pfsrd.com/basics-ability-scores/ability-scores#TOC-Constitution-Con-\">Constitution</a>&nbsp;increases to +8, and the&nbsp;<a href=\"https://www.d20pfsrd.com/basics-ability-scores/glossary#TOC-Morale-Bonus\">morale bonus</a>&nbsp;on his&nbsp;<a href=\"https://www.d20pfsrd.com/gamemastering/combat#TOC-Will\">Will</a>&nbsp;saves increases to +4. Furthermore, the spell he can apply to himself at the beginning of a bloodrage due to the greater bloodrage class feature is not limited to only spells of 2nd level or lower.</p>",
      "chat": "",
      "unidentified": ""
    },
    "damage": {
      "parts": [],
      "critParts": [],
      "nonCritParts": []
    },
    "preparation": {
      "maxAmount": 0
    },
    "weaponData": {
      "critRange": 20,
      "critMult": 2
    },
    "uses": {
      "value": 0,
      "max": 0
    }
  },
  "flags": {},
  "img": "systems/pf1/icons/skills/red_12.jpg",
  "effects": []
}