{
  "_id": "RC4D4WFT5kRKkdqp",
  "name": "Witch",
  "permission": {
    "default": 0
  },
  "type": "class",
  "data": {
    "description": {
      "value": "<p>Some gain power through study, some through devotion, others through blood, but the witch gains power from her communion with the unknown. Generally feared and misunderstood, the witch draws her magic from a pact made with an otherworldly power. Communing with that source, using her familiar as a conduit, the witch gains not only a host of spells, but a number of strange abilities known as hexes. As a witch grows in power, she might learn about the source of her magic, but some remain blissfully unaware. Some are even afraid of that source, fearful of what it might be or where its true purposes lie.</p>\n<p><strong>Role</strong>: While many witches are recluses, living on the edge of civilization, some live within society, openly or in hiding. The blend of witches’ spells makes them adept at filling a number of different roles, from seer to healer, and their hexes grant them a number of abilities that are useful in a fight. Some witches travel about, seeking greater knowledge and better understanding of the mysterious powers that guide them.</p>\n<p><strong>Alignment</strong>: Any.</p>\n<p><strong>Hit Die</strong>: d6.</p>\n<p><strong>Starting Wealth</strong>: 3d6 × 10 gp (average 105 gp.) In addition, each character begins play with an outfit worth 10 gp or less.</p>\n<h2><span id=\"Class_Skills\">Class Skills</span></h2>\n<p>The witch’s class skills are <a href=\"https://www.d20pfsrd.com/skills/craft\">Craft</a>&nbsp;(<a href=\"https://www.d20pfsrd.com/basics-ability-scores/ability-scores#TOC-Intelligence-Int-\">Int</a>), <a href=\"https://www.d20pfsrd.com/skills/fly\">Fly</a>&nbsp;(<a href=\"https://www.d20pfsrd.com/basics-ability-scores/ability-scores#TOC-Dexterity-Dex-\">Dex</a>), <a href=\"https://www.d20pfsrd.com/skills/heal\">Heal</a>&nbsp;(<a href=\"https://www.d20pfsrd.com/basics-ability-scores/ability-scores#TOC-Wisdom-Wis-\">Wis</a>), <a href=\"https://www.d20pfsrd.com/skills/intimidate\">Intimidate</a>&nbsp;(<a href=\"https://www.d20pfsrd.com/basics-ability-scores/ability-scores#TOC-Charisma-Cha-\">Cha</a>), <a href=\"https://www.d20pfsrd.com/skills/knowledge\">Knowledge</a>&nbsp;(arcana) (<a href=\"https://www.d20pfsrd.com/basics-ability-scores/ability-scores#TOC-Intelligence-Int-\">Int</a>), <a href=\"https://www.d20pfsrd.com/skills/knowledge\">Knowledge</a>&nbsp;(history) (<a href=\"https://www.d20pfsrd.com/basics-ability-scores/ability-scores#TOC-Intelligence-Int-\">Int</a>), <a href=\"https://www.d20pfsrd.com/skills/knowledge\">Knowledge</a>&nbsp;(nature) (<a href=\"https://www.d20pfsrd.com/basics-ability-scores/ability-scores#TOC-Intelligence-Int-\">Int</a>), <a href=\"https://www.d20pfsrd.com/skills/knowledge\">Knowledge</a>&nbsp;(planes) (<a href=\"https://www.d20pfsrd.com/basics-ability-scores/ability-scores#TOC-Intelligence-Int-\">Int</a>), <a href=\"https://www.d20pfsrd.com/skills/profession\">Profession</a>&nbsp;(<a href=\"https://www.d20pfsrd.com/basics-ability-scores/ability-scores#TOC-Wisdom-Wis-\">Wis</a>), <a href=\"https://www.d20pfsrd.com/skills/spellcraft\">Spellcraft</a>&nbsp;(<a href=\"https://www.d20pfsrd.com/basics-ability-scores/ability-scores#TOC-Intelligence-Int-\">Int</a>), and <a href=\"https://www.d20pfsrd.com/skills/use-magic-device\">Use Magic Device</a>&nbsp;(<a href=\"https://www.d20pfsrd.com/basics-ability-scores/ability-scores#TOC-Charisma-Cha-\">Cha</a>).</p>\n<p><strong>Skill Ranks per Level</strong>: 2 +&nbsp;<a href=\"https://www.d20pfsrd.com/basics-ability-scores/ability-scores#TOC-Intelligence-Int-\">Int</a> modifier.</p>",
      "chat": "",
      "unidentified": ""
    },
    "tags": [],
    "changes": [],
    "changeFlags": {
      "loseDexToAC": false,
      "noStr": false,
      "noDex": false,
      "oneInt": false,
      "oneWis": false,
      "oneCha": false,
      "noEncumbrance": false,
      "mediumArmorFullSpeed": false,
      "heavyArmorFullSpeed": false
    },
    "links": {
      "children": [],
      "classAssociations": [
        {
          "id": "pf1.class-abilities.GBkIhC1Bpp2MAD4e",
          "dataType": "compendium",
          "name": "Hex",
          "img": "systems/pf1/icons/skills/affliction_09.jpg",
          "hiddenLinks": {},
          "level": 1,
          "_index": 0
        },
        {
          "id": "pf1.class-abilities.3d9Rgw40NV8ohRtf",
          "dataType": "compendium",
          "name": "Witch's Familiar",
          "img": "systems/pf1/icons/skills/emerald_05.jpg",
          "hiddenLinks": {},
          "level": 1,
          "_index": 1
        },
        {
          "id": "pf1.class-abilities.aZ5eCIRrsvax5CZZ",
          "dataType": "compendium",
          "name": "Major Hex",
          "img": "systems/pf1/icons/skills/affliction_11.jpg",
          "hiddenLinks": {},
          "level": 10,
          "_index": 2
        },
        {
          "id": "pf1.class-abilities.IMhG1JjaWP6p9ORe",
          "dataType": "compendium",
          "name": "Grand Hex",
          "img": "systems/pf1/icons/skills/affliction_05.jpg",
          "hiddenLinks": {},
          "level": 18,
          "_index": 3
        }
      ]
    },
    "tag": "witch",
    "useCustomTag": true,
    "armorProf": {
      "value": [],
      "custom": ""
    },
    "weaponProf": {
      "value": [
        "sim"
      ],
      "custom": ""
    },
    "classType": "base",
    "levels": {
      "value": 0,
      "_deprecated": true
    },
    "level": 1,
    "hd": 6,
    "hp": 6,
    "bab": "low",
    "skillsPerLevel": 2,
    "savingThrows": {
      "fort": {
        "value": "low"
      },
      "ref": {
        "value": "low"
      },
      "will": {
        "value": "high"
      }
    },
    "fc": {
      "hp": {
        "value": 0
      },
      "skill": {
        "value": 0
      },
      "alt": {
        "value": 0
      }
    },
    "classSkills": {
      "acr": false,
      "apr": false,
      "art": false,
      "blf": false,
      "clm": false,
      "crf": true,
      "dip": false,
      "dev": false,
      "dis": false,
      "esc": false,
      "fly": true,
      "han": false,
      "hea": true,
      "int": true,
      "kar": true,
      "kdu": false,
      "ken": false,
      "kge": false,
      "khi": true,
      "klo": false,
      "kna": true,
      "kno": false,
      "kpl": true,
      "kre": false,
      "lin": false,
      "lor": false,
      "per": false,
      "prf": false,
      "pro": true,
      "rid": false,
      "sen": false,
      "slt": false,
      "spl": true,
      "ste": false,
      "sur": false,
      "swm": false,
      "umd": true
    },
    "extraDescription": {
      "value": "<h2>Weapon and Armor Proficiency</h2>\n<p>Witches are proficient with all simple weapons. They are not proficient with any type of armor or shield. Armor interferes with a witch’s gestures, which can cause her spells with somatic&nbsp;<a href=\"https://www.d20pfsrd.com/magic#TOC-Components\">components</a>&nbsp;to fail.</p>\n<h2>Spells</h2>\n<p>A witch casts arcane spells drawn from the&nbsp;<a href=\"https://www.d20pfsrd.com/magic/spell-lists-and-domains/spell-list-witch\">witch spell list</a>. A witch must choose and prepare her spells ahead of time.</p>\n<p>To learn or cast a spell, a witch must have an&nbsp;<a href=\"https://www.d20pfsrd.com/basics-ability-scores/ability-scores#TOC-Intelligence-Int-\">Intelligence</a>&nbsp;score equal to at least 10 + the spell level. The Difficulty Class for a&nbsp;<a href=\"https://www.d20pfsrd.com/gamemastering/combat#TOC-Saving-Throws\">saving throw</a>&nbsp;against a witch’s spell is 10 + the spell level + the witch’s&nbsp;<a href=\"https://www.d20pfsrd.com/basics-ability-scores/ability-scores#TOC-Intelligence-Int-\">Intelligence</a>&nbsp;modifier.</p>\n<p>A witch can cast only a certain number of spells of each spell level per day. Her base daily spell allotment is given on&nbsp;Table: Witch. In addition, she receives bonus spells per day if she has a high&nbsp;<a href=\"https://www.d20pfsrd.com/basics-ability-scores/ability-scores#TOC-Intelligence-Int-\">Intelligence</a>&nbsp;score (see&nbsp;<a href=\"https://www.d20pfsrd.com/basics-ability-scores/ability-scores#Table-Ability-Modifiers-and-Bonus-Spells\">Table: Ability Modifiers and Bonus Spells</a>).</p>\n<p>A witch may know any number of spells. She must choose and prepare her spells ahead of time by getting 8 hours of sleep and spending 1 hour communing with her familiar. While communing, the witch decides which spells to prepare.</p>\n<p><strong>Cantrips</strong>:&nbsp;Witches can prepare a number of cantrips, or 0-level spells, each day, as noted on&nbsp;Table: Witch&nbsp;under “Spells per Day.” These spells are cast like any other spell, but they are not expended when cast and may be used again. Cantrips prepared using other spell slots, due to&nbsp;<a href=\"https://www.d20pfsrd.com/feats#TOC-Metamagic-Feats\">metamagic</a>&nbsp;feats for example, are expended normally.</p>\n<h2>Hex</h2>\n<p>Witches learn a number of magic tricks, called hexes, that grant them powers or weaken foes. At 1st level, a witch gains one hex of her choice. She gains an additional hex at 2nd level and for every 2 levels attained after 2nd level, as noted on&nbsp;Table: Witch. A witch cannot select an individual hex more than once.</p>\n<p>Unless otherwise noted, using a hex is a&nbsp;<a href=\"https://www.d20pfsrd.com/gamemastering/combat#TOC-Standard-Actions\">standard action</a>&nbsp;that does not provoke an&nbsp;<a href=\"https://www.d20pfsrd.com/gamemastering/combat#TOC-Attacks-of-Opportunity\">attack of opportunity</a>. The save to resist a hex is equal to 10 + 1/2 the witch’s level + the witch’s&nbsp;<a href=\"https://www.d20pfsrd.com/basics-ability-scores/ability-scores#TOC-Intelligence-Int-\">Intelligence</a>&nbsp;modifier.</p>\n<ul class=\"ogn-childpages\" style=\"box-sizing: border-box; margin-top: 0px; margin-bottom: 10px; color: #333333; font-family: sans-serif;\">\n<li class=\"page new parent\" style=\"box-sizing: border-box;\"><a style=\"box-sizing: border-box; text-underline-position: under; color: #003965 !important;\" href=\"https://www.d20pfsrd.com/classes/base-classes/witch/hexes/hexes/common-hexes/ameliorating-su/\">Ameliorating (Su)</a></li>\n<li class=\"page new parent\" style=\"box-sizing: border-box;\"><a style=\"box-sizing: border-box; text-underline-position: under; outline: 0px; color: #003965 !important;\" href=\"https://www.d20pfsrd.com/classes/base-classes/witch/hexes/hexes/common-hexes/hex-aura-of-purity-su/\">Aura of Purity (Su)</a></li>\n<li class=\"page new parent\" style=\"box-sizing: border-box;\"><a style=\"box-sizing: border-box; text-underline-position: under; color: #003965 !important;\" href=\"https://www.d20pfsrd.com/classes/base-classes/witch/hexes/hexes/common-hexes/hex-beast-of-ill-omen-su/\">Beast of Ill-Omen (Su)</a></li>\n<li class=\"page new parent\" style=\"box-sizing: border-box;\"><a style=\"box-sizing: border-box; text-underline-position: under; color: #003965 !important;\" href=\"https://www.d20pfsrd.com/classes/base-classes/witch/hexes/hexes/common-hexes/hex-blight-su/\">Blight (Su)</a></li>\n<li class=\"page new parent\" style=\"box-sizing: border-box;\"><a style=\"box-sizing: border-box; text-underline-position: under; color: #003965 !important;\" href=\"https://www.d20pfsrd.com/classes/base-classes/witch/hexes/hexes/common-hexes/hex-cackle-su/\">Cackle (Su)</a></li>\n<li class=\"page new parent\" style=\"box-sizing: border-box;\"><a style=\"box-sizing: border-box; text-underline-position: under; color: #003965 !important;\" href=\"https://www.d20pfsrd.com/classes/base-classes/witch/hexes/hexes/common-hexes/hex-cauldron-ex/\">Cauldron* (Ex)</a></li>\n<li class=\"page new parent\" style=\"box-sizing: border-box;\"><a style=\"box-sizing: border-box; text-underline-position: under; color: #003965 !important;\" href=\"https://www.d20pfsrd.com/classes/base-classes/witch/hexes/hexes/common-hexes/hex-charm-su/\">Charm (Su)</a></li>\n<li class=\"page new parent\" style=\"box-sizing: border-box;\"><a style=\"box-sizing: border-box; text-underline-position: under; color: #003965 !important;\" href=\"https://www.d20pfsrd.com/classes/base-classes/witch/hexes/hexes/common-hexes/hex-child-scent-ex/\">Child-Scent (Ex)</a></li>\n<li class=\"page new parent\" style=\"box-sizing: border-box;\"><a style=\"box-sizing: border-box; text-underline-position: under; color: #003965 !important;\" href=\"https://www.d20pfsrd.com/classes/base-classes/witch/hexes/hexes/common-hexes/city-sight-su/\">City Sight (Su)</a></li>\n<li class=\"page new parent\" style=\"box-sizing: border-box;\"><a style=\"box-sizing: border-box; text-underline-position: under; color: #003965 !important;\" href=\"https://www.d20pfsrd.com/classes/base-classes/witch/hexes/hexes/common-hexes/combat-hypnosis-su/\">Combat Hypnosis (Su)</a></li>\n<li class=\"page new parent\" style=\"box-sizing: border-box;\"><a style=\"box-sizing: border-box; text-underline-position: under; color: #003965 !important;\" href=\"https://www.d20pfsrd.com/classes/base-classes/witch/hexes/hexes/common-hexes/congeal-su/\">Congeal (Su)</a></li>\n<li class=\"page new parent\" style=\"box-sizing: border-box;\"><a style=\"box-sizing: border-box; text-underline-position: under; color: #003965 !important;\" href=\"https://www.d20pfsrd.com/classes/base-classes/witch/hexes/hexes/common-hexes/hex-coven-ex/\">Coven (Ex)</a></li>\n<li class=\"page new parent\" style=\"box-sizing: border-box;\"><a style=\"box-sizing: border-box; text-underline-position: under; color: #003965 !important;\" href=\"https://www.d20pfsrd.com/classes/base-classes/witch/hexes/hexes/common-hexes/hex-cursed-wound-su/\">Cursed Wound (Su)</a></li>\n<li class=\"page new parent\" style=\"box-sizing: border-box;\"><a style=\"box-sizing: border-box; text-underline-position: under; color: #003965 !important;\" href=\"https://www.d20pfsrd.com/classes/base-classes/witch/hexes/hexes/common-hexes/dark-apothecary-ex/\">Dark Apothecary (Ex)</a></li>\n<li class=\"page new parent\" style=\"box-sizing: border-box;\"><a style=\"box-sizing: border-box; text-underline-position: under; color: #003965 !important;\" href=\"https://www.d20pfsrd.com/classes/base-classes/witch/hexes/hexes/common-hexes/hex-discord-su/\">Discord (Su)</a></li>\n<li class=\"page new parent\" style=\"box-sizing: border-box;\"><a style=\"box-sizing: border-box; text-underline-position: under; color: #003965 !important;\" href=\"https://www.d20pfsrd.com/classes/base-classes/witch/hexes/hexes/common-hexes/hex-disguise-su/\">Disguise* (Su)</a></li>\n<li class=\"page new parent\" style=\"box-sizing: border-box;\"><a style=\"box-sizing: border-box; text-underline-position: under; color: #003965 !important;\" href=\"https://www.d20pfsrd.com/classes/base-classes/witch/hexes/hexes/common-hexes/disrupt-connection-su/\">Disrupt Connection (Su)</a></li>\n<li class=\"page new parent\" style=\"box-sizing: border-box;\"><a style=\"box-sizing: border-box; text-underline-position: under; color: #003965 !important;\" href=\"https://www.d20pfsrd.com/classes/base-classes/witch/hexes/hexes/common-hexes/distraction-su/\">Distraction (Su)</a></li>\n<li class=\"page new parent\" style=\"box-sizing: border-box;\"><a style=\"box-sizing: border-box; text-underline-position: under; color: #003965 !important;\" href=\"https://www.d20pfsrd.com/classes/base-classes/witch/hexes/hexes/common-hexes/enemy-ground-su/\">Enemy Ground (Su)</a></li>\n<li class=\"page new parent\" style=\"box-sizing: border-box;\"><a style=\"box-sizing: border-box; text-underline-position: under; color: #003965 !important;\" href=\"https://www.d20pfsrd.com/classes/base-classes/witch/hexes/hexes/common-hexes/hex-evil-eye-su/\">Evil Eye* (Su)</a></li>\n<li class=\"page new parent\" style=\"box-sizing: border-box;\"><a style=\"box-sizing: border-box; text-underline-position: under; color: #003965 !important;\" href=\"https://www.d20pfsrd.com/classes/base-classes/witch/hexes/hexes/common-hexes/hex-feral-speech-su/\">Feral Speech (Su)</a></li>\n<li class=\"page new parent\" style=\"box-sizing: border-box;\"><a style=\"box-sizing: border-box; text-underline-position: under; color: #003965 !important;\" href=\"https://www.d20pfsrd.com/classes/base-classes/witch/hexes/hexes/common-hexes/hex-flight-su/\">Flight* (Su)</a></li>\n<li class=\"page new parent\" style=\"box-sizing: border-box;\"><a style=\"box-sizing: border-box; text-underline-position: under; color: #003965 !important;\" href=\"https://www.d20pfsrd.com/classes/base-classes/witch/hexes/hexes/common-hexes/floating-lotus-su/\">Floating Lotus (Su)</a></li>\n<li class=\"page new parent\" style=\"box-sizing: border-box;\"><a style=\"box-sizing: border-box; text-underline-position: under; color: #003965 !important;\" href=\"https://www.d20pfsrd.com/classes/base-classes/witch/hexes/hexes/common-hexes/hex-fortune-su/\">Fortune (Su)</a></li>\n<li class=\"page new parent\" style=\"box-sizing: border-box;\"><a style=\"box-sizing: border-box; text-underline-position: under; color: #003965 !important;\" href=\"https://www.d20pfsrd.com/classes/base-classes/witch/hexes/hexes/common-hexes/gift-of-consumption-su/\">Gift of Consumption (Su)</a></li>\n<li class=\"page new parent\" style=\"box-sizing: border-box;\"><a style=\"box-sizing: border-box; text-underline-position: under; color: #003965 !important;\" href=\"https://www.d20pfsrd.com/classes/base-classes/witch/hexes/hexes/common-hexes/greater-gift-of-consumption-su/\">Greater Gift of Consumption (Su)</a></li>\n<li class=\"page new parent\" style=\"box-sizing: border-box;\"><a style=\"box-sizing: border-box; text-underline-position: under; color: #003965 !important;\" href=\"https://www.d20pfsrd.com/classes/base-classes/witch/hexes/hexes/common-hexes/hex-healing-su/\">Healing* (Su)</a></li>\n<li class=\"page new parent\" style=\"box-sizing: border-box;\"><a style=\"box-sizing: border-box; text-underline-position: under; color: #003965 !important;\" href=\"https://www.d20pfsrd.com/classes/base-classes/witch/hexes/hexes/common-hexes/heralding-bloom-su/\">Heralding Bloom (Su)</a></li>\n<li class=\"page new parent\" style=\"box-sizing: border-box;\"><a style=\"box-sizing: border-box; text-underline-position: under; color: #003965 !important;\" href=\"https://www.d20pfsrd.com/classes/base-classes/witch/hexes/hexes/common-hexes/iceplant-su/\">Iceplant (Su)</a></li>\n<li class=\"page new parent\" style=\"box-sizing: border-box;\"><a style=\"box-sizing: border-box; text-underline-position: under; color: #003965 !important;\" href=\"https://www.d20pfsrd.com/classes/base-classes/witch/hexes/hexes/common-hexes/leshy-summoning-su/\">Leshy Summoning (Su)</a></li>\n<li class=\"page new parent\" style=\"box-sizing: border-box;\"><a style=\"box-sizing: border-box; text-underline-position: under; color: #003965 !important;\" href=\"https://www.d20pfsrd.com/classes/base-classes/witch/hexes/hexes/common-hexes/minor-prophecy-su/\">Minor Prophecy (Su)</a></li>\n<li class=\"page new parent\" style=\"box-sizing: border-box;\"><a style=\"box-sizing: border-box; text-underline-position: under; color: #003965 !important;\" href=\"https://www.d20pfsrd.com/classes/base-classes/witch/hexes/hexes/common-hexes/hex-misfortune-su/\">Misfortune (Su)</a></li>\n<li class=\"page new parent\" style=\"box-sizing: border-box;\"><a style=\"box-sizing: border-box; text-underline-position: under; color: #003965 !important;\" href=\"https://www.d20pfsrd.com/classes/base-classes/witch/hexes/hexes/common-hexes/mothers-eye-su/\">Mother's Eye (Su)</a></li>\n<li class=\"page new parent\" style=\"box-sizing: border-box;\"><a style=\"box-sizing: border-box; text-underline-position: under; color: #003965 !important;\" href=\"https://www.d20pfsrd.com/classes/base-classes/witch/hexes/hexes/common-hexes/mud-witch-su/\">Mud Witch (Su)</a></li>\n<li class=\"page new parent\" style=\"box-sizing: border-box;\"><a style=\"box-sizing: border-box; text-underline-position: under; color: #003965 !important;\" href=\"https://www.d20pfsrd.com/classes/base-classes/witch/hexes/hexes/common-hexes/murksight-su/\">Murksight (Su)</a></li>\n<li class=\"page new parent\" style=\"box-sizing: border-box;\"><a style=\"box-sizing: border-box; text-underline-position: under; color: #003965 !important;\" href=\"https://www.d20pfsrd.com/classes/base-classes/witch/hexes/hexes/common-hexes/hex-nails-ex/\">Nails (Ex)</a></li>\n<li class=\"page new parent\" style=\"box-sizing: border-box;\"><a style=\"box-sizing: border-box; text-underline-position: under; color: #003965 !important;\" href=\"https://www.d20pfsrd.com/classes/base-classes/witch/hexes/hexes/common-hexes/no-place-like-home-su/\">No Place Like Home (Su)</a></li>\n<li class=\"page new parent\" style=\"box-sizing: border-box;\"><a style=\"box-sizing: border-box; text-underline-position: under; color: #003965 !important;\" href=\"https://www.d20pfsrd.com/classes/base-classes/witch/hexes/hexes/common-hexes/hex-peacebond-su/\">Peacebond (Su)</a></li>\n<li class=\"page new parent\" style=\"box-sizing: border-box;\"><a style=\"box-sizing: border-box; text-underline-position: under; color: #003965 !important;\" href=\"https://www.d20pfsrd.com/classes/base-classes/witch/hexes/hexes/common-hexes/hex-poison-steep-sp/\">Poison Steep (Sp)</a></li>\n<li class=\"page new parent\" style=\"box-sizing: border-box;\"><a style=\"box-sizing: border-box; text-underline-position: under; color: #003965 !important;\" href=\"https://www.d20pfsrd.com/classes/base-classes/witch/hexes/hexes/common-hexes/poison-touch-ex/\">Poison Touch (Ex)</a></li>\n<li class=\"page new parent\" style=\"box-sizing: border-box;\"><a style=\"box-sizing: border-box; text-underline-position: under; color: #003965 !important;\" href=\"https://www.d20pfsrd.com/classes/base-classes/witch/hexes/hexes/common-hexes/pollute-water-su/\">Pollute Water (Su)</a></li>\n<li class=\"page new parent\" style=\"box-sizing: border-box;\"><a style=\"box-sizing: border-box; text-underline-position: under; color: #003965 !important;\" href=\"https://www.d20pfsrd.com/classes/base-classes/witch/hexes/hexes/common-hexes/polluting-glance-su/\">Polluting Glance (Su)</a></li>\n<li class=\"page new parent\" style=\"box-sizing: border-box;\"><a style=\"box-sizing: border-box; text-underline-position: under; color: #003965 !important;\" href=\"https://www.d20pfsrd.com/classes/base-classes/witch/hexes/hexes/common-hexes/hex-prehensile-hair-su/\">Prehensile Hair (Su)</a></li>\n<li class=\"page new parent\" style=\"box-sizing: border-box;\"><a style=\"box-sizing: border-box; text-underline-position: under; color: #003965 !important;\" href=\"https://www.d20pfsrd.com/classes/base-classes/witch/hexes/hexes/common-hexes/protective-luck-su/\">Protective Luck (Su)</a></li>\n<li class=\"page new parent\" style=\"box-sizing: border-box;\"><a style=\"box-sizing: border-box; text-underline-position: under; color: #003965 !important;\" href=\"https://www.d20pfsrd.com/classes/base-classes/witch/hexes/hexes/common-hexes/hex-scar-su/\">Scar (Su)</a></li>\n<li class=\"page new parent\" style=\"box-sizing: border-box;\"><a style=\"box-sizing: border-box; text-underline-position: under; color: #003965 !important;\" href=\"https://www.d20pfsrd.com/classes/base-classes/witch/hexes/hexes/common-hexes/seduction-su/\">Seduction (Su)</a></li>\n<li class=\"page new parent\" style=\"box-sizing: border-box;\"><a style=\"box-sizing: border-box; text-underline-position: under; color: #003965 !important;\" href=\"https://www.d20pfsrd.com/classes/base-classes/witch/hexes/hexes/common-hexes/sink-su/\">Sink (Su)</a></li>\n<li class=\"page new parent\" style=\"box-sizing: border-box;\"><a style=\"box-sizing: border-box; text-underline-position: under; color: #003965 !important;\" href=\"https://www.d20pfsrd.com/classes/base-classes/witch/hexes/hexes/common-hexes/hex-slumber-su/\">Slumber (Su)</a></li>\n<li class=\"page new parent\" style=\"box-sizing: border-box;\"><a style=\"box-sizing: border-box; text-underline-position: under; color: #003965 !important;\" href=\"https://www.d20pfsrd.com/classes/base-classes/witch/hexes/hexes/common-hexes/soothsayer-su/\">Soothsayer (Su)</a></li>\n<li class=\"page new parent\" style=\"box-sizing: border-box;\"><a style=\"box-sizing: border-box; text-underline-position: under; color: #003965 !important;\" href=\"https://www.d20pfsrd.com/classes/base-classes/witch/hexes/hexes/common-hexes/summers-heat-su/\">Summer's Heat (Su)</a></li>\n<li class=\"page new parent\" style=\"box-sizing: border-box;\"><a style=\"box-sizing: border-box; text-underline-position: under; color: #003965 !important;\" href=\"https://www.d20pfsrd.com/classes/base-classes/witch/hexes/hexes/common-hexes/hex-swamp-hag-sp/\">Swamp Hag (Sp)</a></li>\n<li class=\"page new parent\" style=\"box-sizing: border-box;\"><a style=\"box-sizing: border-box; text-underline-position: under; color: #003965 !important;\" href=\"https://www.d20pfsrd.com/classes/base-classes/witch/hexes/hexes/common-hexes/swamp-s-grasp-su/\">Swamp's Grasp (Su)</a></li>\n<li class=\"page new parent\" style=\"box-sizing: border-box;\"><a style=\"box-sizing: border-box; text-underline-position: under; color: #003965 !important;\" href=\"https://www.d20pfsrd.com/classes/base-classes/witch/hexes/hexes/common-hexes/swine-su/\">Swine (Su)</a></li>\n<li class=\"page new parent\" style=\"box-sizing: border-box;\"><a style=\"box-sizing: border-box; text-underline-position: under; color: #003965 !important;\" href=\"https://www.d20pfsrd.com/classes/base-classes/witch/hexes/hexes/common-hexes/hex-tongues-su/\">Tongues (Su)</a></li>\n<li class=\"page new parent\" style=\"box-sizing: border-box;\"><a style=\"box-sizing: border-box; text-underline-position: under; color: #003965 !important;\" href=\"https://www.d20pfsrd.com/classes/base-classes/witch/hexes/hexes/common-hexes/hex-unnerve-beasts-su/\">Unnerve Beasts (Su)</a></li>\n<li class=\"page new parent\" style=\"box-sizing: border-box;\"><a style=\"box-sizing: border-box; text-underline-position: under; color: #003965 !important;\" href=\"https://www.d20pfsrd.com/classes/base-classes/witch/hexes/hexes/common-hexes/verdant-familiar-ex/\">Verdant Familiar (Ex)</a></li>\n<li class=\"page new parent\" style=\"box-sizing: border-box;\"><a style=\"box-sizing: border-box; text-underline-position: under; color: #003965 !important;\" href=\"https://www.d20pfsrd.com/classes/base-classes/witch/hexes/hexes/common-hexes/hex-ward-su/\">Ward (Su)</a></li>\n<li class=\"page new parent\" style=\"box-sizing: border-box;\"><a style=\"box-sizing: border-box; text-underline-position: under; color: #003965 !important;\" href=\"https://www.d20pfsrd.com/classes/base-classes/witch/hexes/hexes/common-hexes/hex-water-lung-su/\">Water Lung (Su)</a></li>\n<li class=\"page new parent\" style=\"box-sizing: border-box;\"><a style=\"box-sizing: border-box; text-underline-position: under; color: #003965 !important;\" href=\"https://www.d20pfsrd.com/classes/base-classes/witch/hexes/hexes/common-hexes/witch-s-bottle-su/\">Witch's Bottle (Su)</a></li>\n</ul>\n<h2>Patron Spells</h2>\n<p>At 1st level, when a witch gains her familiar, she must also select a patron. This patron is a vague and mysterious force, granting the witch power for reasons that she might not entirely understand. While these forces need not be named, they typically hold influence over one of the following forces.</p>\n<p>At 2nd level, and every two levels thereafter, a witch’s patron adds new spells to a witch’s list of spells known. These spells are also automatically added to the list of spells stored by the familiar. The spells gained depend upon the patron chosen. Each patron is listed by its theme. Its actual name is up to the GM and the witch to decide.</p>\n<p><a href=\"https://www.d20pfsrd.com/classes/base-classes/witch/witch-patrons#Patron_Themes_and_Spells\">See a complete list of witch patrons here</a>.</p>\n<h2>Witch's Familiar (Ex)</h2>\n<p>At 1st level, a witch forms a close bond with a familiar, a creature that teaches her magic and helps to guide her along her path. Familiars also aid a witch by granting her skill bonuses, additional spells, and help with some types of magic. This functions like the&nbsp;<a href=\"https://www.d20pfsrd.com/classes/core-classes/wizard\">wizard’s</a>&nbsp;arcane bond class feature, except as noted in the&nbsp;<a href=\"https://www.d20pfsrd.com/classes/base-classes/witch/witch-s-familiar\">Witch’s Familiar section</a>.</p>\n<p>A witch must commune with her familiar each day to prepare her spells. Familiars store all of the spells that a witch knows, and a witch cannot prepare a spell that is not stored by her familiar. A witch’s familiar begins play storing all of the 0-level witch spells plus three 1st level spells of the witch’s choice. The witch also selects a number of additional 1st-level spells equal to her&nbsp;<a href=\"https://www.d20pfsrd.com/basics-ability-scores/ability-scores#TOC-Intelligence-Int-\">Intelligence</a>&nbsp;modifier to store in her familiar. At each new witch level, she adds two new spells of any spell level or levels that she can cast (based on her new witch level) to her familiar. A witch can also add additional spells to her familiar through a special ritual.</p>\n<h2>Major Hex</h2>\n<p>Starting at 10th level, and every two levels thereafter, a witch can choose one of the following major hexes whenever she could select a new hex.</p>\n<ul class=\"ogn-childpages\" style=\"box-sizing: border-box; margin-top: 0px; margin-bottom: 10px; color: #333333; font-family: sans-serif; font-size: 16px;\">\n<li class=\"page new parent\" style=\"box-sizing: border-box;\"><a style=\"box-sizing: border-box; text-underline-position: under; outline: 0px; color: #003965 !important;\" href=\"https://www.d20pfsrd.com/classes/base-classes/witch/hexes/hexes/major-hexes/hex-major-agony-su/\">Agony (Su)</a></li>\n<li class=\"page new parent\" style=\"box-sizing: border-box;\"><a style=\"box-sizing: border-box; text-underline-position: under; color: #003965 !important;\" href=\"https://www.d20pfsrd.com/classes/base-classes/witch/hexes/hexes/major-hexes/hex-major-animal-skin-su/\">Animal Skin (Su)</a></li>\n<li class=\"page new parent\" style=\"box-sizing: border-box;\"><a style=\"box-sizing: border-box; text-underline-position: under; color: #003965 !important;\" href=\"https://www.d20pfsrd.com/classes/base-classes/witch/hexes/hexes/major-hexes/hex-major-beast-eye-su/\">Beast Eye (Su)</a></li>\n<li class=\"page new parent\" style=\"box-sizing: border-box;\"><a style=\"box-sizing: border-box; text-underline-position: under; color: #003965 !important;\" href=\"https://www.d20pfsrd.com/classes/base-classes/witch/hexes/hexes/major-hexes/beasts-gift-su/\">Beast’s Gift (Su)</a></li>\n<li class=\"page new parent\" style=\"box-sizing: border-box;\"><a style=\"box-sizing: border-box; text-underline-position: under; color: #003965 !important;\" href=\"https://www.d20pfsrd.com/classes/base-classes/witch/hexes/hexes/major-hexes/hex-major-cook-people-su/\">Cook People (Su)</a></li>\n<li class=\"page new parent\" style=\"box-sizing: border-box;\"><a style=\"box-sizing: border-box; text-underline-position: under; color: #003965 !important;\" href=\"https://www.d20pfsrd.com/classes/base-classes/witch/hexes/hexes/major-hexes/hex-major-delicious-fright-su/\">Delicious Fright (Su)</a></li>\n<li class=\"page new parent\" style=\"box-sizing: border-box;\"><a style=\"box-sizing: border-box; text-underline-position: under; color: #003965 !important;\" href=\"https://www.d20pfsrd.com/classes/base-classes/witch/hexes/hexes/major-hexes/drugged-su/\">Drugged (Su)</a></li>\n<li class=\"page new parent\" style=\"box-sizing: border-box;\"><a style=\"box-sizing: border-box; text-underline-position: under; color: #003965 !important;\" href=\"https://www.d20pfsrd.com/classes/base-classes/witch/hexes/hexes/major-hexes/false-hospitality-su/\">False Hospitality (Su)</a></li>\n<li class=\"page new parent\" style=\"box-sizing: border-box;\"><a style=\"box-sizing: border-box; text-underline-position: under; color: #003965 !important;\" href=\"https://www.d20pfsrd.com/classes/base-classes/witch/hexes/hexes/major-hexes/hex-major-hags-eye-su/\">Hag’s Eye (Su)</a></li>\n<li class=\"page new parent\" style=\"box-sizing: border-box;\"><a style=\"box-sizing: border-box; text-underline-position: under; color: #003965 !important;\" href=\"https://www.d20pfsrd.com/classes/base-classes/witch/hexes/hexes/major-hexes/harrowing-curse-su/\">Harrowing Curse (Su)</a></li>\n<li class=\"page new parent\" style=\"box-sizing: border-box;\"><a style=\"box-sizing: border-box; text-underline-position: under; color: #003965 !important;\" href=\"https://www.d20pfsrd.com/classes/base-classes/witch/hexes/hexes/major-hexes/hex-major-hidden-home-sp/\">Hidden Home (Sp)</a></li>\n<li class=\"page new parent\" style=\"box-sizing: border-box;\"><a style=\"box-sizing: border-box; text-underline-position: under; color: #003965 !important;\" href=\"https://www.d20pfsrd.com/classes/base-classes/witch/hexes/hexes/major-hexes/hex-major-hoarfrost-su/\">Hoarfrost (Su)</a></li>\n<li class=\"page new parent\" style=\"box-sizing: border-box;\"><a style=\"box-sizing: border-box; text-underline-position: under; color: #003965 !important;\" href=\"https://www.d20pfsrd.com/classes/base-classes/witch/hexes/hexes/major-hexes/hex-major-ice-tomb-su/\">Ice Tomb (Su)</a></li>\n<li class=\"page new parent\" style=\"box-sizing: border-box;\"><a style=\"box-sizing: border-box; text-underline-position: under; color: #003965 !important;\" href=\"https://www.d20pfsrd.com/classes/base-classes/witch/hexes/hexes/major-hexes/hex-major-infected-wounds-su/\">Infected Wounds (Su)</a></li>\n<li class=\"page new parent\" style=\"box-sizing: border-box;\"><a style=\"box-sizing: border-box; text-underline-position: under; color: #003965 !important;\" href=\"https://www.d20pfsrd.com/classes/base-classes/witch/hexes/hexes/major-hexes/major-ameliorating-su/\">Major Ameliorating (Su)</a></li>\n<li class=\"page new parent\" style=\"box-sizing: border-box;\"><a style=\"box-sizing: border-box; text-underline-position: under; color: #003965 !important;\" href=\"https://www.d20pfsrd.com/classes/base-classes/witch/hexes/hexes/major-hexes/hex-major-major-healing-su/\">Major Healing (Su)</a></li>\n<li class=\"page new parent\" style=\"box-sizing: border-box;\"><a style=\"box-sizing: border-box; text-underline-position: under; color: #003965 !important;\" href=\"https://www.d20pfsrd.com/classes/base-classes/witch/hexes/hexes/major-hexes/hex-major-nightmares-su/\">Nightmares (Su)</a></li>\n<li class=\"page new parent\" style=\"box-sizing: border-box;\"><a style=\"box-sizing: border-box; text-underline-position: under; color: #003965 !important;\" href=\"https://www.d20pfsrd.com/classes/base-classes/witch/hexes/hexes/major-hexes/hex-major-pariah-su/\">Pariah (Su)</a></li>\n<li class=\"page new parent\" style=\"box-sizing: border-box;\"><a style=\"box-sizing: border-box; text-underline-position: under; color: #003965 !important;\" href=\"https://www.d20pfsrd.com/classes/base-classes/witch/hexes/hexes/major-hexes/prophecy-su/\">Prophecy (Su)</a></li>\n<li class=\"page new parent\" style=\"box-sizing: border-box;\"><a style=\"box-sizing: border-box; text-underline-position: under; color: #003965 !important;\" href=\"https://www.d20pfsrd.com/classes/base-classes/witch/hexes/hexes/major-hexes/regenerative-sinew-su/\">Regenerative Sinew (Su)</a></li>\n<li class=\"page new parent\" style=\"box-sizing: border-box;\"><a style=\"box-sizing: border-box; text-underline-position: under; color: #003965 !important;\" href=\"https://www.d20pfsrd.com/classes/base-classes/witch/hexes/hexes/major-hexes/restless-slumber-su/\">Restless Slumber (Su)</a></li>\n<li class=\"page new parent\" style=\"box-sizing: border-box;\"><a style=\"box-sizing: border-box; text-underline-position: under; color: #003965 !important;\" href=\"https://www.d20pfsrd.com/classes/base-classes/witch/hexes/hexes/major-hexes/hex-major-retribution-su/\">Retribution (Su)</a></li>\n<li class=\"page new parent\" style=\"box-sizing: border-box;\"><a style=\"box-sizing: border-box; text-underline-position: under; color: #003965 !important;\" href=\"https://www.d20pfsrd.com/classes/base-classes/witch/hexes/hexes/major-hexes/hex-major-speak-in-dreams-sp/\">Speak in Dreams (Sp)</a></li>\n<li class=\"page new parent\" style=\"box-sizing: border-box;\"><a style=\"box-sizing: border-box; text-underline-position: under; color: #003965 !important;\" href=\"https://www.d20pfsrd.com/classes/base-classes/witch/hexes/hexes/major-hexes/steal-voice-su-tiefling/\">Steal Voice (Su; Tiefling)</a></li>\n<li class=\"page new parent\" style=\"box-sizing: border-box;\"><a style=\"box-sizing: border-box; text-underline-position: under; color: #003965 !important;\" href=\"https://www.d20pfsrd.com/classes/base-classes/witch/hexes/hexes/major-hexes/hex-major-vision-su/\">Vision (Su)</a></li>\n<li class=\"page new parent\" style=\"box-sizing: border-box;\"><a style=\"box-sizing: border-box; text-underline-position: under; color: #003965 !important;\" href=\"https://www.d20pfsrd.com/classes/base-classes/witch/hexes/hexes/major-hexes/hex-major-waxen-image-su/\">Waxen Image (Su)</a></li>\n<li class=\"page new parent\" style=\"box-sizing: border-box;\"><a style=\"box-sizing: border-box; text-underline-position: under; color: #003965 !important;\" href=\"https://www.d20pfsrd.com/classes/base-classes/witch/hexes/hexes/major-hexes/hex-major-weather-control-su/\">Weather Control (Su)</a></li>\n<li class=\"page new parent\" style=\"box-sizing: border-box;\"><a style=\"box-sizing: border-box; text-underline-position: under; color: #003965 !important;\" href=\"https://www.d20pfsrd.com/classes/base-classes/witch/hexes/hexes/major-hexes/hex-major-witchs-bounty-su/\">Witch's Bounty (Su)</a></li>\n<li class=\"page new parent\" style=\"box-sizing: border-box;\"><a style=\"box-sizing: border-box; text-underline-position: under; color: #003965 !important;\" href=\"https://www.d20pfsrd.com/classes/base-classes/witch/hexes/hexes/major-hexes/hex-major-witchs-charge-su/\">Witch's Charge (Su)</a></li>\n<li class=\"page new parent\" style=\"box-sizing: border-box;\"><a style=\"box-sizing: border-box; text-underline-position: under; color: #003965 !important;\" href=\"https://www.d20pfsrd.com/classes/base-classes/witch/hexes/hexes/major-hexes/hex-major-witchs-brew-ex/\">Witch’s Brew (Ex)</a></li>\n<li class=\"page new parent\" style=\"box-sizing: border-box;\"><a style=\"box-sizing: border-box; text-underline-position: under; color: #003965 !important;\" href=\"https://www.d20pfsrd.com/classes/base-classes/witch/hexes/hexes/major-hexes/withering-su/\">Withering (Su)</a></li>\n</ul>\n<h2>Grand Hex</h2>\n<p>Starting at 18th level, and every two levels thereafter, a witch can choose one of the following grand hexes whenever she could select a new hex.</p>\n<ul class=\"ogn-childpages\" style=\"box-sizing: border-box; margin-top: 0px; margin-bottom: 10px; color: #333333; font-family: sans-serif; font-size: 16px;\">\n<li class=\"page new parent\" style=\"box-sizing: border-box;\"><a style=\"box-sizing: border-box; text-underline-position: under; color: #003965 !important;\" href=\"https://www.d20pfsrd.com/classes/base-classes/witch/hexes/hexes/grand-hexes/hex-grand-abominate-sp/\">Abominate (Sp)</a></li>\n<li class=\"page new parent\" style=\"box-sizing: border-box;\"><a style=\"box-sizing: border-box; text-underline-position: under; color: #003965 !important;\" href=\"https://www.d20pfsrd.com/classes/base-classes/witch/hexes/hexes/grand-hexes/animal-servant-su/\">Animal Servant (Su)</a></li>\n<li class=\"page new parent\" style=\"box-sizing: border-box;\"><a style=\"box-sizing: border-box; text-underline-position: under; color: #003965 !important;\" href=\"https://www.d20pfsrd.com/classes/base-classes/witch/hexes/hexes/grand-hexes/hex-grand-curse-of-nonviolence-su/\">Curse of Nonviolence (Su)</a></li>\n<li class=\"page new parent\" style=\"box-sizing: border-box;\"><a style=\"box-sizing: border-box; text-underline-position: under; color: #003965 !important;\" href=\"https://www.d20pfsrd.com/classes/base-classes/witch/hexes/hexes/grand-hexes/hex-grand-death-curse-su/\">Death Curse (Su)</a></li>\n<li class=\"page new parent\" style=\"box-sizing: border-box;\"><a style=\"box-sizing: border-box; text-underline-position: under; color: #003965 !important;\" href=\"https://www.d20pfsrd.com/classes/base-classes/witch/hexes/hexes/grand-hexes/death-interrupted-su/\">Death Interrupted (Su)</a></li>\n<li class=\"page new parent\" style=\"box-sizing: border-box;\"><a style=\"box-sizing: border-box; text-underline-position: under; color: #003965 !important;\" href=\"https://www.d20pfsrd.com/classes/base-classes/witch/hexes/hexes/grand-hexes/hex-grand-dire-prophecy-su/\">Dire Prophecy (Su)</a></li>\n<li class=\"page new parent\" style=\"box-sizing: border-box;\"><a style=\"box-sizing: border-box; text-underline-position: under; color: #003965 !important;\" href=\"https://www.d20pfsrd.com/classes/base-classes/witch/hexes/hexes/grand-hexes/hex-grand-eternal-slumber-su/\">Eternal Slumber (Su)</a></li>\n<li class=\"page new parent\" style=\"box-sizing: border-box;\"><a style=\"box-sizing: border-box; text-underline-position: under; color: #003965 !important;\" href=\"https://www.d20pfsrd.com/classes/base-classes/witch/hexes/hexes/grand-hexes/hex-grand-forced-reincarnation-su/\">Forced Reincarnation (Su)</a></li>\n<li class=\"page new parent\" style=\"box-sizing: border-box;\"><a style=\"box-sizing: border-box; text-underline-position: under; color: #003965 !important;\" href=\"https://www.d20pfsrd.com/classes/base-classes/witch/hexes/hexes/grand-hexes/hex-grand-lay-to-rest-sp/\">Lay to Rest (Sp)</a></li>\n<li class=\"page new parent\" style=\"box-sizing: border-box;\"><a style=\"box-sizing: border-box; text-underline-position: under; color: #003965 !important;\" href=\"https://www.d20pfsrd.com/classes/base-classes/witch/hexes/hexes/grand-hexes/hex-grand-life-giver-su/\">Life Giver (Su)</a></li>\n<li class=\"page new parent\" style=\"box-sizing: border-box;\"><a style=\"box-sizing: border-box; text-underline-position: under; color: #003965 !important;\" href=\"https://www.d20pfsrd.com/classes/base-classes/witch/hexes/hexes/grand-hexes/hex-grand-natural-disaster-su/\">Natural Disaster (Su)</a></li>\n<li class=\"page new parent\" style=\"box-sizing: border-box;\"><a style=\"box-sizing: border-box; text-underline-position: under; color: #003965 !important;\" href=\"https://www.d20pfsrd.com/classes/base-classes/witch/hexes/hexes/grand-hexes/hex-grand-summon-spirit-sp/\">Summon Spirit (Sp)</a></li>\n<li class=\"page new parent\" style=\"box-sizing: border-box;\"><a style=\"box-sizing: border-box; text-underline-position: under; color: #003965 !important;\" href=\"https://www.d20pfsrd.com/classes/base-classes/witch/hexes/hexes/grand-hexes/hex-grand-witchs-hut-su/\">Witch’s Hut (Su)</a></li>\n</ul>",
      "chat": "",
      "unidentified": ""
    },
    "damage": {
      "parts": [],
      "critParts": [],
      "nonCritParts": []
    },
    "preparation": {
      "maxAmount": 0
    },
    "weaponData": {
      "critRange": 20,
      "critMult": 2
    },
    "uses": {
      "value": 0,
      "max": 0
    }
  },
  "flags": {},
  "img": "systems/pf1/icons/skills/affliction_21.jpg",
  "effects": []
}